%!PS-Adobe-3.0 EPSF-3.0
%%Title: test.eps
%%Creator: matplotlib version 1.5.1, http://matplotlib.org/
%%CreationDate: Mon Jul  8 17:55:53 2019
%%Orientation: portrait
%%BoundingBox: 50 193 561 598
%%EndComments
%%BeginProlog
/mpldict 8 dict def
mpldict begin
/m { moveto } bind def
/l { lineto } bind def
/r { rlineto } bind def
/c { curveto } bind def
/cl { closepath } bind def
/box {
m
1 index 0 r
0 exch r
neg 0 r
cl
} bind def
/clipbox {
box
clip
newpath
} bind def
%!PS-Adobe-3.0 Resource-Font
%%Title: STIXGeneral-Regular
%%Copyright: Copyright (c) 2001-2010 by the STI Pub Companies, consisting of the American Chemical Society, the American Institute of Physics, the American Mathematical Society, the American Physical Society, Elsevier, Inc., and The Institute of Electrical and Electronic Engineers, Inc. Portions copyright (c) 1998-2003 by MicroPress, Inc. Portions copyright (c) 1990 by Elsevier, Inc. All rights reserved.
%%Creator: Converted from TrueType to type 3 by PPR
25 dict begin
/_d{bind def}bind def
/_m{moveto}_d
/_l{lineto}_d
/_cl{closepath eofill}_d
/_c{curveto}_d
/_sc{7 -1 roll{setcachedevice}{pop pop pop pop pop pop}ifelse}_d
/_e{exec}_d
/FontName /STIXGeneral-Regular def
/PaintType 0 def
/FontMatrix[.001 0 0 .001 0 0]def
/FontBBox[-970 -443 2000 1023]def
/FontType 3 def
/Encoding [ /hyphen /period /zero /one /two /three /four /five /six /seven /eight /nine /D /E /Q /R /e ] def
/FontInfo 10 dict dup begin
/FamilyName (STIXGeneral) def
/FullName (STIXGeneral-Regular) def
/Notice (Copyright (c) 2001-2010 by the STI Pub Companies, consisting of the American Chemical Society, the American Institute of Physics, the American Mathematical Society, the American Physical Society, Elsevier, Inc., and The Institute of Electrical and Electronic Engineers, Inc. Portions copyright (c) 1998-2003 by MicroPress, Inc. Portions copyright (c) 1990 by Elsevier, Inc. All rights reserved. STIX Fonts(TM) is a trademark of The Institute of Electrical and Electronics Engineers, Inc.) def
/Weight (Regular) def
/Version (Version 1.0.0) def
/ItalicAngle 0.0 def
/isFixedPitch false def
/UnderlinePosition -75 def
/UnderlineThickness 50 def
end readonly def
/CharStrings 17 dict dup begin
/hyphen{333 0 39 194 285 257 _sc
285 194 _m
39 194 _l
39 257 _l
285 257 _l
285 194 _l
_cl}_d
/period{250 0 70 -10 181 100 _sc
181 43 _m
181 28 175 15 164 5 _c
153 -5 140 -10 125 -10 _c
109 -10 96 -5 86 5 _c
75 15 70 28 70 44 _c
70 59 75 72 86 83 _c
97 94 110 100 126 100 _c
140 100 153 94 164 83 _c
175 71 181 58 181 43 _c
_cl}_d
/zero{{500 0 24 -13 476 676 _sc
476 330 _m
476 285 471 243 463 203 _c
454 163 441 127 424 94 _c
407 60 384 34 354 15 _c
324 -3 289 -13 250 -13 _c
209 -13 173 -3 143 17 _c
112 37 88 65 72 100 _c
55 134 43 171 35 211 _c
27 250 24 292 24 336 _c
24 398 31 453 47 503 _c
62 553 87 594 123 627 _c
159 659 202 676 254 676 _c
319 676 372 644 414 580 _c
}_e{455 516 476 432 476 330 _c
380 325 _m
380 430 368 510 346 566 _c
324 622 291 650 248 650 _c
206 650 175 622 153 566 _c
131 510 120 431 120 329 _c
120 226 131 147 153 93 _c
175 39 207 12 250 12 _c
292 12 324 39 346 93 _c
368 147 380 225 380 325 _c
_cl}_e}_d
/one{500 0 111 0 394 676 _sc
394 0 _m
118 0 _l
118 15 _l
154 17 179 23 193 35 _c
206 47 213 67 213 95 _c
213 544 _l
213 576 203 593 183 593 _c
173 593 158 589 138 581 _c
111 571 _l
111 585 _l
290 676 _l
299 673 _l
299 76 _l
299 54 305 38 319 29 _c
332 19 357 15 394 15 _c
394 0 _l
_cl}_d
/two{{500 0 29 0 474 676 _sc
474 137 _m
420 0 _l
29 0 _l
29 12 _l
207 201 _l
253 249 287 294 307 335 _c
327 375 337 417 337 461 _c
337 505 324 540 300 565 _c
275 589 241 602 198 602 _c
162 602 133 592 112 574 _c
91 555 71 521 51 472 _c
30 477 _l
41 539 64 587 98 623 _c
132 658 179 676 238 676 _c
293 676 338 659 372 626 _c
406 592 423 550 423 500 _c
}_e{423 424 380 342 295 252 _c
130 76 _l
364 76 _l
386 76 403 80 416 89 _c
429 97 444 115 460 143 _c
474 137 _l
_cl}_e}_d
/three{{500 0 41 -13 431 676 _sc
61 510 _m
45 514 _l
60 564 84 603 117 632 _c
149 661 191 676 241 676 _c
287 676 325 663 354 638 _c
382 612 397 579 397 539 _c
397 484 366 438 304 401 _c
340 385 368 367 387 348 _c
416 315 431 272 431 219 _c
431 165 415 119 385 79 _c
362 48 329 25 287 10 _c
245 -5 200 -13 153 -13 _c
78 -13 41 5 41 43 _c
41 53 45 62 53 69 _c
}_e{61 75 70 79 82 79 _c
98 79 119 70 143 53 _c
172 32 201 22 229 22 _c
265 22 296 36 321 66 _c
346 96 359 132 359 175 _c
359 251 324 300 255 320 _c
234 326 200 330 153 330 _c
153 344 _l
190 356 218 368 237 380 _c
291 410 318 455 318 514 _c
318 547 308 572 289 590 _c
270 607 244 616 210 616 _c
150 616 100 580 61 510 _c
_cl}_e}_d
/four{500 0 12 0 473 676 _sc
473 167 _m
370 167 _l
370 0 _l
292 0 _l
292 167 _l
12 167 _l
12 231 _l
326 676 _l
370 676 _l
370 231 _l
473 231 _l
473 167 _l
292 231 _m
292 574 _l
52 231 _l
292 231 _l
_cl}_d
/five{{500 0 31 -13 438 688 _sc
438 681 _m
402 596 _l
398 587 389 583 375 583 _c
181 583 _l
141 498 _l
214 484 267 468 300 452 _c
332 436 363 408 391 370 _c
414 338 426 295 426 243 _c
426 195 418 154 402 122 _c
386 89 362 60 328 35 _c
282 3 226 -13 158 -13 _c
120 -13 89 -7 66 3 _c
42 14 31 29 31 48 _c
31 73 46 86 76 86 _c
100 86 124 75 150 55 _c
}_e{176 33 199 23 221 23 _c
255 23 286 40 314 75 _c
342 109 356 148 356 192 _c
356 256 333 306 289 342 _c
231 388 160 412 76 412 _c
68 412 64 414 64 420 _c
65 425 _l
174 662 _l
381 662 _l
392 662 401 663 407 667 _c
413 670 421 677 429 688 _c
438 681 _l
_cl}_e}_d
/six{{500 0 34 -13 468 684 _sc
446 684 _m
448 668 _l
369 655 303 623 251 572 _c
198 521 165 458 152 383 _c
190 413 233 428 279 428 _c
337 428 383 409 417 372 _c
451 334 468 283 468 219 _c
468 153 451 100 417 59 _c
377 11 324 -13 258 -13 _c
176 -13 117 20 81 87 _c
49 144 34 208 34 279 _c
34 388 70 480 143 555 _c
184 597 226 627 270 645 _c
314 663 372 676 446 684 _c
}_e{378 188 _m
378 317 333 382 243 382 _c
209 382 182 373 160 355 _c
138 337 127 308 127 266 _c
127 188 139 126 163 81 _c
187 36 223 14 269 14 _c
304 14 331 29 350 61 _c
368 93 378 135 378 188 _c
_cl}_e}_d
/seven{500 0 20 -7 449 662 _sc
449 646 _m
237 -7 _l
172 -7 _l
370 588 _l
155 588 _l
126 588 105 583 91 573 _c
77 563 59 540 38 506 _c
20 515 _l
80 662 _l
449 662 _l
449 646 _l
_cl}_d
/eight{{500 0 56 -13 445 676 _sc
445 155 _m
445 103 427 62 391 32 _c
355 2 308 -13 248 -13 _c
192 -13 146 2 110 32 _c
74 62 56 101 56 149 _c
56 184 64 214 82 239 _c
99 264 134 295 186 332 _c
136 373 102 406 86 432 _c
70 457 62 486 62 520 _c
62 567 80 605 116 633 _c
152 661 199 676 256 676 _c
304 676 344 662 376 634 _c
408 606 424 573 424 533 _c
}_e{424 496 414 467 395 445 _c
376 423 341 398 290 371 _c
350 331 390 295 412 264 _c
434 232 445 196 445 155 _c
355 533 _m
355 567 345 595 326 616 _c
306 637 280 648 246 648 _c
212 648 185 639 165 621 _c
145 603 136 579 136 549 _c
136 518 145 490 165 465 _c
185 440 217 415 261 389 _c
295 409 319 430 333 452 _c
347 474 355 501 355 533 _c
271 272 _m
212 312 _l
}_e{182 288 162 264 150 241 _c
138 218 132 190 132 158 _c
132 112 143 77 166 52 _c
189 26 220 14 259 14 _c
291 14 318 24 338 44 _c
358 64 369 91 369 124 _c
369 154 361 180 346 203 _c
330 225 305 248 271 272 _c
_cl}_e}_d
/nine{{500 0 30 -21 459 676 _sc
59 -21 _m
56 -1 _l
132 11 197 43 250 95 _c
303 146 340 212 360 294 _c
321 256 271 237 210 237 _c
156 237 112 255 79 293 _c
46 330 30 379 30 440 _c
30 507 49 563 89 608 _c
129 653 178 676 238 676 _c
301 676 353 650 395 600 _c
437 546 459 478 459 394 _c
459 335 448 280 428 228 _c
408 176 378 133 339 97 _c
297 59 257 33 218 17 _c
}_e{178 1 125 -11 59 -21 _c
362 355 _m
362 394 _l
362 563 318 648 230 648 _c
198 648 174 636 157 614 _c
147 600 138 580 132 554 _c
125 527 122 500 122 474 _c
122 414 133 367 155 332 _c
177 297 207 280 245 280 _c
271 280 297 286 323 299 _c
349 312 362 331 362 355 _c
_cl}_e}_d
/D{{722 0 16 0 685 662 _sc
16 662 _m
286 662 _l
416 662 516 631 586 571 _c
652 514 685 435 685 334 _c
685 212 639 122 549 64 _c
483 21 399 0 297 0 _c
16 0 _l
16 19 _l
54 21 79 28 89 39 _c
99 50 104 75 104 115 _c
104 550 _l
104 588 99 613 89 623 _c
79 633 54 640 16 643 _c
16 662 _l
206 583 _m
206 84 _l
206 66 209 53 215 47 _c
}_e{221 40 234 37 254 37 _c
306 37 348 40 380 48 _c
412 55 442 69 472 89 _c
541 135 576 215 576 328 _c
576 424 544 500 481 556 _c
452 581 421 599 387 609 _c
353 619 310 625 259 625 _c
239 625 226 622 218 616 _c
210 610 206 599 206 583 _c
_cl}_e}_d
/E{{611 0 12 0 597 662 _sc
597 169 _m
551 0 _l
12 0 _l
12 19 _l
50 21 74 28 84 39 _c
94 50 99 75 99 114 _c
99 550 _l
99 587 93 611 83 623 _c
73 634 49 641 12 643 _c
12 662 _l
542 662 _l
546 519 _l
521 519 _l
513 563 500 592 482 605 _c
463 617 425 624 367 624 _c
236 624 _l
221 624 211 621 207 617 _c
203 613 201 603 201 588 _c
201 368 _l
352 368 _l
}_e{394 368 421 374 435 386 _c
449 398 459 424 465 464 _c
488 464 _l
488 230 _l
465 230 _l
459 272 449 298 436 310 _c
422 321 394 327 352 327 _c
201 327 _l
201 84 _l
201 64 208 51 222 45 _c
236 39 262 37 302 37 _c
338 37 _l
409 37 460 45 490 63 _c
520 80 546 115 569 169 _c
597 169 _l
_cl}_e}_d
/Q{{722 0 34 -176 701 676 _sc
701 -176 _m
653 -176 _l
487 -176 371 -134 306 -52 _c
265 0 _l
225 13 193 27 171 41 _c
149 55 128 75 110 100 _c
59 167 34 244 34 332 _c
34 436 64 519 126 582 _c
187 644 265 676 361 676 _c
457 676 535 644 596 581 _c
657 518 688 435 688 333 _c
688 274 679 223 662 181 _c
644 138 617 99 580 64 _c
559 43 537 28 514 18 _c
}_e{491 8 462 0 426 -6 _c
461 -56 501 -93 545 -117 _c
589 -141 641 -154 701 -158 _c
701 -176 _l
574 338 _m
574 395 566 446 550 491 _c
534 536 511 571 483 595 _c
447 625 405 640 358 640 _c
300 640 252 616 214 569 _c
194 545 178 512 166 470 _c
154 427 148 382 148 335 _c
148 232 167 154 206 100 _c
222 76 244 57 273 43 _c
302 29 331 22 361 22 _c
419 22 468 46 510 94 _c
}_e{530 116 545 150 557 195 _c
568 239 574 287 574 338 _c
_cl}_e}_d
/R{{667 0 17 0 660 662 _sc
660 0 _m
498 0 _l
260 308 _l
204 306 _l
204 112 _l
204 74 209 49 219 39 _c
229 28 254 21 293 19 _c
293 0 _l
17 0 _l
17 19 _l
55 22 78 29 88 41 _c
97 52 102 80 102 124 _c
102 551 _l
102 588 97 612 88 623 _c
78 633 55 640 17 643 _c
17 662 _l
289 662 _l
380 662 450 642 498 603 _c
530 576 547 536 547 483 _c
}_e{547 392 486 337 366 319 _c
566 66 _l
580 48 593 37 606 31 _c
618 25 636 21 660 19 _c
660 0 _l
204 583 _m
204 343 _l
252 343 287 346 311 351 _c
334 355 357 364 381 377 _c
419 398 438 436 438 491 _c
438 580 377 625 255 625 _c
237 625 224 622 216 616 _c
208 610 204 599 204 583 _c
_cl}_e}_d
/e{{444 0 25 -9 424 460 _sc
408 164 _m
424 157 _l
384 46 314 -9 215 -9 _c
156 -9 110 11 76 52 _c
42 92 25 147 25 217 _c
25 288 44 346 82 392 _c
120 437 170 460 232 460 _c
292 460 338 437 371 391 _c
390 364 401 326 405 277 _c
97 277 _l
99 235 103 203 109 181 _c
115 159 126 136 143 114 _c
171 77 208 59 254 59 _c
286 59 314 67 336 83 _c
}_e{358 99 382 126 408 164 _c
99 309 _m
303 309 _l
297 351 287 380 273 398 _c
259 415 237 424 205 424 _c
177 424 153 414 135 394 _c
116 374 104 346 99 309 _c
_cl}_e}_d
end readonly def

/BuildGlyph
 {exch begin
 CharStrings exch
 2 copy known not{pop /.notdef}if
 true 3 1 roll get exec
 end}_d

/BuildChar {
 1 index /Encoding get exch get
 1 index /BuildGlyph get exec
}_d

FontName currentdict end definefont pop
end
%%EndProlog
mpldict begin
50.28 193.769 translate
511.44 404.461 0 0 clipbox
100000 setmiterlimit
gsave
0 0 m
511.44 0 l
511.44 404.461406 l
0 404.461406 l
cl
1.000 setgray
fill
grestore
gsave
54.2 48.590625 m
376.855625 48.590625 l
376.855625 384.769687 l
54.2 384.769687 l
cl
1.000 setgray
fill
grestore
1.000 setlinewidth
1 setlinejoin
0 setlinecap
[1 3] 0 setdash
0.000 setgray
gsave
322.7 336.2 54.2 48.59 clipbox
-10.331125 -27.813707 m
stroke
grestore
2 setlinecap
[] 0 setdash
0.992 0.553 0.235 setrgbcolor
gsave
322.7 336.2 54.2 48.59 clipbox
118.744031 94.698347 m
118.731125 94.696055 l
118.718219 94.693763 l
106.557225 92.877632 l
99.958965 92.138038 l
94.090392 91.563478 l
88.212897 91.047748 l
83.625101 90.680244 l
80.062199 90.415121 l
77.765028 90.253143 l
77.046785 90.204245 l
76.264633 90.191256 l
stroke
grestore
gsave
322.7 336.2 54.2 48.59 clipbox
118.718219 94.693763 m
118.731125 94.696055 l
118.744031 94.698347 l
124.753314 96.115648 l
127.787342 97.265533 l
129.566377 98.539957 l
129.798019 98.877664 l
129.995371 99.523281 l
129.679499 100.615099 l
127.752835 102.404488 l
124.144611 104.420799 l
120.3139 106.186503 l
115.574548 108.277689 l
110.7932 110.498763 l
106.057996 112.988017 l
102.394245 115.243472 l
99.335096 117.456142 l
96.432579 119.946159 l
94.042729 122.394154 l
91.85958 125.063721 l
89.914579 127.915895 l
88.220179 130.884203 l
86.553042 134.3606 l
84.908206 138.373356 l
83.512123 142.08355 l
82.22012 145.451453 l
81.122117 148.053021 l
80.114932 150.196162 l
79.160306 152.099394 l
78.158322 154.187525 l
77.36032 156.365812 l
77.039803 157.767068 l
76.890526 158.909312 l
76.857087 161.283959 l
77.193609 164.095639 l
77.812744 166.854599 l
78.715096 169.815267 l
79.853442 172.876024 l
81.39015 176.425006 l
83.380177 180.456098 l
85.593125 184.460449 l
88.584132 189.320529 l
92.301272 194.708562 l
96.333292 199.910933 l
101.290479 205.552629 l
106.642687 210.842865 l
112.397747 215.729686 l
118.558766 220.186351 l
125.108613 224.218972 l
131.065943 227.413437 l
136.357411 229.996667 l
140.750312 232.061112 l
144.171449 233.732075 l
146.457611 234.992747 l
148.414655 236.298497 l
150.266239 237.789145 l
151.982199 239.282086 l
153.640255 240.722308 l
155.599007 242.383338 l
158.571468 244.812231 l
162.202409 247.65218 l
166.670104 250.981117 l
171.817442 254.58511 l
177.087648 257.962181 l
182.510306 261.000017 l
188.13583 263.571023 l
193.13995 265.371873 l
197.352892 266.668455 l
200.801107 267.67088 l
203.505666 268.139238 l
205.682852 267.324004 l
207.451926 265.653041 l
208.525907 264.453493 l
210.541481 262.160599 l
213.781281 258.765191 l
217.982151 255.098547 l
223.70895 251.247004 l
230.053686 248.099146 l
236.906899 245.613713 l
244.115601 243.728054 l
251.550115 242.371877 l
259.121732 241.491699 l
267.995574 241.021813 l
276.925614 241.131071 l
285.868787 241.828642 l
294.782524 243.081673 l
300.098606 243.969492 l
303.442919 244.375199 l
305.402228 244.353805 l
305.592403 244.33012 l
305.741952 244.307199 l
stroke
grestore
gsave
322.7 336.2 54.2 48.59 clipbox
118.731125 94.692999 m
stroke
grestore
0 setlinecap
gsave
322.7 336.2 54.2 48.59 clipbox
/o {
gsave
newpath
translate
1.0 setlinewidth
1 setlinejoin
0 setlinecap
0 -3.5 m
0.928211 -3.5 1.81853 -3.131218 2.474874 -2.474874 c
3.131218 -1.81853 3.5 -0.928211 3.5 0 c
3.5 0.928211 3.131218 1.81853 2.474874 2.474874 c
1.81853 3.131218 0.928211 3.5 0 3.5 c
-0.928211 3.5 -1.81853 3.131218 -2.474874 2.474874 c
-3.131218 1.81853 -3.5 0.928211 -3.5 0 c
-3.5 -0.928211 -3.131218 -1.81853 -2.474874 -2.474874 c
-1.81853 -3.131218 -0.928211 -3.5 0 -3.5 c
cl

gsave
1.000 setgray
fill
grestore
stroke
grestore
} bind def
118.731 94.693 o
grestore
2 setlinecap
gsave
322.7 336.2 54.2 48.59 clipbox
118.731125 106.884838 m
stroke
grestore
0 setlinecap
gsave
322.7 336.2 54.2 48.59 clipbox
/o {
gsave
newpath
translate
1.0 setlinewidth
1 setlinejoin
0 setlinecap
0 -3.5 m
0.928211 -3.5 1.81853 -3.131218 2.474874 -2.474874 c
3.131218 -1.81853 3.5 -0.928211 3.5 0 c
3.5 0.928211 3.131218 1.81853 2.474874 2.474874 c
1.81853 3.131218 0.928211 3.5 0 3.5 c
-0.928211 3.5 -1.81853 3.131218 -2.474874 2.474874 c
-3.131218 1.81853 -3.5 0.928211 -3.5 0 c
-3.5 -0.928211 -3.131218 -1.81853 -2.474874 -2.474874 c
-1.81853 -3.131218 -0.928211 -3.5 0 -3.5 c
cl

gsave
1.000 setgray
fill
grestore
stroke
grestore
} bind def
118.731 106.885 o
grestore
2 setlinecap
gsave
322.7 336.2 54.2 48.59 clipbox
118.731125 220.300958 m
stroke
grestore
0 setlinecap
gsave
322.7 336.2 54.2 48.59 clipbox
/o {
gsave
newpath
translate
1.0 setlinewidth
1 setlinejoin
0 setlinecap
0 -3.5 m
0.928211 -3.5 1.81853 -3.131218 2.474874 -2.474874 c
3.131218 -1.81853 3.5 -0.928211 3.5 0 c
3.5 0.928211 3.131218 1.81853 2.474874 2.474874 c
1.81853 3.131218 0.928211 3.5 0 3.5 c
-0.928211 3.5 -1.81853 3.131218 -2.474874 2.474874 c
-3.131218 1.81853 -3.5 0.928211 -3.5 0 c
-3.5 -0.928211 -3.131218 -1.81853 -2.474874 -2.474874 c
-1.81853 -3.131218 -0.928211 -3.5 0 -3.5 c
cl

gsave
1.000 setgray
fill
grestore
stroke
grestore
} bind def
118.731 220.301 o
grestore
2 setlinecap
0.529 0.294 0.125 setrgbcolor
gsave
322.7 336.2 54.2 48.59 clipbox
118.744031 229.01258 m
118.731125 228.995007 l
118.718219 228.977434 l
114.470328 222.852862 l
112.394696 219.634712 l
110.355836 216.303483 l
108.359371 212.846951 l
106.411539 209.250599 l
104.520839 205.491506 l
102.698704 201.544458 l
100.960173 197.378894 l
99.324614 192.957375 l
97.816844 188.235587 l
96.62977 183.807956 l
95.599103 179.015877 l
94.774741 173.618675 l
94.327038 167.636215 l
94.31044 166.933295 l
94.301244 166.041657 l
94.322488 164.323323 l
94.519013 161.025712 l
95.131367 156.715744 l
96.203965 152.507393 l
97.715223 148.638278 l
99.219988 145.812082 l
100.939488 143.262469 l
102.821771 140.994025 l
104.823158 138.984591 l
106.909462 137.205898 l
109.356162 135.421857 l
111.857915 133.851748 l
114.891166 132.210583 l
118.339806 130.612204 l
121.822054 129.221645 l
125.991111 127.787536 l
130.695892 126.413022 l
135.420788 125.247856 l
141.000552 124.109431 l
146.594809 123.20404 l
153.207951 122.420895 l
159.832053 121.947953 l
167.544189 121.816537 l
175.261368 122.252042 l
182.975727 123.779364 l
184.898838 124.69316 l
185.770106 125.454911 l
185.9824 125.772753 l
186.18122 126.387044 l
186.189996 126.497831 l
186.190109 126.636886 l
186.154832 126.91729 l
185.940302 127.499491 l
184.969707 128.698275 l
182.831114 130.243171 l
180.012305 131.715482 l
176.000376 133.394086 l
170.159405 135.429497 l
162.318555 137.796503 l
154.167745 140.080993 l
146.004072 142.394516 l
139.176844 144.490287 l
133.362831 146.499721 l
128.285253 148.514503 l
123.832174 150.572072 l
119.944976 152.683887 l
116.576217 154.851478 l
113.681674 157.071024 l
111.217423 159.334121 l
109.138589 161.635419 l
107.400299 163.968807 l
105.959857 166.336578 l
104.778954 168.75019 l
103.825526 171.228747 l
103.007723 174.087797 l
102.458795 176.894892 l
102.101162 180.061852 l
101.986053 183.722383 l
102.177515 187.767993 l
102.617949 191.562996 l
103.309859 195.522269 l
104.113808 199.095699 l
105.069956 202.670658 l
106.152957 206.209707 l
107.341777 209.694508 l
108.619242 213.115894 l
110.165418 216.929998 l
stroke
grestore
gsave
322.7 336.2 54.2 48.59 clipbox
118.718219 228.977434 m
118.731125 228.995007 l
118.744031 229.01258 l
123.238028 234.917106 l
125.998512 238.287301 l
128.802382 241.526845 l
131.646673 244.633445 l
135.060619 248.138112 l
138.525009 251.460936 l
142.532617 255.039715 l
146.594121 258.419079 l
151.513611 262.255341 l
157.261331 266.506478 l
163.050398 270.672806 l
168.858236 274.83073 l
173.216731 277.951847 l
176.867 280.54883 l
180.519714 283.100735 l
183.541636 285.149899 l
186.572247 287.136411 l
189.115662 288.775284 l
191.251168 290.207101 l
192.855385 291.44256 l
193.750699 292.22876 l
194.335904 292.594737 l
194.862991 292.494647 l
195.509434 291.860491 l
195.988797 291.205706 l
196.554383 290.337753 l
197.533196 288.724857 l
198.718025 286.76203 l
200.57066 284.480597 l
200.816474 284.589855 l
200.888055 284.860326 l
200.8729 285.407381 l
200.606411 286.662704 l
200.205278 287.897399 l
199.686331 289.246699 l
198.995746 290.910785 l
198.1743 292.901118 l
197.355735 295.061833 l
196.582769 297.443356 l
195.811669 300.444518 l
195.20103 303.648916 l
194.765259 306.559921 l
194.391512 308.942972 l
193.932107 310.691103 l
193.327859 311.540719 l
192.5002 311.594966 l
191.512596 311.03263 l
190.682769 310.425216 l
189.871659 309.983599 l
189.179755 309.929352 l
188.620375 310.136408 l
188.151823 310.309845 l
187.582905 310.283104 l
187.072059 310.086745 l
186.570148 309.811689 l
185.955417 309.418971 l
185.152047 308.858163 l
184.125533 308.102524 l
182.826007 307.117672 l
181.187396 305.857001 l
179.142581 304.270847 l
176.631062 302.313368 l
173.613527 299.947126 l
170.103195 297.166772 l
166.598219 294.339812 l
162.478389 290.913842 l
158.378194 287.339647 l
154.308286 283.556104 l
150.282948 279.508967 l
146.801347 275.704795 l
143.81317 272.186376 l
140.876667 268.491462 l
137.993817 264.64374 l
135.161916 260.673771 l
132.375028 256.606004 l
129.62674 252.452665 l
126.912649 248.216044 l
124.231652 243.886975 l
121.586267 239.448647 l
118.982479 234.877376 l
116.429508 230.14642 l
113.939741 225.222925 l
111.803959 220.679159 l
109.745373 215.923753 l
108.096061 211.749021 l
106.531513 207.3573 l
105.304669 203.475195 l
104.175452 199.344013 l
103.33582 195.649864 l
102.69297 192.063444 l
102.191203 187.927678 l
102.056263 186.006109 l
101.998053 184.483371 l
102.002836 182.017039 l
stroke
grestore
gsave
322.7 336.2 54.2 48.59 clipbox
118.731125 130.442586 m
stroke
grestore
0 setlinecap
gsave
322.7 336.2 54.2 48.59 clipbox
/o {
gsave
newpath
translate
1.0 setlinewidth
1 setlinejoin
0 setlinecap
0 -3.5 m
0.928211 -3.5 1.81853 -3.131218 2.474874 -2.474874 c
3.131218 -1.81853 3.5 -0.928211 3.5 0 c
3.5 0.928211 3.131218 1.81853 2.474874 2.474874 c
1.81853 3.131218 0.928211 3.5 0 3.5 c
-0.928211 3.5 -1.81853 3.131218 -2.474874 2.474874 c
-3.131218 1.81853 -3.5 0.928211 -3.5 0 c
-3.5 -0.928211 -3.131218 -1.81853 -2.474874 -2.474874 c
-1.81853 -3.131218 -0.928211 -3.5 0 -3.5 c
cl

gsave
1.000 setgray
fill
grestore
stroke
grestore
} bind def
118.731 130.443 o
grestore
2 setlinecap
gsave
322.7 336.2 54.2 48.59 clipbox
118.731125 228.996535 m
stroke
grestore
0 setlinecap
gsave
322.7 336.2 54.2 48.59 clipbox
/o {
gsave
newpath
translate
1.0 setlinewidth
1 setlinejoin
0 setlinecap
0 -3.5 m
0.928211 -3.5 1.81853 -3.131218 2.474874 -2.474874 c
3.131218 -1.81853 3.5 -0.928211 3.5 0 c
3.5 0.928211 3.131218 1.81853 2.474874 2.474874 c
1.81853 3.131218 0.928211 3.5 0 3.5 c
-0.928211 3.5 -1.81853 3.131218 -2.474874 2.474874 c
-3.131218 1.81853 -3.5 0.928211 -3.5 0 c
-3.5 -0.928211 -3.131218 -1.81853 -2.474874 -2.474874 c
-1.81853 -3.131218 -0.928211 -3.5 0 -3.5 c
cl

gsave
1.000 setgray
fill
grestore
stroke
grestore
} bind def
118.731 228.997 o
grestore
[6 6] 0 setdash
0.694 0.000 0.149 setrgbcolor
gsave
322.7 336.2 54.2 48.59 clipbox
118.744031 81.386421 m
118.731125 81.387949 l
118.718219 81.389477 l
105.935999 82.943541 l
99.408978 83.955134 l
93.743404 85.007222 l
88.115056 86.273242 l
83.24444 87.621014 l
78.450154 89.280516 l
74.594 90.9744 l
70.888451 93.074755 l
67.842695 95.365357 l
65.12184 98.177037 l
62.664772 102.00031 l
61.080574 106.177334 l
60.523235 108.665823 l
60.205367 110.97247 l
60.078438 114.623833 l
60.085297 112.479164 l
60.043565 115.291607 l
60.034877 113.632105 l
60.041387 116.316953 l
60.306045 120.123417 l
60.870423 124.227858 l
61.723481 128.537826 l
62.839953 132.968514 l
64.192788 137.45956 l
65.982822 142.574066 l
68.022314 147.679404 l
70.293975 152.748067 l
73.19383 158.530347 l
76.380952 164.206425 l
79.854334 169.748031 l
84.207193 175.917681 l
88.959968 181.825264 l
94.134868 187.413477 l
99.761438 192.616612 l
105.872488 197.357501 l
112.496675 201.555155 l
119.64417 205.146922 l
127.286766 208.112174 l
135.344977 210.502866 l
143.701924 212.432839 l
152.242312 214.041151 l
160.88316 215.44317 l
169.576754 216.717594 l
179.369302 218.061547 l
189.180559 219.378757 l
198.997308 220.750979 l
208.803914 222.269897 l
216.959268 223.704007 l
225.080016 225.312318 l
233.15578 227.090247 l
241.182222 229.013344 l
250.742788 231.45599 l
261.563425 234.321917 l
273.736586 237.511033 l
286.077985 240.508375 l
298.560452 243.090842 l
311.229211 245.052905 l
324.05624 246.209667 l
337.021513 246.507644 l
348.59791 246.188273 l
360.172537 245.564814 l
373.032371 244.762569 l
385.894301 243.985537 l
398.75836 243.281089 l
411.643612 242.656865 l
424.534448 242.104462 l
437.428789 241.61471 l
450.325571 241.178441 l
463.224152 240.786487 l
476.124079 240.431971 l
489.024999 240.107253 l
501.926628 239.80622 l
512.44 239.574617 l
stroke
grestore
gsave
322.7 336.2 54.2 48.59 clipbox
118.718219 81.389477 m
118.731125 81.387949 l
118.744031 81.386421 l
131.5785 80.200625 l
141.301623 79.470964 l
151.041496 78.845977 l
160.791685 78.305034 l
172.267889 77.753395 l
185.161305 77.222385 l
198.060503 76.764723 l
210.959359 76.366656 l
223.859775 76.017488 l
236.761376 75.708815 l
249.663886 75.433759 l
262.567098 75.187737 l
275.470857 74.966165 l
288.375047 74.765985 l
301.279579 74.584143 l
314.184386 74.417581 l
327.089415 74.265537 l
339.994624 74.124953 l
352.899981 73.99583 l
365.80546 73.876639 l
378.71104 73.765088 l
391.616705 73.661943 l
404.522441 73.565673 l
417.428237 73.475516 l
430.334083 73.390707 l
443.239974 73.311247 l
456.145901 73.23637 l
469.051861 73.165314 l
481.957849 73.098843 l
494.863861 73.035427 l
507.769895 72.975068 l
512.44 72.954609 l
stroke
grestore
gsave
322.7 336.2 54.2 48.59 clipbox
118.731125 204.738159 m
stroke
grestore
[] 0 setdash
gsave
322.7 336.2 54.2 48.59 clipbox
/o {
gsave
newpath
translate
1.0 setlinewidth
1 setlinejoin
0 setlinecap
0 -3.5 m
0.928211 -3.5 1.81853 -3.131218 2.474874 -2.474874 c
3.131218 -1.81853 3.5 -0.928211 3.5 0 c
3.5 0.928211 3.131218 1.81853 2.474874 2.474874 c
1.81853 3.131218 0.928211 3.5 0 3.5 c
-0.928211 3.5 -1.81853 3.131218 -2.474874 2.474874 c
-3.131218 1.81853 -3.5 0.928211 -3.5 0 c
-3.5 -0.928211 -3.131218 -1.81853 -2.474874 -2.474874 c
-1.81853 -3.131218 -0.928211 -3.5 0 -3.5 c
cl

gsave
1.000 setgray
fill
grestore
stroke
grestore
} bind def
118.731 204.738 o
grestore
[6 6] 0 setdash
gsave
322.7 336.2 54.2 48.59 clipbox
118.731125 81.391005 m
stroke
grestore
[] 0 setdash
gsave
322.7 336.2 54.2 48.59 clipbox
/o {
gsave
newpath
translate
1.0 setlinewidth
1 setlinejoin
0 setlinecap
0 -3.5 m
0.928211 -3.5 1.81853 -3.131218 2.474874 -2.474874 c
3.131218 -1.81853 3.5 -0.928211 3.5 0 c
3.5 0.928211 3.131218 1.81853 2.474874 2.474874 c
1.81853 3.131218 0.928211 3.5 0 3.5 c
-0.928211 3.5 -1.81853 3.131218 -2.474874 2.474874 c
-3.131218 1.81853 -3.5 0.928211 -3.5 0 c
-3.5 -0.928211 -3.131218 -1.81853 -2.474874 -2.474874 c
-1.81853 -3.131218 -0.928211 -3.5 0 -3.5 c
cl

gsave
1.000 setgray
fill
grestore
stroke
grestore
} bind def
118.731 81.391 o
grestore
[6 6] 0 setdash
0.996 0.851 0.463 setrgbcolor
gsave
322.7 336.2 54.2 48.59 clipbox
118.744031 72.858933 m
118.731125 72.862753 l
118.718219 72.866574 l
112.579254 75.000547 l
109.996457 76.222252 l
108.076083 77.518833 l
107.524652 78.09263 l
107.229977 78.55182 l
107.05623 79.174515 l
107.146306 79.729975 l
107.847618 80.60786 l
109.243017 81.402466 l
110.497463 81.860127 l
112.049514 82.277295 l
114.103332 82.683002 l
116.655323 83.042103 l
119.74095 83.337023 l
123.431337 83.550955 l
127.776705 83.667854 l
132.805283 83.672438 l
138.53895 83.556304 l
145.003317 83.31563 l
151.462244 82.998552 l
159.363684 82.546238 l
168.314499 81.992307 l
177.261057 81.431499 l
187.979237 80.782062 l
200.068084 80.105884 l
212.162499 79.499998 l
225.048974 78.941482 l
237.94216 78.480764 l
250.841284 78.12472 l
263.744821 77.867237 l
276.650708 77.693035 l
289.557289 77.579193 l
302.463787 77.500496 l
315.37005 77.432496 l
328.276086 77.349216 l
341.181715 77.215508 l
354.086111 76.992407 l
366.988472 76.661577 l
379.887042 76.291016 l
392.783832 76.033533 l
405.685141 75.984634 l
418.590514 76.133623 l
431.494629 76.427015 l
444.391336 76.812857 l
457.284067 77.258295 l
470.174465 77.736586 l
483.064211 78.213349 l
495.954032 78.681707 l
507.014503 79.191324 l
512.44 79.376137 l
stroke
grestore
gsave
322.7 336.2 54.2 48.59 clipbox
118.718219 72.866574 m
118.731125 72.862753 l
118.744031 72.858933 l
124.603807 71.273543 l
129.168657 70.211523 l
133.78957 69.250356 l
138.448529 68.376291 l
144.187289 67.409776 l
150.69489 66.440205 l
157.23584 65.580656 l
165.017522 64.685198 l
173.796495 63.814188 l
182.600879 63.06237 l
193.198483 62.288394 l
205.249656 61.54498 l
217.316823 60.91388 l
230.20586 60.339319 l
243.099062 59.844983 l
255.995303 59.418647 l
268.893901 59.049614 l
281.794345 58.72948 l
294.69619 58.450604 l
307.599061 58.206874 l
320.502657 57.991414 l
333.406741 57.797347 l
346.31113 57.617797 l
359.215673 57.447415 l
372.120245 57.28009 l
385.024729 57.108944 l
397.929021 56.930158 l
410.833037 56.740675 l
423.736735 56.540496 l
436.64013 56.330384 l
449.543281 56.111867 l
462.446247 55.886475 l
475.349049 55.65497 l
488.251691 55.41888 l
501.154228 55.181263 l
512.44 54.974089 l
stroke
grestore
gsave
322.7 336.2 54.2 48.59 clipbox
118.731125 72.864281 m
stroke
grestore
[] 0 setdash
gsave
322.7 336.2 54.2 48.59 clipbox
/o {
gsave
newpath
translate
1.0 setlinewidth
1 setlinejoin
0 setlinecap
0 -3.5 m
0.928211 -3.5 1.81853 -3.131218 2.474874 -2.474874 c
3.131218 -1.81853 3.5 -0.928211 3.5 0 c
3.5 0.928211 3.131218 1.81853 2.474874 2.474874 c
1.81853 3.131218 0.928211 3.5 0 3.5 c
-0.928211 3.5 -1.81853 3.131218 -2.474874 2.474874 c
-3.131218 1.81853 -3.5 0.928211 -3.5 0 c
-3.5 -0.928211 -3.131218 -1.81853 -2.474874 -2.474874 c
-1.81853 -3.131218 -0.928211 -3.5 0 -3.5 c
cl

gsave
1.000 setgray
fill
grestore
stroke
grestore
} bind def
118.731 72.8643 o
grestore
[6 6] 0 setdash
gsave
322.7 336.2 54.2 48.59 clipbox
118.731125 83.255271 m
stroke
grestore
[] 0 setdash
gsave
322.7 336.2 54.2 48.59 clipbox
/o {
gsave
newpath
translate
1.0 setlinewidth
1 setlinejoin
0 setlinecap
0 -3.5 m
0.928211 -3.5 1.81853 -3.131218 2.474874 -2.474874 c
3.131218 -1.81853 3.5 -0.928211 3.5 0 c
3.5 0.928211 3.131218 1.81853 2.474874 2.474874 c
1.81853 3.131218 0.928211 3.5 0 3.5 c
-0.928211 3.5 -1.81853 3.131218 -2.474874 2.474874 c
-3.131218 1.81853 -3.5 0.928211 -3.5 0 c
-3.5 -0.928211 -3.131218 -1.81853 -2.474874 -2.474874 c
-1.81853 -3.131218 -0.928211 -3.5 0 -3.5 c
cl

gsave
1.000 setgray
fill
grestore
stroke
grestore
} bind def
118.731 83.2553 o
grestore
[6 6] 0 setdash
0.890 0.102 0.110 setrgbcolor
gsave
322.7 336.2 54.2 48.59 clipbox
118.744031 79.51375 m
118.731125 79.515279 l
118.718219 79.517571 l
113.981325 80.241884 l
111.941918 80.616265 l
110.379052 80.931815 l
109.393261 81.144983 l
108.826169 81.210691 l
stroke
grestore
gsave
322.7 336.2 54.2 48.59 clipbox
118.718219 79.517571 m
118.731125 79.515279 l
118.744031 79.51375 l
123.665718 78.927729 l
126.820496 78.617528 l
129.983197 78.346292 l
134.078211 78.038383 l
138.840547 77.728181 l
143.60793 77.453126 l
149.475655 77.150564 l
156.20413 76.839599 l
162.935342 76.559959 l
170.913412 76.26351 l
178.89363 76.006792 l
187.879633 75.793624 l
196.868922 75.753893 l
205.861717 76.070971 l
211.708477 76.619554 l
216.479892 77.421036 l
219.547738 78.567865 l
219.614473 78.660314 l
219.646396 78.732898 l
219.657387 78.780269 l
219.659033 78.853617 l
219.607204 78.997257 l
219.281614 79.283009 l
218.424176 79.64975 l
217.305469 79.96148 l
215.474897 80.343501 l
212.666903 80.804984 l
209.071191 81.300084 l
203.519631 81.987723 l
196.660164 82.835047 l
188.054171 84.08655 l
179.488093 85.902681 l
174.668925 87.611846 l
173.200308 88.457642 l
172.39129 89.188067 l
172.147249 89.560156 l
172.048028 89.820695 l
172.015444 90.001773 l
172.031615 90.305098 l
172.327238 90.872018 l
173.874046 91.823252 l
176.547936 92.506307 l
179.725278 92.865408 l
183.695575 92.988419 l
188.890535 92.832554 l
195.020249 92.353499 l
201.125025 91.642938 l
208.366589 90.536603 l
215.553621 89.191887 l
222.682274 87.737149 l
229.778449 86.353466 l
236.892107 85.149334 l
244.051585 84.153786 l
251.257408 83.35918 l
259.653907 82.660845 l
268.083974 82.155048 l
276.534136 81.797476 l
286.543984 81.519364 l
296.56182 81.362735 l
308.446277 81.302376 l
320.332757 81.347454 l
332.219335 81.473522 l
344.10507 81.669117 l
357.007249 81.953341 l
369.906812 82.311677 l
382.803205 82.749474 l
395.695134 83.285068 l
408.579976 83.95055 l
421.452666 84.821559 l
434.307592 86.085287 l
437.560421 86.491758 l
439.621238 86.843982 l
439.943526 86.963937 l
439.983337 86.999083 l
stroke
grestore
gsave
322.7 336.2 54.2 48.59 clipbox
118.731125 79.519099 m
stroke
grestore
[] 0 setdash
gsave
322.7 336.2 54.2 48.59 clipbox
/o {
gsave
newpath
translate
1.0 setlinewidth
1 setlinejoin
0 setlinecap
0 -3.5 m
0.928211 -3.5 1.81853 -3.131218 2.474874 -2.474874 c
3.131218 -1.81853 3.5 -0.928211 3.5 0 c
3.5 0.928211 3.131218 1.81853 2.474874 2.474874 c
1.81853 3.131218 0.928211 3.5 0 3.5 c
-0.928211 3.5 -1.81853 3.131218 -2.474874 2.474874 c
-3.131218 1.81853 -3.5 0.928211 -3.5 0 c
-3.5 -0.928211 -3.131218 -1.81853 -2.474874 -2.474874 c
-1.81853 -3.131218 -0.928211 -3.5 0 -3.5 c
cl

gsave
1.000 setgray
fill
grestore
stroke
grestore
} bind def
118.731 79.5191 o
grestore
[6 6] 0 setdash
0.996 0.698 0.298 setrgbcolor
gsave
322.7 336.2 54.2 48.59 clipbox
118.744031 153.414313 m
118.731125 153.422717 l
118.718219 153.430358 l
113.519702 157.207024 l
111.114127 159.438794 l
109.114213 161.665217 l
107.235705 164.215593 l
105.73906 166.748397 l
104.420475 169.609739 l
103.472244 172.346542 l
102.740497 175.306446 l
102.256915 178.397001 l
102.029851 181.275153 l
102.021544 185.243594 l
102.309316 189.137158 l
102.891019 193.281329 l
103.754223 197.583657 l
104.872057 201.973086 l
106.212146 206.391549 l
107.743289 210.800843 l
109.438544 215.175755 l
111.275771 219.499476 l
113.236923 223.76513 l
115.307 227.96966 l
117.473069 232.113831 l
120.06721 236.808878 l
122.758217 241.437452 l
125.532065 246.006431 l
128.376005 250.517343 l
131.280305 254.967895 l
134.239698 259.344335 l
137.254752 263.62527 l
140.332464 267.781666 l
143.485046 271.785253 l
146.726092 275.619222 l
150.065102 279.279754 l
153.503529 282.773724 l
157.034674 286.120234 l
160.646201 289.34144 l
165.137907 293.140264 l
169.70164 296.845874 l
174.313522 300.498001 l
178.438486 303.723028 l
182.008731 306.490393 l
184.840192 308.632006 l
186.537784 309.792588 l
187.576664 310.281576 l
188.188025 310.302205 l
188.594397 310.148632 l
188.989156 309.980543 l
189.615481 309.920183 l
190.175107 310.113486 l
190.720078 310.451193 l
191.231032 310.825575 l
191.888818 311.288585 l
192.754481 311.65609 l
193.813269 310.95317 l
194.64925 307.359874 l
194.490456 308.380636 l
194.162888 309.980543 l
stroke
grestore
gsave
322.7 336.2 54.2 48.59 clipbox
118.718219 153.430358 m
118.731125 153.422717 l
118.744031 153.414313 l
124.258282 150.360432 l
127.705352 148.765109 l
131.206057 147.319539 l
135.386192 145.770059 l
139.60138 144.353523 l
144.613383 142.804807 l
149.648268 141.346249 l
155.672906 139.663061 l
162.448293 137.759065 l
169.222133 135.729002 l
177.437154 132.829458 l
182.066576 130.681732 l
185.124621 128.550051 l
186.022894 127.326818 l
186.113897 127.078504 l
186.190731 126.620078 l
186.0549 125.920978 l
184.860102 124.667947 l
181.314368 123.273568 l
176.920849 122.449165 l
170.805031 121.918919 l
162.926831 121.837166 l
155.031992 122.258918 l
147.142658 123.127636 l
139.271807 124.436442 l
132.382581 125.974461 l
125.529035 127.93576 l
120.042312 129.907756 l
115.365379 131.976021 l
111.291538 134.188691 l
107.780755 136.538124 l
104.789385 139.015916 l
102.259289 141.626652 l
99.894708 144.743949 l
98.136629 147.771853 l
96.628185 151.265059 l
95.457141 155.202938 l
94.699495 159.395244 l
94.363724 163.236854 l
94.411992 169.54556 l
94.98756 175.272064 l
95.81742 180.144369 l
96.954861 185.106066 l
98.37164 190.065471 l
100.042404 194.970629 l
101.721245 199.259204 l
103.565929 203.469083 l
105.560344 207.594917 l
107.688719 211.636706 l
109.935605 215.592923 l
112.286956 219.463566 l
114.731065 223.245581 l
117.258901 226.937438 l
119.863875 230.535318 l
122.541314 234.036928 l
125.287934 237.437685 l
128.101412 240.733768 l
130.98006 243.921357 l
134.419045 247.49708 l
137.942732 250.917702 l
141.547778 254.183987 l
145.873855 257.83535 l
150.291792 261.323972 l
155.712917 265.377986 l
161.207934 269.352539 l
166.742287 273.315632 l
171.376905 276.6354 l
175.28669 279.428742 l
178.735998 281.862984 l
182.193235 284.243743 l
185.080875 286.16684 l
187.985013 288.045623 l
190.356483 289.591283 l
192.215547 290.921482 l
193.334802 291.862019 l
194.058393 292.464085 l
194.627771 292.598557 l
195.256223 292.154648 l
195.724889 291.579323 l
196.111206 291.024628 l
196.870573 289.826608 l
197.787304 288.298521 l
199.176564 286.046122 l
200.055386 284.871023 l
200.55603 284.484417 l
200.852872 284.676956 l
stroke
grestore
gsave
322.7 336.2 54.2 48.59 clipbox
118.731125 153.425009 m
stroke
grestore
[] 0 setdash
gsave
322.7 336.2 54.2 48.59 clipbox
/o {
gsave
newpath
translate
1.0 setlinewidth
1 setlinejoin
0 setlinecap
0 -3.5 m
0.928211 -3.5 1.81853 -3.131218 2.474874 -2.474874 c
3.131218 -1.81853 3.5 -0.928211 3.5 0 c
3.5 0.928211 3.131218 1.81853 2.474874 2.474874 c
1.81853 3.131218 0.928211 3.5 0 3.5 c
-0.928211 3.5 -1.81853 3.131218 -2.474874 2.474874 c
-3.131218 1.81853 -3.5 0.928211 -3.5 0 c
-3.5 -0.928211 -3.131218 -1.81853 -2.474874 -2.474874 c
-1.81853 -3.131218 -0.928211 -3.5 0 -3.5 c
cl

gsave
1.000 setgray
fill
grestore
stroke
grestore
} bind def
118.731 153.425 o
grestore
[6 6] 0 setdash
gsave
322.7 336.2 54.2 48.59 clipbox
118.731125 234.421242 m
stroke
grestore
[] 0 setdash
gsave
322.7 336.2 54.2 48.59 clipbox
/o {
gsave
newpath
translate
1.0 setlinewidth
1 setlinejoin
0 setlinecap
0 -3.5 m
0.928211 -3.5 1.81853 -3.131218 2.474874 -2.474874 c
3.131218 -1.81853 3.5 -0.928211 3.5 0 c
3.5 0.928211 3.131218 1.81853 2.474874 2.474874 c
1.81853 3.131218 0.928211 3.5 0 3.5 c
-0.928211 3.5 -1.81853 3.131218 -2.474874 2.474874 c
-3.131218 1.81853 -3.5 0.928211 -3.5 0 c
-3.5 -0.928211 -3.131218 -1.81853 -2.474874 -2.474874 c
-1.81853 -3.131218 -0.928211 -3.5 0 -3.5 c
cl

gsave
1.000 setgray
fill
grestore
stroke
grestore
} bind def
118.731 234.421 o
grestore
[6 6] 0 setdash
0.145 0.204 0.580 setrgbcolor
gsave
322.7 336.2 54.2 48.59 clipbox
118.744031 126.529156 m
118.731125 126.532977 l
118.718219 126.537561 l
109.371746 130.216429 l
104.881971 132.941772 l
101.32587 136.101855 l
98.671905 139.728769 l
96.908378 143.633794 l
95.796855 147.909381 l
95.356314 150.862408 l
95.169599 152.798494 l
95.031266 155.024152 l
94.973633 156.580508 l
94.947955 157.739562 l
94.936982 158.62356 l
94.937382 160.853803 l
95.058805 166.252533 l
95.350734 173.080024 l
95.797113 181.447062 l
96.232462 189.02408 l
96.697319 196.855524 l
97.120266 203.794566 l
97.393265 208.191635 l
97.610199 211.661156 l
97.747605 213.865421 l
97.851557 215.563125 l
97.87701 215.997866 l
97.88957 216.230135 l
97.892936 216.301955 l
97.894376 216.347033 l
97.894407 216.349325 l
97.894413 216.350854 l
97.894418 216.351618 l
97.894418 216.353146 l
97.894394 216.355438 l
97.894258 216.359258 l
97.893625 216.36155 l
97.891066 216.347033 l
97.891445 216.268337 l
97.893491 216.316472 l
97.893948 216.32946 l
97.894358 216.345505 l
97.894397 216.348561 l
97.894413 216.350854 l
97.894418 216.351618 l
97.894418 216.353146 l
97.894399 216.355438 l
97.894289 216.359258 l
97.893774 216.362314 l
97.891587 216.350854 l
97.889791 216.336337 l
97.889748 216.336337 l
97.889663 216.335573 l
97.889493 216.334045 l
97.88916 216.330988 l
97.888511 216.324876 l
97.887275 216.312651 l
97.884982 216.28973 l
97.880838 216.245416 l
97.873409 216.162899 l
97.860514 216.01391 l
97.842113 215.796158 l
97.816306 215.489777 l
97.780347 215.065733 l
97.731411 214.499577 l
97.665953 213.764567 l
97.579162 212.83167 l
97.464446 211.668796 l
97.31231 210.243091 l
stroke
grestore
gsave
322.7 336.2 54.2 48.59 clipbox
118.718219 126.537561 m
118.731125 126.532977 l
118.744031 126.529156 l
128.459236 124.007813 l
133.994905 122.874737 l
139.564693 121.871548 l
145.152467 120.960045 l
151.519435 119.995058 l
157.894862 119.070565 l
165.165085 118.026118 l
172.436418 116.956458 l
181.040592 115.61709 l
189.636487 114.168463 l
199.860003 112.282805 l
210.062068 110.23364 l
220.242071 108.062993 l
230.404474 105.848796 l
240.559898 103.694194 l
250.723761 101.693928 l
257.539144 100.466875 l
264.366342 99.342967 l
270.224537 98.468137 l
276.091613 97.658251 l
283.274832 96.711602 l
290.462636 95.779469 l
297.651856 94.87637 l
304.84358 94.084821 l
311.037835 93.686754 l
314.970691 93.711203 l
318.907906 93.893046 l
323.401443 94.095517 l
327.89517 94.223877 l
332.994901 94.29264 l
339.409304 94.305629 l
347.382692 94.268191 l
357.049222 94.211652 l
368.557009 94.186438 l
381.463369 94.242214 l
394.36966 94.383562 l
407.275496 94.590617 l
413.104872 94.540955 l
415.856452 94.41718 l
419.031336 94.312506 l
431.944233 94.17345 l
444.856891 94.288056 l
457.762932 94.505809 l
470.666935 94.754123 l
483.571116 94.996324 l
496.47583 95.214841 l
509.381045 95.402795 l
512.44 95.438653 l
stroke
grestore
gsave
322.7 336.2 54.2 48.59 clipbox
118.731125 126.530684 m
stroke
grestore
[] 0 setdash
gsave
322.7 336.2 54.2 48.59 clipbox
/o {
gsave
newpath
translate
1.0 setlinewidth
1 setlinejoin
0 setlinecap
0 -3.5 m
0.928211 -3.5 1.81853 -3.131218 2.474874 -2.474874 c
3.131218 -1.81853 3.5 -0.928211 3.5 0 c
3.5 0.928211 3.131218 1.81853 2.474874 2.474874 c
1.81853 3.131218 0.928211 3.5 0 3.5 c
-0.928211 3.5 -1.81853 3.131218 -2.474874 2.474874 c
-3.131218 1.81853 -3.5 0.928211 -3.5 0 c
-3.5 -0.928211 -3.131218 -1.81853 -2.474874 -2.474874 c
-1.81853 -3.131218 -0.928211 -3.5 0 -3.5 c
cl

gsave
1.000 setgray
fill
grestore
stroke
grestore
} bind def
118.731 126.531 o
grestore
[6 6] 0 setdash
gsave
322.7 336.2 54.2 48.59 clipbox
96.145231 187.531903 m
stroke
grestore
0 setlinejoin
[] 0 setdash
gsave
322.7 336.2 54.2 48.59 clipbox
/o {
gsave
newpath
translate
1.0 setlinewidth
0 setlinejoin
0 setlinecap
-3.5 -3.5 m
3.5 -3.5 l
3.5 3.5 l
-3.5 3.5 l
cl

gsave
1.000 setgray
fill
grestore
stroke
grestore
} bind def
96.1452 187.532 o
grestore
1 setlinejoin
[6 6] 0 setdash
0.980 0.624 0.710 setrgbcolor
gsave
322.7 336.2 54.2 48.59 clipbox
118.744031 67.861326 m
118.731125 67.863618 l
118.718219 67.86591 l
108.249554 70.393365 l
103.187209 71.990216 l
98.237533 73.890392 l
93.468143 76.147376 l
88.955958 78.813123 l
84.797946 81.910554 l
80.414126 86.157107 l
77.431647 89.903976 l
75.340411 93.142755 l
73.583555 96.409805 l
72.115317 99.664629 l
70.890389 102.881251 l
69.743722 106.463851 l
68.809866 109.956293 l
67.936572 113.905633 l
67.249623 117.707512 l
66.615292 122.093885 l
66.094431 126.791987 l
65.701193 131.657415 l
65.429616 136.63745 l
65.27748 141.36535 l
65.230693 144.147231 l
65.231779 150.746274 l
65.401032 158.252235 l
65.749108 166.23496 l
66.27038 174.542403 l
66.953724 183.06989 l
67.896988 192.803038 l
69.013725 202.670658 l
70.245296 212.293784 l
71.601982 221.875651 l
73.077044 231.426192 l
74.665399 240.953813 l
76.363135 250.461568 l
78.167285 259.95175 l
80.075602 269.425887 l
82.086375 278.885508 l
84.198287 288.330611 l
86.410307 297.761962 l
88.721634 307.178032 l
91.131725 316.579585 l
93.640447 325.964329 l
96.248494 335.329972 l
98.95832 344.670402 l
101.772293 353.958112 l
104.068569 361.195895 l
105.548304 365.638043 l
106.698936 368.837856 l
106.979703 369.508686 l
107.124924 369.765405 l
107.164231 369.776101 l
107.172054 369.757 l
107.16626 369.773045 l
107.12114 369.76082 l
107.002301 369.556057 l
107.090878 369.124372 l
107.171631 369.617944 l
107.175858 369.67754 l
107.176304 369.691293 l
107.176454 369.701225 l
107.17626 369.718034 l
107.174272 369.744776 l
107.164103 369.776101 l
107.118195 369.757764 l
106.995711 369.542304 l
107.13752 369.374979 l
107.165171 369.559113 l
107.121769 369.761584 l
107.054992 369.659203 l
106.865054 369.248147 l
106.78157 369.045676 l
106.527352 368.390891 l
106.156724 367.377769 l
105.726261 366.154536 l
105.063706 364.209282 l
104.271637 361.81859 l
103.283759 358.761653 l
102.043556 354.83065 l
100.530102 349.910975 l
98.720564 343.866628 l
96.58679 336.517295 l
stroke
grestore
gsave
322.7 336.2 54.2 48.59 clipbox
76.794605 252.783495 m
76.785894 252.736889 l
76.777182 252.690282 l
72.665787 228.839906 l
70.832314 216.550269 l
69.324925 205.205754 l
67.961854 193.416565 l
66.895316 182.403645 l
66.101469 172.098992 l
65.554721 162.237485 l
65.244714 151.754811 l
65.219598 149.403849 l
65.217748 145.620307 l
65.328824 139.410163 l
65.591593 133.409367 l
66.006895 127.740165 l
66.663163 121.721796 l
67.530036 116.061763 l
68.773774 110.105281 l
70.572569 103.810328 l
72.715662 98.264902 l
74.752742 94.171158 l
76.943866 90.606895 l
79.244768 87.524745 l
81.622746 84.859762 l
84.054263 82.548531 l
86.523089 80.535276 l
89.018196 78.771864 l
91.928697 76.990115 l
94.857207 75.439107 l
98.226184 73.894976 l
101.607115 72.555608 l
105.522488 71.215476 l
109.445814 70.057186 l
114.010555 68.895076 l
118.580566 67.89418 l
123.920841 66.888699 l
129.264583 66.026094 l
135.536384 65.15814 l
141.810447 64.41549 l
149.208069 63.667492 l
156.607154 63.03028 l
165.317015 62.39154 l
174.027804 61.848305 l
182.738499 61.381474 l
191.449418 60.975767 l
200.160505 60.619723 l
208.871718 60.305701 l
217.583026 60.025297 l
226.294406 59.773927 l
235.005842 59.546242 l
243.717321 59.339186 l
252.428835 59.14894 l
261.140374 58.973974 l
269.851935 58.810469 l
278.563513 58.65766 l
287.275104 58.51402 l
295.986707 58.378784 l
304.698318 58.248897 l
313.409937 58.125122 l
322.121562 58.006695 l
330.833193 57.892088 l
339.544828 57.782066 l
348.256467 57.6751 l
356.96811 57.570426 l
365.679755 57.469572 l
374.391404 57.371775 l
383.103055 57.275505 l
391.814709 57.182292 l
400.526366 57.091371 l
409.238025 57.003506 l
417.949686 56.917169 l
426.661349 56.833888 l
435.373015 56.7529 l
444.084683 56.674967 l
452.796353 56.599327 l
461.508026 56.526743 l
470.2197 56.456451 l
478.931377 56.389215 l
487.643056 56.325036 l
496.354738 56.263912 l
505.066421 56.205845 l
512.44 56.159283 l
stroke
grestore
gsave
322.7 336.2 54.2 48.59 clipbox
76.777182 252.690282 m
76.785894 252.736889 l
76.794605 252.783495 l
81.478185 276.07612 l
84.411089 289.257396 l
87.488508 302.206402 l
91.149261 316.646057 l
94.962195 330.757937 l
98.9148 344.523705 l
102.112746 355.052222 l
104.145939 361.433512 l
105.781135 366.312693 l
106.749056 368.964687 l
107.014124 369.579742 l
107.149146 369.782214 l
107.16665 369.772281 l
107.175514 369.732551 l
107.176013 369.68136 l
107.167643 369.579742 l
107.147923 369.438394 l
107.085758 369.098395 l
106.980535 368.604823 l
106.830174 367.954622 l
106.615121 367.068332 l
106.31902 365.885593 l
105.930274 364.360562 l
105.436513 362.439757 l
104.825526 360.065111 l
104.08719 357.175499 l
103.213635 353.709798 l
102.199243 349.599245 l
101.040192 344.764379 l
99.732372 339.100526 l
98.265545 332.43272 l
96.609939 324.417141 l
94.715691 314.424219 l
92.939391 303.946893 l
91.319652 292.96759 l
90.228044 284.31862 l
89.394346 276.548299 l
88.680152 268.423462 l
88.168101 260.877006 l
87.79108 252.918731 l
87.573846 244.540996 l
87.536976 234.371579 l
87.74747 221.707561 l
87.950478 213.758455 l
88.111092 207.632355 l
88.275321 200.972954 l
88.428822 194.308204 l
88.571517 188.225655 l
88.716687 182.842206 l
88.927867 176.744376 l
89.261692 169.952795 l
89.788644 162.757799 l
90.489727 156.196195 l
91.39072 150.12587 l
92.711514 143.619277 l
94.332288 137.698706 l
96.532928 131.667348 l
99.046948 126.440527 l
101.439847 122.511053 l
103.961697 119.128633 l
106.572408 116.226796 l
109.244555 113.732195 l
111.959178 111.580649 l
114.70336 109.714091 l
117.468311 108.084386 l
120.706185 106.431761 l
123.958235 104.994595 l
127.220269 103.731632 l
131.025338 102.440398 l
134.837147 101.303502 l
138.653731 100.291909 l
143.156931 99.229124 l
147.663552 98.283239 l
152.734822 97.332005 l
157.808392 96.480096 l
163.565748 95.614435 l
169.32475 94.839695 l
175.901713 94.048911 l
182.479902 93.342171 l
190.035505 92.615565 l
197.592005 91.962308 l
206.30137 91.277726 l
215.011317 90.644334 l
223.721166 90.042267 l
232.431077 89.458538 l
241.141013 88.887034 l
249.850993 88.331574 l
258.561084 87.802092 l
267.271387 87.316925 l
275.982035 86.910454 l
284.693212 86.671308 l
stroke
grestore
gsave
322.7 336.2 54.2 48.59 clipbox
118.731125 67.867438 m
stroke
grestore
[] 0 setdash
gsave
322.7 336.2 54.2 48.59 clipbox
/o {
gsave
newpath
translate
1.0 setlinewidth
1 setlinejoin
0 setlinecap
0 -3.5 m
0.928211 -3.5 1.81853 -3.131218 2.474874 -2.474874 c
3.131218 -1.81853 3.5 -0.928211 3.5 0 c
3.5 0.928211 3.131218 1.81853 2.474874 2.474874 c
1.81853 3.131218 0.928211 3.5 0 3.5 c
-0.928211 3.5 -1.81853 3.131218 -2.474874 2.474874 c
-3.131218 1.81853 -3.5 0.928211 -3.5 0 c
-3.5 -0.928211 -3.131218 -1.81853 -2.474874 -2.474874 c
-1.81853 -3.131218 -0.928211 -3.5 0 -3.5 c
cl

gsave
1.000 setgray
fill
grestore
stroke
grestore
} bind def
118.731 67.8674 o
grestore
[6 6] 0 setdash
gsave
322.7 336.2 54.2 48.59 clipbox
76.785894 252.735361 m
stroke
grestore
0 setlinejoin
[] 0 setdash
gsave
322.7 336.2 54.2 48.59 clipbox
/o {
gsave
newpath
translate
1.0 setlinewidth
0 setlinejoin
0 setlinecap
0 3.5 m
-3.5 -3.5 l
3.5 -3.5 l
cl

gsave
1.000 setgray
fill
grestore
stroke
grestore
} bind def
76.7859 252.735 o
grestore
gsave
322.7 336.2 54.2 48.59 clipbox
/o {
gsave
newpath
translate
1.0 setlinewidth
0 setlinejoin
0 setlinecap
-3.5 -3.5 m
3.5 -3.5 l
3.5 3.5 l
-3.5 3.5 l
cl

gsave
1.000 setgray
fill
grestore
stroke
grestore
} bind def
96.1452 74.8202 o
grestore
gsave
322.7 336.2 54.2 48.59 clipbox
/o {
gsave
newpath
translate
1.0 setlinewidth
0 setlinejoin
0 setlinecap
-3.5 -3.5 m
3.5 -3.5 l
3.5 3.5 l
-3.5 3.5 l
cl

gsave
1.000 setgray
fill
grestore
stroke
grestore
} bind def
96.1452 74.8202 o
grestore
0.694 0.000 0.149 setrgbcolor
gsave
322.7 336.2 54.2 48.59 clipbox
/o {
gsave
newpath
translate
1.0 setlinewidth
0 setlinejoin
0 setlinecap
-3.5 -3.5 m
3.5 -3.5 l
3.5 3.5 l
-3.5 3.5 l
cl

gsave
1.000 setgray
fill
grestore
stroke
grestore
} bind def
96.1452 84.5389 o
grestore
gsave
322.7 336.2 54.2 48.59 clipbox
/o {
gsave
newpath
translate
1.0 setlinewidth
0 setlinejoin
0 setlinecap
-3.5 -3.5 m
3.5 -3.5 l
3.5 3.5 l
-3.5 3.5 l
cl

gsave
1.000 setgray
fill
grestore
stroke
grestore
} bind def
96.1452 84.5389 o
grestore
1 setlinejoin
2 setlinecap
0.631 0.855 0.706 setrgbcolor
gsave
322.7 336.2 54.2 48.59 clipbox
96.155879 146.225429 m
96.134584 146.314058 l
95.204186 152.379798 l
94.95677 157.268147 l
94.974082 163.254427 l
95.185657 169.52111 l
95.984856 184.752314 l
97.895564 216.377595 l
97.50519 212.072975 l
96.9305 207.187682 l
96.579638 204.963552 l
96.092042 202.67677 l
95.483601 200.946212 l
94.688611 200.240236 l
94.064819 200.744505 l
93.147356 203.071781 l
92.791949 204.512766 l
91.99556 209.109251 l
91.267669 215.818315 l
90.71375 224.476454 l
90.422916 233.524255 l
90.432426 240.62833 l
90.67483 244.774029 l
91.234708 248.81429 l
91.757977 251.253881 l
92.600032 254.291717 l
93.640633 257.342542 l
96.297429 263.561855 l
98.608942 268.036856 l
101.42304 272.821296 l
104.763778 277.878498 l
108.421819 282.878398 l
112.735673 288.241218 l
117.120593 293.196039 l
121.569824 297.668749 l
123.821419 299.652969 l
126.094868 301.402628 l
128.142673 302.712963 l
130.212276 303.758174 l
132.302148 304.555071 l
139.755156 306.893808 l
144.972663 308.924635 l
146.712682 309.412094 l
148.124966 309.572544 l
148.932872 309.509128 l
149.963347 309.108769 l
150.239566 308.645759 l
150.092967 308.343962 l
149.685301 308.055918 l
148.831462 307.705986 l
144.868345 306.366618 l
142.741224 305.238126 l
141.688616 304.454981 l
140.794915 303.606129 l
140.061997 302.71067 l
139.472823 301.755616 l
139.018661 300.710405 l
138.59776 298.808701 l
138.54732 296.962773 l
138.864932 294.123588 l
139.813016 289.520227 l
141.450966 282.950982 l
141.563129 282.985364 l
141.638961 283.47206 l
141.629443 283.383431 l
141.629443 283.383431 l
141.468558 282.925769 l
141.244308 283.560689 l
139.960865 288.883014 l
138.86503 294.123588 l
138.86503 294.123588 l
stroke
grestore
gsave
322.7 336.2 54.2 48.59 clipbox
96.145231 146.273564 m
stroke
grestore
0 setlinejoin
0 setlinecap
gsave
322.7 336.2 54.2 48.59 clipbox
/o {
gsave
newpath
translate
1.0 setlinewidth
0 setlinejoin
0 setlinecap
-3.5 -3.5 m
3.5 -3.5 l
3.5 3.5 l
-3.5 3.5 l
cl

gsave
1.000 setgray
fill
grestore
stroke
grestore
} bind def
96.1452 146.274 o
grestore
1 setlinejoin
2 setlinecap
0.255 0.714 0.769 setrgbcolor
gsave
322.7 336.2 54.2 48.59 clipbox
96.155879 178.117362 m
96.145231 178.076103 l
96.134584 178.034081 l
95.785241 176.781814 l
95.593256 176.197321 l
95.491859 175.849681 l
95.422879 174.517189 l
95.517282 175.987973 l
95.723508 176.585455 l
95.910403 177.203566 l
96.078705 177.818621 l
96.383719 179.060955 l
96.722938 180.611199 l
97.165974 182.834565 l
97.672161 185.527054 l
98.311326 188.943856 l
99.170736 193.248476 l
100.285731 198.093274 l
101.536986 202.599602 l
102.960979 206.815593 l
104.575467 210.768753 l
106.379967 214.473599 l
108.358789 217.941592 l
110.486376 221.191068 l
112.733656 224.247241 l
115.072793 227.14373 l
117.479494 229.915679 l
119.934004 232.593651 l
122.42184 235.192926 l
124.934617 237.708921 l
127.109172 239.780242 l
128.993495 241.479474 l
130.895478 243.102302 l
132.815277 244.660187 l
134.750054 246.172993 l
136.695417 247.656001 l
138.647373 249.120672 l
140.60357 250.565478 l
142.563674 251.982014 l
144.529088 253.357292 l
146.862396 254.911356 l
149.20937 256.377555 l
151.571356 257.755889 l
153.947765 259.050943 l
156.336789 260.274176 l
158.736133 261.439342 l
161.143348 262.56325 l
163.556081 263.658124 l
165.972367 264.736189 l
168.390905 265.798973 l
170.811188 266.844185 l
173.233519 267.860362 l
176.012117 268.960585 l
178.798033 269.936268 l
181.5962 270.693435 l
184.859131 271.127412 l
187.566878 271.007457 l
189.731258 270.63384 l
191.888454 270.14256 l
194.710015 269.512988 l
197.532471 269.007955 l
200.032475 268.687821 l
202.537336 268.483822 l
205.502904 268.380676 l
208.470795 268.405889 l
211.950007 268.566338 l
215.42819 268.824585 l
219.398257 269.185978 l
223.36676 269.573347 l
227.840681 270.01038 l
232.314571 270.448941 l
237.519349 270.990648 l
242.72323 271.600354 l
247.925101 272.296398 l
251.408924 272.816711 l
254.399927 273.317924 l
256.890044 273.810732 l
259.052194 274.327989 l
261.209509 274.947628 l
263.35966 275.667357 l
265.501489 276.473423 l
267.934468 277.478904 l
270.357623 278.569958 l
272.770979 279.74582 l
275.173676 281.008784 l
277.564712 282.355792 l
279.943576 283.778441 l
282.310523 285.266033 l
284.666808 286.799468 l
287.014978 288.354296 l
289.358997 289.90072 l
292.044706 291.628986 l
294.737807 293.285432 l
297.951169 295.139765 l
301.183608 296.816076 l
303.936621 297.937692 l
306.722069 298.643668 l
308.912407 298.927128 l
310.606082 299.02569 l
312.302375 299.046319 l
stroke
grestore
gsave
322.7 336.2 54.2 48.59 clipbox
96.134584 178.034081 m
96.758966 180.784637 l
100.358776 198.382083 l
101.606686 202.825759 l
103.025703 206.989031 l
104.632024 210.89482 l
106.424385 214.557644 l
108.387032 217.988198 l
110.494907 221.203293 l
112.71973 224.229668 l
115.034475 227.097887 l
119.843734 232.497381 l
124.790576 237.568337 l
128.878182 241.377857 l
132.731944 244.594479 l
138.615031 249.096222 l
144.549146 253.371045 l
149.229585 256.38978 l
153.968142 259.061639 l
158.756602 261.449275 l
165.992828 264.744594 l
173.253903 267.868767 l
176.033168 268.968989 l
178.819785 269.943144 l
181.618703 270.698019 l
184.880447 271.128176 l
187.582949 271.005929 l
189.745405 270.630783 l
194.72317 269.510696 l
197.546638 269.006427 l
200.047373 268.686293 l
202.55296 268.483058 l
205.520045 268.379912 l
208.489442 268.406653 l
215.44973 268.826877 l
232.342423 270.451997 l
242.753851 271.604175 l
251.434261 272.821296 l
256.906242 273.813788 l
261.222996 274.951448 l
265.512254 276.477243 l
270.369252 278.575306 l
275.186146 281.01566 l
279.956855 283.786845 l
287.029489 288.363465 l
292.060227 291.638919 l
297.970161 295.150462 l
301.205518 296.826009 l
303.955416 297.943804 l
306.737768 298.646724 l
308.923262 298.927892 l
312.309873 299.046319 l
316.293558 298.869061 l
322.489399 298.182186 l
326.276531 297.540389 l
329.793892 296.95666 l
331.136489 296.971177 l
332.489597 297.226367 l
333.818669 297.700074 l
335.089563 298.32659 l
336.296724 299.053195 l
339.024277 301.071034 l
344.242697 305.27098 l
348.026415 307.931379 l
353.006372 311.280944 l
356.621286 313.956624 l
360.105103 316.810326 l
361.791893 318.495042 l
362.664656 320.006319 l
362.892952 321.28762 l
362.900747 321.481687 l
362.900747 321.481687 l
stroke
grestore
gsave
322.7 336.2 54.2 48.59 clipbox
96.145231 178.073047 m
stroke
grestore
0 setlinejoin
0 setlinecap
gsave
322.7 336.2 54.2 48.59 clipbox
/o {
gsave
newpath
translate
1.0 setlinewidth
0 setlinejoin
0 setlinecap
-3.5 -3.5 m
3.5 -3.5 l
3.5 3.5 l
-3.5 3.5 l
cl

gsave
1.000 setgray
fill
grestore
stroke
grestore
} bind def
96.1452 178.073 o
grestore
1 setlinejoin
2 setlinecap
0.173 0.498 0.722 setrgbcolor
gsave
322.7 336.2 54.2 48.59 clipbox
143.928372 132.162448 m
144.282472 134.082489 l
145.319577 138.305356 l
146.675454 142.908717 l
148.347629 148.054549 l
151.934547 158.02837 l
153.873883 162.946517 l
155.95618 167.834103 l
157.933177 172.044745 l
160.108328 176.138489 l
162.266969 179.603426 l
164.302681 182.288274 l
166.103305 184.158652 l
168.023556 185.598874 l
170.00723 186.466827 l
171.988278 186.715905 l
173.811751 186.440086 l
175.372835 185.864761 l
176.690401 185.161841 l
178.657713 183.781215 l
180.576116 182.046836 l
181.029147 181.434074 l
180.885105 181.444006 l
180.168731 181.890208 l
178.434109 183.270834 l
176.216809 185.297077 l
171.863682 189.768258 l
160.165525 202.303153 l
158.36593 203.761712 l
156.499085 204.915417 l
154.5897 205.702382 l
152.665171 206.114201 l
150.504822 206.119549 l
148.424164 205.609168 l
146.469789 204.567013 l
144.653495 203.03205 l
142.95651 201.090616 l
141.346795 198.841273 l
138.251975 193.759621 l
135.093107 188.311992 l
133.401595 185.601166 l
131.598543 183.011823 l
129.676055 180.643289 l
127.643384 178.57426 l
125.792319 177.045409 l
123.888108 175.784737 l
121.948387 174.778492 l
119.989456 173.989236 l
114.155036 172.078363 l
112.310292 171.190545 l
110.575117 169.991761 l
109.153895 168.648573 l
108.0392 167.337474 l
105.671741 164.019998 l
100.175292 156.211475 l
98.756403 153.722222 l
95.459496 146.655586 l
91.644585 137.153179 l
90.506414 134.98024 l
89.486153 133.876961 l
88.689406 133.756242 l
87.87431 134.423252 l
87.086021 135.999473 l
86.717794 137.174572 l
86.121743 140.303329 l
85.86876 143.383188 l
85.855858 146.748035 l
86.109852 150.611802 l
86.651581 154.693321 l
87.473241 158.72365 l
88.76016 162.987776 l
90.458836 166.671993 l
92.379388 169.430189 l
94.7593 171.811712 l
97.584982 173.994584 l
100.709741 176.231703 l
103.917551 178.712551 l
107.03737 181.435602 l
116.448339 190.489515 l
120.76708 193.589239 l
124.404276 194.629102 l
126.756907 194.423574 l
129.168448 193.652655 l
131.473464 192.570005 l
137.41273 189.144035 l
143.975207 185.299369 l
147.503638 183.379328 l
151.07743 181.575422 l
154.705748 179.91974 l
158.397752 178.452777 l
162.163001 177.218847 l
166.00595 176.236287 l
173.874452 174.692155 l
177.29328 173.594225 l
179.315601 171.402949 l
179.318318 170.47158 l
178.846519 169.107763 l
177.75238 167.403182 l
176.157794 165.547321 l
174.2708 163.825931 l
172.560212 163.145933 l
171.892189 163.098562 l
171.317353 162.864001 l
170.196365 161.995283 l
168.533394 160.224231 l
167.446064 158.961267 l
166.130399 157.679203 l
164.695759 156.815834 l
163.04503 156.479655 l
161.19715 156.895294 l
159.357283 158.333988 l
158.195738 160.106568 l
157.496604 161.850879 l
157.060882 163.600538 l
156.78121 165.916354 l
156.783915 168.337607 l
157.265425 171.852206 l
158.353437 175.457727 l
160.125949 178.936416 l
162.619428 181.594523 l
165.911373 181.30113 l
168.294907 178.578844 l
171.820455 173.912067 l
175.140251 169.987177 l
178.260741 166.952397 l
181.059328 164.898648 l
184.122745 163.395011 l
187.481349 162.557619 l
191.078628 162.467462 l
194.776487 163.091686 l
197.677309 163.980268 l
200.502395 165.086603 l
212.403995 170.365378 l
216.283356 171.781914 l
225.108131 174.042719 l
230.704752 174.923661 l
242.146905 176.260736 l
247.88983 177.143206 l
253.595199 178.6499 l
256.914862 180.757895 l
257.152072 181.371422 l
257.07648 181.952859 l
256.539502 182.619869 l
255.37793 183.159284 l
253.745767 183.262429 l
252.635202 182.933127 l
252.006516 182.412049 l
251.842133 181.8925 l
252.016828 181.461579 l
252.582921 181.087962 l
253.501991 180.906884 l
254.687204 180.980232 l
255.128482 181.265984 l
255.078913 181.388995 l
254.494121 181.806927 l
253.246461 182.371555 l
248.691404 184.055506 l
238.558788 187.706869 l
233.327048 189.749921 l
226.978566 192.451578 l
220.019097 195.752246 l
213.226317 199.409721 l
206.65155 203.536319 l
201.502698 207.392446 l
197.710045 210.803135 l
194.887592 213.863129 l
192.744746 216.706898 l
191.112037 219.465858 l
189.920782 222.342481 l
189.455038 224.529173 l
189.418693 225.680587 l
189.496769 226.438518 l
189.908467 227.843593 l
190.870714 229.401478 l
191.955949 230.532262 l
194.808353 232.723538 l
198.448434 235.323577 l
198.694312 235.279263 l
198.696094 235.244881 l
198.61007 234.978994 l
198.074185 234.156883 l
196.873322 232.728886 l
194.470431 230.298464 l
192.617043 228.626738 l
190.168578 226.643281 l
187.074562 224.633083 l
183.697221 224.501668 l
183.148937 225.890699 l
183.044797 227.198741 l
183.074229 228.276042 l
183.241286 229.997431 l
183.695983 232.782369 l
184.377049 235.930228 l
185.370584 239.766489 l
187.652616 247.050878 l
190.171903 253.755359 l
193.052464 260.802894 l
193.385934 262.285138 l
193.255239 262.615205 l
192.977363 262.550261 l
192.621588 262.160599 l
192.116386 261.272017 l
191.399452 259.509369 l
190.390245 256.266005 l
187.97412 247.790472 l
187.028095 245.59614 l
185.872292 243.776953 l
184.419522 242.294709 l
182.611148 241.135655 l
180.454742 240.304376 l
178.038803 239.791703 l
175.119747 239.542625 l
172.127246 239.572422 l
169.120807 239.831433 l
166.697946 240.221095 l
164.621558 240.742173 l
162.589511 241.470306 l
158.747647 243.12828 l
156.852259 243.789177 l
153.143464 244.667827 l
150.109974 245.247736 l
147.039845 245.557938 l
132.938154 246.285307 l
130.815776 246.59016 l
130.36754 248.2 l
130.49775 247.348091 l
130.875653 245.595376 l
132.581243 241.506216 l
134.842056 238.713638 l
137.911692 236.39553 l
145.964401 232.190236 l
150.27354 229.211995 l
153.629551 225.015105 l
154.952495 221.918437 l
155.616976 219.338263 l
156.120544 215.544024 l
156.230113 213.251894 l
156.226783 210.830641 l
155.868445 205.311956 l
154.926763 198.764104 l
153.425843 192.393511 l
150.961506 185.828087 l
147.601655 180.247514 l
143.183203 175.650266 l
138.498295 172.619306 l
133.671064 170.771085 l
128.925684 169.87257 l
123.897993 169.637245 l
118.763185 169.756436 l
113.622846 169.576885 l
107.7005 167.818822 l
103.878486 165.075906 l
101.301659 162.019733 l
99.448034 158.669403 l
98.074345 154.641366 l
97.462845 151.362857 l
97.289075 149.620838 l
97.247781 145.24669 l
97.768671 140.479059 l
98.881322 135.513542 l
100.571708 130.536564 l
102.817447 125.664259 l
105.601384 120.973033 l
108.910217 116.511784 l
112.72672 112.30649 l
117.582392 107.893376 l
122.969959 103.775182 l
127.962984 100.404223 l
133.182327 97.14023 l
137.884381 94.342303 l
142.657152 91.678084 l
147.52012 89.30955 l
152.550971 87.377284 l
157.808207 85.904973 l
163.266746 84.830728 l
168.062962 84.138505 l
177.775472 83.054327 l
189.495338 81.901386 l
202.915581 80.825613 l
218.517283 80.00503 l
237.166932 79.499234 l
259.182232 79.354065 l
270.192027 79.441166 l
281.201401 79.672671 l
289.958862 80.008086 l
297.532996 80.444355 l
305.098768 81.034961 l
311.772824 81.744757 l
315.081996 82.373565 l
315.772242 82.736485 l
315.839973 82.880125 l
315.796616 83.054327 l
315.322557 83.440933 l
313.788594 84.09801 l
309.269626 85.561917 l
303.86301 87.338318 l
300.511787 88.565372 l
297.20202 89.960515 l
294.662692 91.477141 l
294.062783 92.323701 l
294.048776 92.666756 l
294.234905 93.073991 l
295.069893 93.726484 l
296.06761 94.161225 l
297.229839 94.526438 l
298.834404 94.910752 l
301.005875 95.30729 l
303.834951 95.683199 l
307.426569 95.961311 l
311.04782 96.020142 l
318.315707 95.750435 l
337.661492 94.836639 l
344.113219 94.648685 l
352.433876 94.525674 l
363.102058 94.563112 l
376.30864 94.893179 l
389.509451 95.534211 l
402.695547 96.390703 l
415.865857 97.089039 l
427.401688 97.295331 l
438.954719 97.063826 l
450.507149 96.422793 l
462.039629 95.439469 l
473.541203 94.223877 l
494.245835 91.781994 l
494.245835 91.781994 l
stroke
grestore
gsave
322.7 336.2 54.2 48.59 clipbox
96.145231 148.275357 m
stroke
grestore
0 setlinejoin
0 setlinecap
gsave
322.7 336.2 54.2 48.59 clipbox
/o {
gsave
newpath
translate
1.0 setlinewidth
0 setlinejoin
0 setlinecap
-3.5 -3.5 m
3.5 -3.5 l
3.5 3.5 l
-3.5 3.5 l
cl

gsave
1.000 setgray
fill
grestore
stroke
grestore
} bind def
96.1452 148.275 o
grestore
1 setlinejoin
2 setlinecap
gsave
322.7 336.2 54.2 48.59 clipbox
96.145231 172.724744 m
stroke
grestore
0 setlinejoin
0 setlinecap
gsave
322.7 336.2 54.2 48.59 clipbox
/o {
gsave
newpath
translate
1.0 setlinewidth
0 setlinejoin
0 setlinecap
-3.5 -3.5 m
3.5 -3.5 l
3.5 3.5 l
-3.5 3.5 l
cl

gsave
1.000 setgray
fill
grestore
stroke
grestore
} bind def
96.1452 172.725 o
grestore
0.992 0.553 0.235 setrgbcolor
gsave
322.7 336.2 54.2 48.59 clipbox
/o {
gsave
newpath
translate
1.0 setlinewidth
0 setlinejoin
0 setlinecap
-3.5 -3.5 m
3.5 -3.5 l
3.5 3.5 l
-3.5 3.5 l
cl

gsave
1.000 setgray
fill
grestore
stroke
grestore
} bind def
96.1452 91.7591 o
grestore
gsave
322.7 336.2 54.2 48.59 clipbox
/o {
gsave
newpath
translate
1.0 setlinewidth
0 setlinejoin
0 setlinecap
-3.5 -3.5 m
3.5 -3.5 l
3.5 3.5 l
-3.5 3.5 l
cl

gsave
1.000 setgray
fill
grestore
stroke
grestore
} bind def
96.1452 91.7591 o
grestore
0.980 0.624 0.710 setrgbcolor
gsave
322.7 336.2 54.2 48.59 clipbox
/o {
gsave
newpath
translate
1.0 setlinewidth
0 setlinejoin
0 setlinecap
0 3.5 m
-3.5 -3.5 l
3.5 -3.5 l
cl

gsave
1.000 setgray
fill
grestore
stroke
grestore
} bind def
76.7859 90.8422 o
grestore
gsave
322.7 336.2 54.2 48.59 clipbox
/o {
gsave
newpath
translate
1.0 setlinewidth
0 setlinejoin
0 setlinecap
0 3.5 m
-3.5 -3.5 l
3.5 -3.5 l
cl

gsave
1.000 setgray
fill
grestore
stroke
grestore
} bind def
76.7859 90.8422 o
grestore
0.694 0.000 0.149 setrgbcolor
gsave
322.7 336.2 54.2 48.59 clipbox
/o {
gsave
newpath
translate
1.0 setlinewidth
0 setlinejoin
0 setlinecap
0 3.5 m
-3.5 -3.5 l
3.5 -3.5 l
cl

gsave
1.000 setgray
fill
grestore
stroke
grestore
} bind def
76.7859 89.9636 o
grestore
gsave
322.7 336.2 54.2 48.59 clipbox
/o {
gsave
newpath
translate
1.0 setlinewidth
0 setlinejoin
0 setlinecap
0 3.5 m
-3.5 -3.5 l
3.5 -3.5 l
cl

gsave
1.000 setgray
fill
grestore
stroke
grestore
} bind def
76.7859 89.9636 o
grestore
1 setlinejoin
2 setlinecap
0.773 0.106 0.541 setrgbcolor
gsave
322.7 336.2 54.2 48.59 clipbox
76.794605 213.051715 m
76.785894 213.082276 l
76.777182 213.113602 l
75.290377 219.469678 l
74.702285 222.800907 l
74.263765 225.786025 l
73.892749 228.831501 l
73.688282 230.825654 l
73.543195 232.446954 l
73.465473 233.411941 l
73.428268 233.593783 l
stroke
grestore
gsave
322.7 336.2 54.2 48.59 clipbox
76.777182 213.113602 m
76.785894 213.082276 l
76.794605 213.051715 l
78.728621 207.458917 l
80.081692 204.707597 l
81.579075 202.468186 l
83.203067 200.775066 l
84.925503 199.633586 l
86.71371 199.020059 l
88.538111 198.892464 l
90.375895 199.201901 l
92.210855 199.901765 l
94.341397 201.160144 l
96.442063 202.834927 l
98.841375 205.237843 l
101.492493 208.460578 l
104.433006 212.672749 l
107.810242 218.231164 l
111.588131 225.139644 l
115.243861 232.197876 l
118.836754 239.156783 l
122.42597 245.839106 l
126.06002 251.997295 l
128.397623 255.161198 l
129.736332 255.450771 l
129.975761 254.255807 l
130.079135 251.999587 l
stroke
grestore
gsave
322.7 336.2 54.2 48.59 clipbox
76.785894 213.081512 m
stroke
grestore
0 setlinejoin
0 setlinecap
gsave
322.7 336.2 54.2 48.59 clipbox
/o {
gsave
newpath
translate
1.0 setlinewidth
0 setlinejoin
0 setlinecap
0 3.5 m
-3.5 -3.5 l
3.5 -3.5 l
cl

gsave
1.000 setgray
fill
grestore
stroke
grestore
} bind def
76.7859 213.082 o
grestore
0.992 0.553 0.235 setrgbcolor
gsave
322.7 336.2 54.2 48.59 clipbox
/o {
gsave
newpath
translate
1.0 setlinewidth
0 setlinejoin
0 setlinecap
0 3.5 m
-3.5 -3.5 l
3.5 -3.5 l
cl

gsave
1.000 setgray
fill
grestore
stroke
grestore
} bind def
76.7859 90.1851 o
grestore
gsave
322.7 336.2 54.2 48.59 clipbox
/o {
gsave
newpath
translate
1.0 setlinewidth
0 setlinejoin
0 setlinecap
0 3.5 m
-3.5 -3.5 l
3.5 -3.5 l
cl

gsave
1.000 setgray
fill
grestore
stroke
grestore
} bind def
76.7859 90.1851 o
grestore
2 setlinecap
0.000 setgray
gsave
54.2 384.769687 m
376.855625 384.769687 l
stroke
grestore
gsave
54.2 48.590625 m
54.2 384.769688 l
stroke
grestore
gsave
376.855625 48.590625 m
376.855625 384.769688 l
stroke
grestore
gsave
54.2 48.590625 m
376.855625 48.590625 l
stroke
grestore
0.500 setlinewidth
1 setlinejoin
0 setlinecap
gsave
/o {
gsave
newpath
translate
0.5 setlinewidth
1 setlinejoin
0 setlinecap
0 0 m
0 4 l

gsave
0.000 setgray
fill
grestore
stroke
grestore
} bind def
54.2 48.5906 o
grestore
gsave
/o {
gsave
newpath
translate
0.5 setlinewidth
1 setlinejoin
0 setlinecap
0 0 m
0 -4 l

gsave
0.000 setgray
fill
grestore
stroke
grestore
} bind def
54.2 384.77 o
grestore
/STIXGeneral-Regular findfont
16.000 scalefont
setfont
gsave
42.200000 33.668750 translate
0.000000 rotate
0.000000 0.000000 m /two glyphshow
8.000000 0.000000 m /zero glyphshow
16.000000 0.000000 m /zero glyphshow
grestore
gsave
/o {
gsave
newpath
translate
0.5 setlinewidth
1 setlinejoin
0 setlinecap
0 0 m
0 4 l

gsave
0.000 setgray
fill
grestore
stroke
grestore
} bind def
118.731 48.5906 o
grestore
gsave
/o {
gsave
newpath
translate
0.5 setlinewidth
1 setlinejoin
0 setlinecap
0 0 m
0 -4 l

gsave
0.000 setgray
fill
grestore
stroke
grestore
} bind def
118.731 384.77 o
grestore
gsave
106.731125 33.668750 translate
0.000000 rotate
0.000000 0.000000 m /four glyphshow
8.000000 0.000000 m /zero glyphshow
16.000000 0.000000 m /zero glyphshow
grestore
gsave
/o {
gsave
newpath
translate
0.5 setlinewidth
1 setlinejoin
0 setlinecap
0 0 m
0 4 l

gsave
0.000 setgray
fill
grestore
stroke
grestore
} bind def
183.262 48.5906 o
grestore
gsave
/o {
gsave
newpath
translate
0.5 setlinewidth
1 setlinejoin
0 setlinecap
0 0 m
0 -4 l

gsave
0.000 setgray
fill
grestore
stroke
grestore
} bind def
183.262 384.77 o
grestore
gsave
171.262250 33.668750 translate
0.000000 rotate
0.000000 0.000000 m /six glyphshow
8.000000 0.000000 m /zero glyphshow
16.000000 0.000000 m /zero glyphshow
grestore
gsave
/o {
gsave
newpath
translate
0.5 setlinewidth
1 setlinejoin
0 setlinecap
0 0 m
0 4 l

gsave
0.000 setgray
fill
grestore
stroke
grestore
} bind def
247.793 48.5906 o
grestore
gsave
/o {
gsave
newpath
translate
0.5 setlinewidth
1 setlinejoin
0 setlinecap
0 0 m
0 -4 l

gsave
0.000 setgray
fill
grestore
stroke
grestore
} bind def
247.793 384.77 o
grestore
gsave
235.793375 33.668750 translate
0.000000 rotate
0.000000 0.000000 m /eight glyphshow
8.000000 0.000000 m /zero glyphshow
16.000000 0.000000 m /zero glyphshow
grestore
gsave
/o {
gsave
newpath
translate
0.5 setlinewidth
1 setlinejoin
0 setlinecap
0 0 m
0 4 l

gsave
0.000 setgray
fill
grestore
stroke
grestore
} bind def
312.325 48.5906 o
grestore
gsave
/o {
gsave
newpath
translate
0.5 setlinewidth
1 setlinejoin
0 setlinecap
0 0 m
0 -4 l

gsave
0.000 setgray
fill
grestore
stroke
grestore
} bind def
312.325 384.77 o
grestore
gsave
296.324500 33.668750 translate
0.000000 rotate
0.000000 0.000000 m /one glyphshow
8.000000 0.000000 m /zero glyphshow
16.000000 0.000000 m /zero glyphshow
24.000000 0.000000 m /zero glyphshow
grestore
gsave
/o {
gsave
newpath
translate
0.5 setlinewidth
1 setlinejoin
0 setlinecap
0 0 m
0 4 l

gsave
0.000 setgray
fill
grestore
stroke
grestore
} bind def
376.856 48.5906 o
grestore
gsave
/o {
gsave
newpath
translate
0.5 setlinewidth
1 setlinejoin
0 setlinecap
0 0 m
0 -4 l

gsave
0.000 setgray
fill
grestore
stroke
grestore
} bind def
376.856 384.77 o
grestore
gsave
360.855625 33.668750 translate
0.000000 rotate
0.000000 0.000000 m /one glyphshow
8.000000 0.000000 m /two glyphshow
16.000000 0.000000 m /zero glyphshow
24.000000 0.000000 m /zero glyphshow
grestore
/STIXGeneral-Regular findfont
20.000 scalefont
setfont
gsave
204.418438 11.543750 translate
0.000000 rotate
0.000000 0.000000 m /R glyphshow
13.339996 0.000000 m /e glyphshow
grestore
gsave
/o {
gsave
newpath
translate
0.5 setlinewidth
1 setlinejoin
0 setlinecap
0 0 m
4 0 l

gsave
0.000 setgray
fill
grestore
stroke
grestore
} bind def
54.2 48.5906 o
grestore
gsave
/o {
gsave
newpath
translate
0.5 setlinewidth
1 setlinejoin
0 setlinecap
0 0 m
-4 0 l

gsave
0.000 setgray
fill
grestore
stroke
grestore
} bind def
376.856 48.5906 o
grestore
/STIXGeneral-Regular findfont
16.000 scalefont
setfont
gsave
30.200000 44.864063 translate
0.000000 rotate
0.000000 0.000000 m /one glyphshow
8.000000 0.000000 m /period glyphshow
12.000000 0.000000 m /zero glyphshow
grestore
gsave
/o {
gsave
newpath
translate
0.5 setlinewidth
1 setlinejoin
0 setlinecap
0 0 m
4 0 l

gsave
0.000 setgray
fill
grestore
stroke
grestore
} bind def
54.2 132.635 o
grestore
gsave
/o {
gsave
newpath
translate
0.5 setlinewidth
1 setlinejoin
0 setlinecap
0 0 m
-4 0 l

gsave
0.000 setgray
fill
grestore
stroke
grestore
} bind def
376.856 132.635 o
grestore
gsave
30.200000 128.908828 translate
0.000000 rotate
0.000000 0.000000 m /two glyphshow
8.000000 0.000000 m /period glyphshow
12.000000 0.000000 m /one glyphshow
grestore
gsave
/o {
gsave
newpath
translate
0.5 setlinewidth
1 setlinejoin
0 setlinecap
0 0 m
4 0 l

gsave
0.000 setgray
fill
grestore
stroke
grestore
} bind def
54.2 216.68 o
grestore
gsave
/o {
gsave
newpath
translate
0.5 setlinewidth
1 setlinejoin
0 setlinecap
0 0 m
-4 0 l

gsave
0.000 setgray
fill
grestore
stroke
grestore
} bind def
376.856 216.68 o
grestore
gsave
30.200000 212.953594 translate
0.000000 rotate
0.000000 0.000000 m /three glyphshow
8.000000 0.000000 m /period glyphshow
12.000000 0.000000 m /two glyphshow
grestore
gsave
/o {
gsave
newpath
translate
0.5 setlinewidth
1 setlinejoin
0 setlinecap
0 0 m
4 0 l

gsave
0.000 setgray
fill
grestore
stroke
grestore
} bind def
54.2 300.725 o
grestore
gsave
/o {
gsave
newpath
translate
0.5 setlinewidth
1 setlinejoin
0 setlinecap
0 0 m
-4 0 l

gsave
0.000 setgray
fill
grestore
stroke
grestore
} bind def
376.856 300.725 o
grestore
gsave
30.200000 296.998359 translate
0.000000 rotate
0.000000 0.000000 m /four glyphshow
8.000000 0.000000 m /period glyphshow
12.000000 0.000000 m /three glyphshow
grestore
gsave
/o {
gsave
newpath
translate
0.5 setlinewidth
1 setlinejoin
0 setlinecap
0 0 m
4 0 l

gsave
0.000 setgray
fill
grestore
stroke
grestore
} bind def
54.2 384.77 o
grestore
gsave
/o {
gsave
newpath
translate
0.5 setlinewidth
1 setlinejoin
0 setlinecap
0 0 m
-4 0 l

gsave
0.000 setgray
fill
grestore
stroke
grestore
} bind def
376.856 384.77 o
grestore
gsave
30.200000 381.043125 translate
0.000000 rotate
0.000000 0.000000 m /five glyphshow
8.000000 0.000000 m /period glyphshow
12.000000 0.000000 m /four glyphshow
grestore
/STIXGeneral-Regular findfont
20.000 scalefont
setfont
gsave
20.856250 209.461406 translate
90.000000 rotate
0.000000 0.000000 m /D glyphshow
grestore
1.000 setlinewidth
[6 6] 0 setdash
0.694 0.000 0.149 setrgbcolor
gsave
389.455625 386.761406 m
417.455625 386.761406 l
stroke
grestore
[] 0 setdash
gsave
/o {
gsave
newpath
translate
1.0 setlinewidth
1 setlinejoin
0 setlinecap
0 -3.5 m
0.928211 -3.5 1.81853 -3.131218 2.474874 -2.474874 c
3.131218 -1.81853 3.5 -0.928211 3.5 0 c
3.5 0.928211 3.131218 1.81853 2.474874 2.474874 c
1.81853 3.131218 0.928211 3.5 0 3.5 c
-0.928211 3.5 -1.81853 3.131218 -2.474874 2.474874 c
-3.131218 1.81853 -3.5 0.928211 -3.5 0 c
-3.5 -0.928211 -3.131218 -1.81853 -2.474874 -2.474874 c
-1.81853 -3.131218 -0.928211 -3.5 0 -3.5 c
cl

gsave
1.000 setgray
fill
grestore
stroke
grestore
} bind def
403.456 386.761 o
grestore
0.000 setgray
/STIXGeneral-Regular findfont
14.000 scalefont
setfont
gsave
428.655625 381.861406 translate
0.000000 rotate
0.000000 0.000000 m /E glyphshow
8.553986 0.000000 m /Q glyphshow
18.661972 0.000000 m /one glyphshow
25.661972 0.000000 m /hyphen glyphshow
30.323959 0.000000 m /two glyphshow
grestore
[6 6] 0 setdash
0.996 0.851 0.463 setrgbcolor
gsave
389.455625 366.930156 m
417.455625 366.930156 l
stroke
grestore
[] 0 setdash
gsave
/o {
gsave
newpath
translate
1.0 setlinewidth
1 setlinejoin
0 setlinecap
0 -3.5 m
0.928211 -3.5 1.81853 -3.131218 2.474874 -2.474874 c
3.131218 -1.81853 3.5 -0.928211 3.5 0 c
3.5 0.928211 3.131218 1.81853 2.474874 2.474874 c
1.81853 3.131218 0.928211 3.5 0 3.5 c
-0.928211 3.5 -1.81853 3.131218 -2.474874 2.474874 c
-3.131218 1.81853 -3.5 0.928211 -3.5 0 c
-3.5 -0.928211 -3.131218 -1.81853 -2.474874 -2.474874 c
-1.81853 -3.131218 -0.928211 -3.5 0 -3.5 c
cl

gsave
1.000 setgray
fill
grestore
stroke
grestore
} bind def
403.456 366.93 o
grestore
0.000 setgray
gsave
428.655625 362.030156 translate
0.000000 rotate
0.000000 0.000000 m /E glyphshow
8.553986 0.000000 m /Q glyphshow
18.661972 0.000000 m /three glyphshow
25.661972 0.000000 m /hyphen glyphshow
30.323959 0.000000 m /four glyphshow
grestore
[6 6] 0 setdash
0.890 0.102 0.110 setrgbcolor
gsave
389.455625 347.098906 m
417.455625 347.098906 l
stroke
grestore
[] 0 setdash
gsave
/o {
gsave
newpath
translate
1.0 setlinewidth
1 setlinejoin
0 setlinecap
0 -3.5 m
0.928211 -3.5 1.81853 -3.131218 2.474874 -2.474874 c
3.131218 -1.81853 3.5 -0.928211 3.5 0 c
3.5 0.928211 3.131218 1.81853 2.474874 2.474874 c
1.81853 3.131218 0.928211 3.5 0 3.5 c
-0.928211 3.5 -1.81853 3.131218 -2.474874 2.474874 c
-3.131218 1.81853 -3.5 0.928211 -3.5 0 c
-3.5 -0.928211 -3.131218 -1.81853 -2.474874 -2.474874 c
-1.81853 -3.131218 -0.928211 -3.5 0 -3.5 c
cl

gsave
1.000 setgray
fill
grestore
stroke
grestore
} bind def
403.456 347.099 o
grestore
0.000 setgray
gsave
428.655625 342.198906 translate
0.000000 rotate
0.000000 0.000000 m /E glyphshow
8.553986 0.000000 m /Q glyphshow
18.661972 0.000000 m /nine glyphshow
grestore
[6 6] 0 setdash
0.996 0.698 0.298 setrgbcolor
gsave
389.455625 327.267656 m
417.455625 327.267656 l
stroke
grestore
[] 0 setdash
gsave
/o {
gsave
newpath
translate
1.0 setlinewidth
1 setlinejoin
0 setlinecap
0 -3.5 m
0.928211 -3.5 1.81853 -3.131218 2.474874 -2.474874 c
3.131218 -1.81853 3.5 -0.928211 3.5 0 c
3.5 0.928211 3.131218 1.81853 2.474874 2.474874 c
1.81853 3.131218 0.928211 3.5 0 3.5 c
-0.928211 3.5 -1.81853 3.131218 -2.474874 2.474874 c
-3.131218 1.81853 -3.5 0.928211 -3.5 0 c
-3.5 -0.928211 -3.131218 -1.81853 -2.474874 -2.474874 c
-1.81853 -3.131218 -0.928211 -3.5 0 -3.5 c
cl

gsave
1.000 setgray
fill
grestore
stroke
grestore
} bind def
403.456 327.268 o
grestore
0.000 setgray
gsave
428.655625 322.367656 translate
0.000000 rotate
0.000000 0.000000 m /E glyphshow
8.553986 0.000000 m /Q glyphshow
18.661972 0.000000 m /one glyphshow
25.661972 0.000000 m /zero glyphshow
32.661972 0.000000 m /hyphen glyphshow
37.323959 0.000000 m /one glyphshow
44.323959 0.000000 m /one glyphshow
grestore
2 setlinecap
0.992 0.553 0.235 setrgbcolor
gsave
389.455625 307.436406 m
417.455625 307.436406 l
stroke
grestore
0 setlinecap
gsave
/o {
gsave
newpath
translate
1.0 setlinewidth
1 setlinejoin
0 setlinecap
0 -3.5 m
0.928211 -3.5 1.81853 -3.131218 2.474874 -2.474874 c
3.131218 -1.81853 3.5 -0.928211 3.5 0 c
3.5 0.928211 3.131218 1.81853 2.474874 2.474874 c
1.81853 3.131218 0.928211 3.5 0 3.5 c
-0.928211 3.5 -1.81853 3.131218 -2.474874 2.474874 c
-3.131218 1.81853 -3.5 0.928211 -3.5 0 c
-3.5 -0.928211 -3.131218 -1.81853 -2.474874 -2.474874 c
-1.81853 -3.131218 -0.928211 -3.5 0 -3.5 c
cl

gsave
1.000 setgray
fill
grestore
stroke
grestore
} bind def
403.456 307.436 o
grestore
0.000 setgray
gsave
428.655625 302.536406 translate
0.000000 rotate
0.000000 0.000000 m /E glyphshow
8.553986 0.000000 m /Q glyphshow
18.661972 0.000000 m /two glyphshow
25.661972 0.000000 m /zero glyphshow
32.661972 0.000000 m /hyphen glyphshow
37.323959 0.000000 m /two glyphshow
44.323959 0.000000 m /one glyphshow
51.323959 0.000000 m /hyphen glyphshow
55.985947 0.000000 m /two glyphshow
62.985947 0.000000 m /three glyphshow
grestore
2 setlinecap
0.529 0.294 0.125 setrgbcolor
gsave
389.455625 287.605156 m
417.455625 287.605156 l
stroke
grestore
0 setlinecap
gsave
/o {
gsave
newpath
translate
1.0 setlinewidth
1 setlinejoin
0 setlinecap
0 -3.5 m
0.928211 -3.5 1.81853 -3.131218 2.474874 -2.474874 c
3.131218 -1.81853 3.5 -0.928211 3.5 0 c
3.5 0.928211 3.131218 1.81853 2.474874 2.474874 c
1.81853 3.131218 0.928211 3.5 0 3.5 c
-0.928211 3.5 -1.81853 3.131218 -2.474874 2.474874 c
-3.131218 1.81853 -3.5 0.928211 -3.5 0 c
-3.5 -0.928211 -3.131218 -1.81853 -2.474874 -2.474874 c
-1.81853 -3.131218 -0.928211 -3.5 0 -3.5 c
cl

gsave
1.000 setgray
fill
grestore
stroke
grestore
} bind def
403.456 287.605 o
grestore
0.000 setgray
gsave
428.655625 282.705156 translate
0.000000 rotate
0.000000 0.000000 m /E glyphshow
8.553986 0.000000 m /Q glyphshow
18.661972 0.000000 m /two glyphshow
25.661972 0.000000 m /two glyphshow
32.661972 0.000000 m /hyphen glyphshow
37.323959 0.000000 m /two glyphshow
44.323959 0.000000 m /four glyphshow
grestore
[6 6] 0 setdash
0.145 0.204 0.580 setrgbcolor
gsave
389.455625 267.773906 m
417.455625 267.773906 l
stroke
grestore
0 setlinejoin
[] 0 setdash
gsave
/o {
gsave
newpath
translate
1.0 setlinewidth
0 setlinejoin
0 setlinecap
-3.5 -3.5 m
3.5 -3.5 l
3.5 3.5 l
-3.5 3.5 l
cl

gsave
1.000 setgray
fill
grestore
stroke
grestore
} bind def
403.456 267.774 o
grestore
0.000 setgray
gsave
428.655625 262.873906 translate
0.000000 rotate
0.000000 0.000000 m /E glyphshow
8.553986 0.000000 m /Q glyphshow
18.661972 0.000000 m /five glyphshow
25.661972 0.000000 m /hyphen glyphshow
30.323959 0.000000 m /six glyphshow
grestore
0.980 0.624 0.710 setrgbcolor
gsave
/o {
gsave
newpath
translate
1.0 setlinewidth
0 setlinejoin
0 setlinecap
-3.5 -3.5 m
3.5 -3.5 l
3.5 3.5 l
-3.5 3.5 l
cl

gsave
1.000 setgray
fill
grestore
stroke
grestore
} bind def
403.456 247.943 o
grestore
0.000 setgray
gsave
428.655625 243.042656 translate
0.000000 rotate
0.000000 0.000000 m /E glyphshow
8.553986 0.000000 m /Q glyphshow
18.661972 0.000000 m /one glyphshow
25.661972 0.000000 m /two glyphshow
grestore
0.694 0.000 0.149 setrgbcolor
gsave
/o {
gsave
newpath
translate
1.0 setlinewidth
0 setlinejoin
0 setlinecap
-3.5 -3.5 m
3.5 -3.5 l
3.5 3.5 l
-3.5 3.5 l
cl

gsave
1.000 setgray
fill
grestore
stroke
grestore
} bind def
403.456 228.111 o
grestore
0.000 setgray
gsave
428.655625 223.211406 translate
0.000000 rotate
0.000000 0.000000 m /E glyphshow
8.553986 0.000000 m /Q glyphshow
18.661972 0.000000 m /one glyphshow
25.661972 0.000000 m /three glyphshow
grestore
1 setlinejoin
2 setlinecap
0.631 0.855 0.706 setrgbcolor
gsave
389.455625 208.280156 m
417.455625 208.280156 l
stroke
grestore
0 setlinejoin
0 setlinecap
gsave
/o {
gsave
newpath
translate
1.0 setlinewidth
0 setlinejoin
0 setlinecap
-3.5 -3.5 m
3.5 -3.5 l
3.5 3.5 l
-3.5 3.5 l
cl

gsave
1.000 setgray
fill
grestore
stroke
grestore
} bind def
403.456 208.28 o
grestore
0.000 setgray
gsave
428.655625 203.380156 translate
0.000000 rotate
0.000000 0.000000 m /E glyphshow
8.553986 0.000000 m /Q glyphshow
18.661972 0.000000 m /one glyphshow
25.661972 0.000000 m /four glyphshow
grestore
1 setlinejoin
2 setlinecap
0.255 0.714 0.769 setrgbcolor
gsave
389.455625 188.448906 m
417.455625 188.448906 l
stroke
grestore
0 setlinejoin
0 setlinecap
gsave
/o {
gsave
newpath
translate
1.0 setlinewidth
0 setlinejoin
0 setlinecap
-3.5 -3.5 m
3.5 -3.5 l
3.5 3.5 l
-3.5 3.5 l
cl

gsave
1.000 setgray
fill
grestore
stroke
grestore
} bind def
403.456 188.449 o
grestore
0.000 setgray
gsave
428.655625 183.548906 translate
0.000000 rotate
0.000000 0.000000 m /E glyphshow
8.553986 0.000000 m /Q glyphshow
18.661972 0.000000 m /one glyphshow
25.661972 0.000000 m /five glyphshow
grestore
1 setlinejoin
2 setlinecap
0.173 0.498 0.722 setrgbcolor
gsave
389.455625 168.617656 m
417.455625 168.617656 l
stroke
grestore
0 setlinejoin
0 setlinecap
gsave
/o {
gsave
newpath
translate
1.0 setlinewidth
0 setlinejoin
0 setlinecap
-3.5 -3.5 m
3.5 -3.5 l
3.5 3.5 l
-3.5 3.5 l
cl

gsave
1.000 setgray
fill
grestore
stroke
grestore
} bind def
403.456 168.618 o
grestore
0.000 setgray
gsave
428.655625 163.717656 translate
0.000000 rotate
0.000000 0.000000 m /E glyphshow
8.553986 0.000000 m /Q glyphshow
18.661972 0.000000 m /one glyphshow
25.661972 0.000000 m /six glyphshow
32.661972 0.000000 m /hyphen glyphshow
37.323959 0.000000 m /two glyphshow
44.323959 0.000000 m /six glyphshow
grestore
0.992 0.553 0.235 setrgbcolor
gsave
/o {
gsave
newpath
translate
1.0 setlinewidth
0 setlinejoin
0 setlinecap
-3.5 -3.5 m
3.5 -3.5 l
3.5 3.5 l
-3.5 3.5 l
cl

gsave
1.000 setgray
fill
grestore
stroke
grestore
} bind def
403.456 148.786 o
grestore
0.000 setgray
gsave
428.655625 143.886406 translate
0.000000 rotate
0.000000 0.000000 m /E glyphshow
8.553986 0.000000 m /Q glyphshow
18.661972 0.000000 m /two glyphshow
25.661972 0.000000 m /five glyphshow
grestore
1 setlinejoin
[6 6] 0 setdash
0.980 0.624 0.710 setrgbcolor
gsave
389.455625 128.955156 m
417.455625 128.955156 l
stroke
grestore
0 setlinejoin
[] 0 setdash
gsave
/o {
gsave
newpath
translate
1.0 setlinewidth
0 setlinejoin
0 setlinecap
0 3.5 m
-3.5 -3.5 l
3.5 -3.5 l
cl

gsave
1.000 setgray
fill
grestore
stroke
grestore
} bind def
403.456 128.955 o
grestore
0.000 setgray
gsave
428.655625 124.055156 translate
0.000000 rotate
0.000000 0.000000 m /E glyphshow
8.553986 0.000000 m /Q glyphshow
18.661972 0.000000 m /seven glyphshow
25.661972 0.000000 m /hyphen glyphshow
30.323959 0.000000 m /eight glyphshow
grestore
0.980 0.624 0.710 setrgbcolor
gsave
/o {
gsave
newpath
translate
1.0 setlinewidth
0 setlinejoin
0 setlinecap
0 3.5 m
-3.5 -3.5 l
3.5 -3.5 l
cl

gsave
1.000 setgray
fill
grestore
stroke
grestore
} bind def
403.456 109.124 o
grestore
0.000 setgray
gsave
428.655625 104.223906 translate
0.000000 rotate
0.000000 0.000000 m /E glyphshow
8.553986 0.000000 m /Q glyphshow
18.661972 0.000000 m /one glyphshow
25.661972 0.000000 m /seven glyphshow
grestore
0.694 0.000 0.149 setrgbcolor
gsave
/o {
gsave
newpath
translate
1.0 setlinewidth
0 setlinejoin
0 setlinecap
0 3.5 m
-3.5 -3.5 l
3.5 -3.5 l
cl

gsave
1.000 setgray
fill
grestore
stroke
grestore
} bind def
403.456 89.2927 o
grestore
0.000 setgray
gsave
428.655625 84.392656 translate
0.000000 rotate
0.000000 0.000000 m /E glyphshow
8.553986 0.000000 m /Q glyphshow
18.661972 0.000000 m /one glyphshow
25.661972 0.000000 m /eight glyphshow
grestore
1 setlinejoin
2 setlinecap
0.773 0.106 0.541 setrgbcolor
gsave
389.455625 69.461406 m
417.455625 69.461406 l
stroke
grestore
0 setlinejoin
0 setlinecap
gsave
/o {
gsave
newpath
translate
1.0 setlinewidth
0 setlinejoin
0 setlinecap
0 3.5 m
-3.5 -3.5 l
3.5 -3.5 l
cl

gsave
1.000 setgray
fill
grestore
stroke
grestore
} bind def
403.456 69.4614 o
grestore
0.000 setgray
gsave
428.655625 64.561406 translate
0.000000 rotate
0.000000 0.000000 m /E glyphshow
8.553986 0.000000 m /Q glyphshow
18.661972 0.000000 m /one glyphshow
25.661972 0.000000 m /nine glyphshow
grestore
0.992 0.553 0.235 setrgbcolor
gsave
/o {
gsave
newpath
translate
1.0 setlinewidth
0 setlinejoin
0 setlinecap
0 3.5 m
-3.5 -3.5 l
3.5 -3.5 l
cl

gsave
1.000 setgray
fill
grestore
stroke
grestore
} bind def
403.456 49.6302 o
grestore
0.000 setgray
gsave
428.655625 44.730156 translate
0.000000 rotate
0.000000 0.000000 m /E glyphshow
8.553986 0.000000 m /Q glyphshow
18.661972 0.000000 m /two glyphshow
25.661972 0.000000 m /seven glyphshow
grestore

end
showpage
