%!PS-Adobe-3.0 EPSF-3.0
%%Title: /home/arslan/tmp/failed-a2_vs_a1.eps
%%Creator: matplotlib version 1.5.1, http://matplotlib.org/
%%CreationDate: Tue Jun 12 16:15:13 2018
%%Orientation: portrait
%%BoundingBox: -9 238 621 553
%%EndComments
%%BeginProlog
/mpldict 9 dict def
mpldict begin
/m { moveto } bind def
/l { lineto } bind def
/r { rlineto } bind def
/c { curveto } bind def
/cl { closepath } bind def
/box {
m
1 index 0 r
0 exch r
neg 0 r
cl
} bind def
/clipbox {
box
clip
newpath
} bind def
%!PS-Adobe-3.0 Resource-Font
%%Title: STIXGeneral-Italic
%%Copyright: Copyright (c) 2001-2010 by the STI Pub Companies, consisting of the American Chemical Society, the American Institute of Physics, the American Mathematical Society, the American Physical Society, Elsevier, Inc., and The Institute of Electrical and Electronic Engineers, Inc. Portions copyright (c) 1998-2003 by MicroPress, Inc. Portions copyright (c) 1990 by Elsevier, Inc. All rights reserved.
%%Creator: Converted from TrueType to type 3 by PPR
25 dict begin
/_d{bind def}bind def
/_m{moveto}_d
/_l{lineto}_d
/_cl{closepath eofill}_d
/_c{curveto}_d
/_sc{7 -1 roll{setcachedevice}{pop pop pop pop pop pop}ifelse}_d
/_e{exec}_d
/FontName /STIXGeneral-Italic def
/PaintType 0 def
/FontMatrix[.001 0 0 .001 0 0]def
/FontBBox[-970 -305 1429 1023]def
/FontType 3 def
/Encoding [ /a ] def
/FontInfo 10 dict dup begin
/FamilyName (STIXGeneral) def
/FullName (STIXGeneral-Italic) def
/Notice (Copyright (c) 2001-2010 by the STI Pub Companies, consisting of the American Chemical Society, the American Institute of Physics, the American Mathematical Society, the American Physical Society, Elsevier, Inc., and The Institute of Electrical and Electronic Engineers, Inc. Portions copyright (c) 1998-2003 by MicroPress, Inc. Portions copyright (c) 1990 by Elsevier, Inc. All rights reserved. STIX Fonts(TM) is a trademark of The Institute of Electrical and Electronics Engineers, Inc.) def
/Weight (Italic) def
/Version (Version 1.0.0) def
/ItalicAngle -17.43909 def
/isFixedPitch false def
/UnderlinePosition -75 def
/UnderlineThickness 50 def
end readonly def
/CharStrings 1 dict dup begin
/a{{501 0 17 -10 476 441 _sc
463 111 _m
476 100 _l
438 54 411 25 393 11 _c
375 -2 357 -9 337 -9 _c
310 -9 297 4 297 31 _c
297 47 304 86 320 146 _c
282 90 248 50 217 26 _c
185 2 152 -10 117 -10 _c
87 -10 63 0 45 20 _c
26 40 17 68 17 105 _c
17 155 31 207 60 260 _c
89 312 126 356 171 390 _c
215 424 259 441 303 441 _c
347 441 374 421 383 383 _c
}_e{394 431 _l
397 434 _l
458 441 _l
465 438 _l
464 435 462 428 459 417 _c
399 201 370 80 370 54 _c
370 45 374 41 384 41 _c
394 41 411 54 436 82 _c
463 111 _l
365 361 _m
365 378 360 392 350 403 _c
340 413 326 419 309 419 _c
263 419 220 388 178 327 _c
156 294 137 258 123 218 _c
108 178 101 142 101 112 _c
101 62 121 38 161 38 _c
200 38 242 70 288 136 _c
}_e{339 210 365 285 365 361 _c
_cl}_e}_d
end readonly def

/BuildGlyph
 {exch begin
 CharStrings exch
 2 copy known not{pop /.notdef}if
 true 3 1 roll get exec
 end}_d

/BuildChar {
 1 index /Encoding get exch get
 1 index /BuildGlyph get exec
}_d

FontName currentdict end definefont pop
%!PS-Adobe-3.0 Resource-Font
%%Title: STIXGeneral-Regular
%%Copyright: Copyright (c) 2001-2010 by the STI Pub Companies, consisting of the American Chemical Society, the American Institute of Physics, the American Mathematical Society, the American Physical Society, Elsevier, Inc., and The Institute of Electrical and Electronic Engineers, Inc. Portions copyright (c) 1998-2003 by MicroPress, Inc. Portions copyright (c) 1990 by Elsevier, Inc. All rights reserved.
%%Creator: Converted from TrueType to type 3 by PPR
25 dict begin
/_d{bind def}bind def
/_m{moveto}_d
/_l{lineto}_d
/_cl{closepath eofill}_d
/_c{curveto}_d
/_sc{7 -1 roll{setcachedevice}{pop pop pop pop pop pop}ifelse}_d
/_e{exec}_d
/FontName /STIXGeneral-Regular def
/PaintType 0 def
/FontMatrix[.001 0 0 .001 0 0]def
/FontBBox[-970 -443 2000 1023]def
/FontType 3 def
/Encoding [ /parenleft /parenright /period /zero /one /two /three /four /five /seven /nine /E /Q /uni03A0 ] def
/FontInfo 10 dict dup begin
/FamilyName (STIXGeneral) def
/FullName (STIXGeneral-Regular) def
/Notice (Copyright (c) 2001-2010 by the STI Pub Companies, consisting of the American Chemical Society, the American Institute of Physics, the American Mathematical Society, the American Physical Society, Elsevier, Inc., and The Institute of Electrical and Electronic Engineers, Inc. Portions copyright (c) 1998-2003 by MicroPress, Inc. Portions copyright (c) 1990 by Elsevier, Inc. All rights reserved. STIX Fonts(TM) is a trademark of The Institute of Electrical and Electronics Engineers, Inc.) def
/Weight (Regular) def
/Version (Version 1.0.0) def
/ItalicAngle 0.0 def
/isFixedPitch false def
/UnderlinePosition -75 def
/UnderlineThickness 50 def
end readonly def
/CharStrings 14 dict dup begin
/parenleft{333 0 48 -176 304 676 _sc
304 -160 _m
292 -176 _l
214 -132 154 -71 112 5 _c
69 82 48 164 48 252 _c
48 436 130 578 295 676 _c
304 660 _l
236 602 190 544 168 488 _c
145 432 134 354 134 255 _c
134 156 145 76 169 15 _c
192 -45 237 -104 304 -160 _c
_cl}_d
/parenright{333 0 29 -176 285 676 _sc
29 660 _m
41 676 _l
117 630 176 569 220 492 _c
263 414 285 333 285 247 _c
285 65 202 -75 38 -176 _c
29 -160 _l
97 -103 143 -47 165 9 _c
187 65 199 143 199 244 _c
199 345 187 426 165 487 _c
143 548 97 606 29 660 _c
_cl}_d
/period{250 0 70 -10 181 100 _sc
181 43 _m
181 28 175 15 164 5 _c
153 -5 140 -10 125 -10 _c
109 -10 96 -5 86 5 _c
75 15 70 28 70 44 _c
70 59 75 72 86 83 _c
97 94 110 100 126 100 _c
140 100 153 94 164 83 _c
175 71 181 58 181 43 _c
_cl}_d
/zero{{500 0 24 -13 476 676 _sc
476 330 _m
476 285 471 243 463 203 _c
454 163 441 127 424 94 _c
407 60 384 34 354 15 _c
324 -3 289 -13 250 -13 _c
209 -13 173 -3 143 17 _c
112 37 88 65 72 100 _c
55 134 43 171 35 211 _c
27 250 24 292 24 336 _c
24 398 31 453 47 503 _c
62 553 87 594 123 627 _c
159 659 202 676 254 676 _c
319 676 372 644 414 580 _c
}_e{455 516 476 432 476 330 _c
380 325 _m
380 430 368 510 346 566 _c
324 622 291 650 248 650 _c
206 650 175 622 153 566 _c
131 510 120 431 120 329 _c
120 226 131 147 153 93 _c
175 39 207 12 250 12 _c
292 12 324 39 346 93 _c
368 147 380 225 380 325 _c
_cl}_e}_d
/one{500 0 111 0 394 676 _sc
394 0 _m
118 0 _l
118 15 _l
154 17 179 23 193 35 _c
206 47 213 67 213 95 _c
213 544 _l
213 576 203 593 183 593 _c
173 593 158 589 138 581 _c
111 571 _l
111 585 _l
290 676 _l
299 673 _l
299 76 _l
299 54 305 38 319 29 _c
332 19 357 15 394 15 _c
394 0 _l
_cl}_d
/two{{500 0 29 0 474 676 _sc
474 137 _m
420 0 _l
29 0 _l
29 12 _l
207 201 _l
253 249 287 294 307 335 _c
327 375 337 417 337 461 _c
337 505 324 540 300 565 _c
275 589 241 602 198 602 _c
162 602 133 592 112 574 _c
91 555 71 521 51 472 _c
30 477 _l
41 539 64 587 98 623 _c
132 658 179 676 238 676 _c
293 676 338 659 372 626 _c
406 592 423 550 423 500 _c
}_e{423 424 380 342 295 252 _c
130 76 _l
364 76 _l
386 76 403 80 416 89 _c
429 97 444 115 460 143 _c
474 137 _l
_cl}_e}_d
/three{{500 0 41 -13 431 676 _sc
61 510 _m
45 514 _l
60 564 84 603 117 632 _c
149 661 191 676 241 676 _c
287 676 325 663 354 638 _c
382 612 397 579 397 539 _c
397 484 366 438 304 401 _c
340 385 368 367 387 348 _c
416 315 431 272 431 219 _c
431 165 415 119 385 79 _c
362 48 329 25 287 10 _c
245 -5 200 -13 153 -13 _c
78 -13 41 5 41 43 _c
41 53 45 62 53 69 _c
}_e{61 75 70 79 82 79 _c
98 79 119 70 143 53 _c
172 32 201 22 229 22 _c
265 22 296 36 321 66 _c
346 96 359 132 359 175 _c
359 251 324 300 255 320 _c
234 326 200 330 153 330 _c
153 344 _l
190 356 218 368 237 380 _c
291 410 318 455 318 514 _c
318 547 308 572 289 590 _c
270 607 244 616 210 616 _c
150 616 100 580 61 510 _c
_cl}_e}_d
/four{500 0 12 0 473 676 _sc
473 167 _m
370 167 _l
370 0 _l
292 0 _l
292 167 _l
12 167 _l
12 231 _l
326 676 _l
370 676 _l
370 231 _l
473 231 _l
473 167 _l
292 231 _m
292 574 _l
52 231 _l
292 231 _l
_cl}_d
/five{{500 0 31 -13 438 688 _sc
438 681 _m
402 596 _l
398 587 389 583 375 583 _c
181 583 _l
141 498 _l
214 484 267 468 300 452 _c
332 436 363 408 391 370 _c
414 338 426 295 426 243 _c
426 195 418 154 402 122 _c
386 89 362 60 328 35 _c
282 3 226 -13 158 -13 _c
120 -13 89 -7 66 3 _c
42 14 31 29 31 48 _c
31 73 46 86 76 86 _c
100 86 124 75 150 55 _c
}_e{176 33 199 23 221 23 _c
255 23 286 40 314 75 _c
342 109 356 148 356 192 _c
356 256 333 306 289 342 _c
231 388 160 412 76 412 _c
68 412 64 414 64 420 _c
65 425 _l
174 662 _l
381 662 _l
392 662 401 663 407 667 _c
413 670 421 677 429 688 _c
438 681 _l
_cl}_e}_d
/seven{500 0 20 -7 449 662 _sc
449 646 _m
237 -7 _l
172 -7 _l
370 588 _l
155 588 _l
126 588 105 583 91 573 _c
77 563 59 540 38 506 _c
20 515 _l
80 662 _l
449 662 _l
449 646 _l
_cl}_d
/nine{{500 0 30 -21 459 676 _sc
59 -21 _m
56 -1 _l
132 11 197 43 250 95 _c
303 146 340 212 360 294 _c
321 256 271 237 210 237 _c
156 237 112 255 79 293 _c
46 330 30 379 30 440 _c
30 507 49 563 89 608 _c
129 653 178 676 238 676 _c
301 676 353 650 395 600 _c
437 546 459 478 459 394 _c
459 335 448 280 428 228 _c
408 176 378 133 339 97 _c
297 59 257 33 218 17 _c
}_e{178 1 125 -11 59 -21 _c
362 355 _m
362 394 _l
362 563 318 648 230 648 _c
198 648 174 636 157 614 _c
147 600 138 580 132 554 _c
125 527 122 500 122 474 _c
122 414 133 367 155 332 _c
177 297 207 280 245 280 _c
271 280 297 286 323 299 _c
349 312 362 331 362 355 _c
_cl}_e}_d
/E{{611 0 12 0 597 662 _sc
597 169 _m
551 0 _l
12 0 _l
12 19 _l
50 21 74 28 84 39 _c
94 50 99 75 99 114 _c
99 550 _l
99 587 93 611 83 623 _c
73 634 49 641 12 643 _c
12 662 _l
542 662 _l
546 519 _l
521 519 _l
513 563 500 592 482 605 _c
463 617 425 624 367 624 _c
236 624 _l
221 624 211 621 207 617 _c
203 613 201 603 201 588 _c
201 368 _l
352 368 _l
}_e{394 368 421 374 435 386 _c
449 398 459 424 465 464 _c
488 464 _l
488 230 _l
465 230 _l
459 272 449 298 436 310 _c
422 321 394 327 352 327 _c
201 327 _l
201 84 _l
201 64 208 51 222 45 _c
236 39 262 37 302 37 _c
338 37 _l
409 37 460 45 490 63 _c
520 80 546 115 569 169 _c
597 169 _l
_cl}_e}_d
/Q{{722 0 34 -176 701 676 _sc
701 -176 _m
653 -176 _l
487 -176 371 -134 306 -52 _c
265 0 _l
225 13 193 27 171 41 _c
149 55 128 75 110 100 _c
59 167 34 244 34 332 _c
34 436 64 519 126 582 _c
187 644 265 676 361 676 _c
457 676 535 644 596 581 _c
657 518 688 435 688 333 _c
688 274 679 223 662 181 _c
644 138 617 99 580 64 _c
559 43 537 28 514 18 _c
}_e{491 8 462 0 426 -6 _c
461 -56 501 -93 545 -117 _c
589 -141 641 -154 701 -158 _c
701 -176 _l
574 338 _m
574 395 566 446 550 491 _c
534 536 511 571 483 595 _c
447 625 405 640 358 640 _c
300 640 252 616 214 569 _c
194 545 178 512 166 470 _c
154 427 148 382 148 335 _c
148 232 167 154 206 100 _c
222 76 244 57 273 43 _c
302 29 331 22 361 22 _c
419 22 468 46 510 94 _c
}_e{530 116 545 150 557 195 _c
568 239 574 287 574 338 _c
_cl}_e}_d
/uni03A0{{722 0 18 0 703 662 _sc
703 0 _m
424 0 _l
424 19 _l
462 21 487 29 497 41 _c
507 53 512 81 512 124 _c
512 588 _l
512 602 509 611 505 616 _c
500 621 490 624 476 624 _c
245 624 _l
231 624 222 621 217 617 _c
211 613 209 604 209 591 _c
209 113 _l
209 76 214 52 225 40 _c
235 28 259 21 296 19 _c
297 0 _l
18 0 _l
18 19 _l
57 21 82 28 92 40 _c
}_e{102 52 107 79 107 122 _c
107 548 _l
107 586 101 611 91 622 _c
81 632 56 639 18 643 _c
18 662 _l
703 662 _l
703 643 _l
665 639 641 632 630 621 _c
619 610 614 586 614 548 _c
614 111 _l
614 75 619 52 630 40 _c
641 28 665 21 703 19 _c
703 0 _l
_cl}_e}_d
end readonly def

/BuildGlyph
 {exch begin
 CharStrings exch
 2 copy known not{pop /.notdef}if
 true 3 1 roll get exec
 end}_d

/BuildChar {
 1 index /Encoding get exch get
 1 index /BuildGlyph get exec
}_d

FontName currentdict end definefont pop
end
%%EndProlog
mpldict begin
-9 238.5 translate
630 315 0 0 clipbox
100000 setmiterlimit
gsave
0 0 m
630 0 l
630 315 l
0 315 l
cl
1.000 setgray
fill
grestore
gsave
60.594375 109.737148 m
304.563905 109.737148 l
304.563905 302.04 l
60.594375 302.04 l
cl
1.000 setgray
fill
grestore
0.500 setlinewidth
0 setlinejoin
0 setlinecap
[] 0 setdash
0.663 setgray
gsave
244 192.3 60.59 109.7 clipbox
132.676282 177.608743 m
204.758188 177.608743 l
204.758188 234.168405 l
132.676282 234.168405 l
132.676282 177.608743 l
cl
stroke
grestore
1.000 setlinewidth
1 setlinejoin
1 setlinecap
0.750 setgray
gsave
200.850295 231.867051 m
202.26866 223.434676 202.293972 215.376143 200.926231 207.691453 c
stroke
grestore
gsave
203.062208 210.561576 m
200.926231 207.691453 l
199.911719 211.122308 l
stroke
grestore
gsave
199.000193 203.154471 m
190.43474 194.011337 180.873571 186.822707 170.316686 181.588583 c
stroke
grestore
gsave
173.894374 181.576547 m
170.316686 181.588583 l
172.472927 184.443512 l
stroke
grestore
gsave
165.587113 180.760214 m
155.740872 183.63291 146.987033 187.887504 139.325595 193.523996 c
stroke
grestore
gsave
140.955022 190.338879 m
139.325595 193.523996 l
142.851344 192.916468 l
stroke
grestore
gsave
200.756179 231.849882 m
200.868459 230.501958 200.88877 229.526491 200.817111 228.923481 c
stroke
grestore
gsave
202.783549 231.912314 m
200.817111 228.923481 l
199.605908 232.289932 l
stroke
grestore
gsave
198.496908 225.104036 m
192.819012 222.958262 187.319617 221.789255 181.998723 221.597015 c
stroke
grestore
gsave
185.254406 220.113596 m
181.998723 221.597015 l
185.138867 223.31151 l
stroke
grestore
gsave
177.242596 220.371666 m
172.214704 216.971881 167.134747 214.563617 162.002725 213.146874 c
stroke
grestore
gsave
165.513115 212.456103 m
162.002725 213.146874 l
164.661576 215.540723 l
stroke
grestore
gsave
160.449725 213.707145 m
161.413777 214.513532 162.119933 215.039873 162.568195 215.286169 c
stroke
grestore
gsave
158.993175 215.147496 m
162.568195 215.286169 l
160.534122 212.342949 l
stroke
grestore
gsave
200.759355 231.848495 m
200.868061 230.55137 200.890805 229.626445 200.827589 229.073721 c
stroke
grestore
gsave
202.780848 232.071183 m
200.827589 229.073721 l
199.601575 232.434806 l
stroke
grestore
gsave
198.806241 224.745872 m
188.714219 216.897481 177.922027 211.179497 166.429663 207.591919 c
stroke
grestore
gsave
169.961067 207.018171 m
166.429663 207.591919 l
169.007504 210.072793 l
stroke
grestore
gsave
161.667167 205.777068 m
156.656649 203.353753 151.761644 201.828857 146.982153 201.202383 c
stroke
grestore
gsave
150.362955 200.031837 m
146.982153 201.202383 l
149.94707 203.204697 l
stroke
grestore
gsave
145.630997 201.809478 m
146.979778 202.483607 148.023444 202.9155 148.761996 203.105158 c
stroke
grestore
gsave
145.264597 203.858949 m
148.761996 203.105158 l
146.060523 200.759514 l
stroke
grestore
gsave
151.801607 203.790878 m
151.949718 204.105558 151.876457 204.129437 151.581825 203.862514 c
stroke
grestore
gsave
148.136079 202.899791 m
151.581825 203.862514 l
150.284556 200.528284 l
stroke
grestore
gsave
200.688709 231.845345 m
200.692481 231.58994 200.706585 231.706895 200.731021 232.196209 c
stroke
grestore
gsave
202.488634 235.312424 m
200.731021 232.196209 l
199.292616 235.472028 l
stroke
grestore
gsave
198.554934 229.839496 m
198.170529 230.049824 198.096649 230.063714 198.333292 229.881168 c
stroke
grestore
gsave
199.889768 226.659773 m
198.333292 229.881168 l
201.844293 229.193511 l
stroke
grestore
gsave
195.477068 230.23664 m
194.443588 230.12311 193.780013 230.076046 193.486343 230.095447 c
stroke
grestore
gsave
196.573908 228.287979 m
193.486343 230.095447 l
196.784857 231.481018 l
stroke
grestore
gsave
188.903147 229.060987 m
188.074943 228.3834 187.518942 227.965698 187.235144 227.80788 c
stroke
grestore
gsave
190.809412 227.964755 m
187.235144 227.80788 l
189.254205 230.761419 l
stroke
grestore
gsave
184.462925 228.386402 m
184.471049 228.429195 184.401639 228.107569 184.254695 227.421523 c
stroke
grestore
gsave
182.019973 224.627598 m
184.254695 227.421523 l
185.149002 223.957391 l
stroke
grestore
0.100 setlinewidth
2 setlinecap
0.502 setgray
gsave
244 192.3 60.59 109.7 clipbox
71.683899 -5534.917142 m
71.683899 -1 m
71.683899 316 l
stroke
grestore
gsave
244 192.3 60.59 109.7 clipbox
-5473.078145 121.049081 m
-1 121.049081 m
631 121.049081 l
stroke
grestore
1.000 setlinewidth
0 setlinecap
0.000 setgray
gsave
244 192.3 60.59 109.7 clipbox
/o {
gsave
newpath
translate
1.0 setlinewidth
1 setlinejoin
0 setlinecap
0 -2.5 m
0.663008 -2.5 1.29895 -2.236584 1.767767 -1.767767 c
2.236584 -1.29895 2.5 -0.663008 2.5 0 c
2.5 0.663008 2.236584 1.29895 1.767767 1.767767 c
1.29895 2.236584 0.663008 2.5 0 2.5 c
-0.663008 2.5 -1.29895 2.236584 -1.767767 1.767767 c
-2.236584 1.29895 -2.5 0.663008 -2.5 0 c
-2.5 -0.663008 -2.236584 -1.29895 -1.767767 -1.767767 c
-1.29895 -2.236584 -0.663008 -2.5 0 -2.5 c
cl

gsave
0.000 setgray
fill
grestore
stroke
grestore
} bind def
71.6839 121.049 o
grestore
0.000 0.000 1.000 setrgbcolor
gsave
244 192.3 60.59 109.7 clipbox
/o {
gsave
newpath
translate
1.0 setlinewidth
1 setlinejoin
0 setlinecap
0 -2.5 m
0.663008 -2.5 1.29895 -2.236584 1.767767 -1.767767 c
2.236584 -1.29895 2.5 -0.663008 2.5 0 c
2.5 0.663008 2.236584 1.29895 1.767767 1.767767 c
1.29895 2.236584 0.663008 2.5 0 2.5 c
-0.663008 2.5 -1.29895 2.236584 -1.767767 1.767767 c
-2.236584 1.29895 -2.5 0.663008 -2.5 0 c
-2.5 -0.663008 -2.236584 -1.29895 -1.767767 -1.767767 c
-1.29895 -2.236584 -0.663008 -2.5 0 -2.5 c
cl

gsave
1.000 setgray
fill
grestore
stroke
grestore
} bind def
136.827 195.39 o
grestore
gsave
244 192.3 60.59 109.7 clipbox
/o {
gsave
newpath
translate
1.0 setlinewidth
1 setlinejoin
0 setlinecap
0 -2.5 m
0.663008 -2.5 1.29895 -2.236584 1.767767 -1.767767 c
2.236584 -1.29895 2.5 -0.663008 2.5 0 c
2.5 0.663008 2.236584 1.29895 1.767767 1.767767 c
1.29895 2.236584 0.663008 2.5 0 2.5 c
-0.663008 2.5 -1.29895 2.236584 -1.767767 1.767767 c
-2.236584 1.29895 -2.5 0.663008 -2.5 0 c
-2.5 -0.663008 -2.236584 -1.29895 -1.767767 -1.767767 c
-1.29895 -2.236584 -0.663008 -2.5 0 -2.5 c
cl

gsave
0.000 0.000 1.000 setrgbcolor
fill
grestore
stroke
grestore
} bind def
259.189 216.194 o
grestore
1.000 0.000 0.000 setrgbcolor
gsave
244 192.3 60.59 109.7 clipbox
/o {
gsave
newpath
translate
1.0 setlinewidth
1 setlinejoin
0 setlinecap
0 -2.5 m
0.663008 -2.5 1.29895 -2.236584 1.767767 -1.767767 c
2.236584 -1.29895 2.5 -0.663008 2.5 0 c
2.5 0.663008 2.236584 1.29895 1.767767 1.767767 c
1.29895 2.236584 0.663008 2.5 0 2.5 c
-0.663008 2.5 -1.29895 2.236584 -1.767767 1.767767 c
-2.236584 1.29895 -2.5 0.663008 -2.5 0 c
-2.5 -0.663008 -2.236584 -1.29895 -1.767767 -1.767767 c
-1.29895 -2.236584 -0.663008 -2.5 0 -2.5 c
cl

gsave
1.000 setgray
fill
grestore
stroke
grestore
} bind def
120.396 130.905 o
grestore
gsave
244 192.3 60.59 109.7 clipbox
/o {
gsave
newpath
translate
1.0 setlinewidth
1 setlinejoin
0 setlinecap
0 -2.5 m
0.663008 -2.5 1.29895 -2.236584 1.767767 -1.767767 c
2.236584 -1.29895 2.5 -0.663008 2.5 0 c
2.5 0.663008 2.236584 1.29895 1.767767 1.767767 c
1.29895 2.236584 0.663008 2.5 0 2.5 c
-0.663008 2.5 -1.29895 2.236584 -1.767767 1.767767 c
-2.236584 1.29895 -2.5 0.663008 -2.5 0 c
-2.5 -0.663008 -2.236584 -1.29895 -1.767767 -1.767767 c
-1.29895 -2.236584 -0.663008 -2.5 0 -2.5 c
cl

gsave
1.000 0.000 0.000 setrgbcolor
fill
grestore
stroke
grestore
} bind def
145.488 131.698 o
grestore
0.000 0.502 0.000 setrgbcolor
gsave
244 192.3 60.59 109.7 clipbox
/o {
gsave
newpath
translate
1.0 setlinewidth
1 setlinejoin
0 setlinecap
0 -2.5 m
0.663008 -2.5 1.29895 -2.236584 1.767767 -1.767767 c
2.236584 -1.29895 2.5 -0.663008 2.5 0 c
2.5 0.663008 2.236584 1.29895 1.767767 1.767767 c
1.29895 2.236584 0.663008 2.5 0 2.5 c
-0.663008 2.5 -1.29895 2.236584 -1.767767 1.767767 c
-2.236584 1.29895 -2.5 0.663008 -2.5 0 c
-2.5 -0.663008 -2.236584 -1.29895 -1.767767 -1.767767 c
-1.29895 -2.236584 -0.663008 -2.5 0 -2.5 c
cl

gsave
1.000 setgray
fill
grestore
stroke
grestore
} bind def
171.341 143.376 o
grestore
0.000 setgray
gsave
244 192.3 60.59 109.7 clipbox
/o {
gsave
newpath
translate
1.0 setlinewidth
1 setlinejoin
0 setlinecap
0 -2.5 m
0.663008 -2.5 1.29895 -2.236584 1.767767 -1.767767 c
2.236584 -1.29895 2.5 -0.663008 2.5 0 c
2.5 0.663008 2.236584 1.29895 1.767767 1.767767 c
1.29895 2.236584 0.663008 2.5 0 2.5 c
-0.663008 2.5 -1.29895 2.236584 -1.767767 1.767767 c
-2.236584 1.29895 -2.5 0.663008 -2.5 0 c
-2.5 -0.663008 -2.236584 -1.29895 -1.767767 -1.767767 c
-1.29895 -2.236584 -0.663008 -2.5 0 -2.5 c
cl

gsave
1.000 setgray
fill
grestore
stroke
grestore
} bind def
104.456 121.049 o
grestore
1.000 0.647 0.000 setrgbcolor
gsave
244 192.3 60.59 109.7 clipbox
/o {
gsave
newpath
translate
1.0 setlinewidth
1 setlinejoin
0 setlinecap
0 -2.5 m
0.663008 -2.5 1.29895 -2.236584 1.767767 -1.767767 c
2.236584 -1.29895 2.5 -0.663008 2.5 0 c
2.5 0.663008 2.236584 1.29895 1.767767 1.767767 c
1.29895 2.236584 0.663008 2.5 0 2.5 c
-0.663008 2.5 -1.29895 2.236584 -1.767767 1.767767 c
-2.236584 1.29895 -2.5 0.663008 -2.5 0 c
-2.5 -0.663008 -2.236584 -1.29895 -1.767767 -1.767767 c
-1.29895 -2.236584 -0.663008 -2.5 0 -2.5 c
cl

gsave
1.000 0.647 0.000 setrgbcolor
fill
grestore
stroke
grestore
} bind def
136.766 132.827 o
grestore
1.000 0.753 0.796 setrgbcolor
gsave
244 192.3 60.59 109.7 clipbox
/o {
gsave
newpath
translate
1.0 setlinewidth
1 setlinejoin
0 setlinecap
0 -2.5 m
0.663008 -2.5 1.29895 -2.236584 1.767767 -1.767767 c
2.236584 -1.29895 2.5 -0.663008 2.5 0 c
2.5 0.663008 2.236584 1.29895 1.767767 1.767767 c
1.29895 2.236584 0.663008 2.5 0 2.5 c
-0.663008 2.5 -1.29895 2.236584 -1.767767 1.767767 c
-2.236584 1.29895 -2.5 0.663008 -2.5 0 c
-2.5 -0.663008 -2.236584 -1.29895 -1.767767 -1.767767 c
-1.29895 -2.236584 -0.663008 -2.5 0 -2.5 c
cl

gsave
1.000 setgray
fill
grestore
stroke
grestore
} bind def
200.493 233.833 o
grestore
gsave
244 192.3 60.59 109.7 clipbox
/o {
gsave
newpath
translate
1.0 setlinewidth
1 setlinejoin
0 setlinecap
0 -2.5 m
0.663008 -2.5 1.29895 -2.236584 1.767767 -1.767767 c
2.236584 -1.29895 2.5 -0.663008 2.5 0 c
2.5 0.663008 2.236584 1.29895 1.767767 1.767767 c
1.29895 2.236584 0.663008 2.5 0 2.5 c
-0.663008 2.5 -1.29895 2.236584 -1.767767 1.767767 c
-2.236584 1.29895 -2.5 0.663008 -2.5 0 c
-2.5 -0.663008 -2.236584 -1.29895 -1.767767 -1.767767 c
-1.29895 -2.236584 -0.663008 -2.5 0 -2.5 c
cl

gsave
1.000 0.753 0.796 setrgbcolor
fill
grestore
stroke
grestore
} bind def
259.67 230.339 o
grestore
0 setlinejoin
1.000 0.647 0.000 setrgbcolor
gsave
244 192.3 60.59 109.7 clipbox
/o {
gsave
newpath
translate
1.0 setlinewidth
0 setlinejoin
0 setlinecap
0 2.5 m
-2.5 -2.5 l
2.5 -2.5 l
cl

gsave
1.000 0.647 0.000 setrgbcolor
fill
grestore
stroke
grestore
} bind def
152.41 204.613 o
grestore
0.000 0.545 0.545 setrgbcolor
gsave
244 192.3 60.59 109.7 clipbox
/o {
gsave
newpath
translate
1.0 setlinewidth
0 setlinejoin
0 setlinecap
0 2.5 m
-2.5 -2.5 l
2.5 -2.5 l
cl

gsave
0.000 0.545 0.545 setrgbcolor
fill
grestore
stroke
grestore
} bind def
165.348 216.698 o
grestore
0.502 0.000 0.502 setrgbcolor
gsave
244 192.3 60.59 109.7 clipbox
/o {
gsave
newpath
translate
1.0 setlinewidth
0 setlinejoin
0 setlinecap
0 2.5 m
-2.5 -2.5 l
2.5 -2.5 l
cl

gsave
0.502 0.000 0.502 setrgbcolor
fill
grestore
stroke
grestore
} bind def
184.489 228.515 o
grestore
2 setlinejoin
0.392 0.584 0.929 setrgbcolor
gsave
244 192.3 60.59 109.7 clipbox
/o {
gsave
newpath
translate
1.0 setlinewidth
2 setlinejoin
0 setlinecap
0 2.5 m
-0.561285 0.772542 l
-2.377641 0.772542 l
-0.908178 -0.295085 l
-1.469463 -2.022542 l
-0 -0.954915 l
1.469463 -2.022542 l
0.908178 -0.295085 l
2.377641 0.772542 l
0.561285 0.772542 l
cl

gsave
0.392 0.584 0.929 setrgbcolor
fill
grestore
stroke
grestore
} bind def
200.354 204.627 o
grestore
0.125 0.698 0.667 setrgbcolor
gsave
244 192.3 60.59 109.7 clipbox
/o {
gsave
newpath
translate
1.0 setlinewidth
2 setlinejoin
0 setlinecap
0 2.5 m
-0.561285 0.772542 l
-2.377641 0.772542 l
-0.908178 -0.295085 l
-1.469463 -2.022542 l
-0 -0.954915 l
1.469463 -2.022542 l
0.908178 -0.295085 l
2.377641 0.772542 l
0.561285 0.772542 l
cl

gsave
0.125 0.698 0.667 setrgbcolor
fill
grestore
stroke
grestore
} bind def
200.353 225.843 o
grestore
1.000 0.843 0.000 setrgbcolor
gsave
244 192.3 60.59 109.7 clipbox
/o {
gsave
newpath
translate
1.0 setlinewidth
2 setlinejoin
0 setlinecap
0 2.5 m
-0.561285 0.772542 l
-2.377641 0.772542 l
-0.908178 -0.295085 l
-1.469463 -2.022542 l
-0 -0.954915 l
1.469463 -2.022542 l
0.908178 -0.295085 l
2.377641 0.772542 l
0.561285 0.772542 l
cl

gsave
1.000 0.843 0.000 setrgbcolor
fill
grestore
stroke
grestore
} bind def
200.375 225.989 o
grestore
0.780 0.082 0.522 setrgbcolor
gsave
244 192.3 60.59 109.7 clipbox
/o {
gsave
newpath
translate
1.0 setlinewidth
2 setlinejoin
0 setlinecap
0 2.5 m
-0.561285 0.772542 l
-2.377641 0.772542 l
-0.908178 -0.295085 l
-1.469463 -2.022542 l
-0 -0.954915 l
1.469463 -2.022542 l
0.908178 -0.295085 l
2.377641 0.772542 l
0.561285 0.772542 l
cl

gsave
0.780 0.082 0.522 setrgbcolor
fill
grestore
stroke
grestore
} bind def
200.41 229.098 o
grestore
0.500 setlinewidth
1 setlinejoin
1.000 0.753 0.796 setrgbcolor
gsave
244 192.3 60.59 109.7 clipbox
/o {
gsave
newpath
translate
0.5 setlinewidth
1 setlinejoin
0 setlinecap
0 -2.5 m
0.663008 -2.5 1.29895 -2.236584 1.767767 -1.767767 c
2.236584 -1.29895 2.5 -0.663008 2.5 0 c
2.5 0.663008 2.236584 1.29895 1.767767 1.767767 c
1.29895 2.236584 0.663008 2.5 0 2.5 c
-0.663008 2.5 -1.29895 2.236584 -1.767767 1.767767 c
-2.236584 1.29895 -2.5 0.663008 -2.5 0 c
-2.5 -0.663008 -2.236584 -1.29895 -1.767767 -1.767767 c
-1.29895 -2.236584 -0.663008 -2.5 0 -2.5 c
cl

gsave
1.000 setgray
fill
grestore
stroke
grestore
} bind def
200.493 233.833 o
grestore
2 setlinejoin
0.392 0.584 0.929 setrgbcolor
gsave
244 192.3 60.59 109.7 clipbox
/o {
gsave
newpath
translate
0.5 setlinewidth
2 setlinejoin
0 setlinecap
0 3.5 m
-0.785799 1.081559 l
-3.328698 1.081559 l
-1.271449 -0.413119 l
-2.057248 -2.831559 l
-0 -1.336881 l
2.057248 -2.831559 l
1.271449 -0.413119 l
3.328698 1.081559 l
0.785799 1.081559 l
cl

gsave
0.392 0.584 0.929 setrgbcolor
fill
grestore
stroke
grestore
} bind def
200.354 204.627 o
grestore
1 setlinejoin
gsave
244 192.3 60.59 109.7 clipbox
/o {
gsave
newpath
translate
0.5 setlinewidth
1 setlinejoin
0 setlinecap
0 -1.25 m
0.331504 -1.25 0.649475 -1.118292 0.883883 -0.883883 c
1.118292 -0.649475 1.25 -0.331504 1.25 0 c
1.25 0.331504 1.118292 0.649475 0.883883 0.883883 c
0.649475 1.118292 0.331504 1.25 0 1.25 c
-0.331504 1.25 -0.649475 1.118292 -0.883883 0.883883 c
-1.118292 0.649475 -1.25 0.331504 -1.25 0 c
-1.25 -0.331504 -1.118292 -0.649475 -0.883883 -0.883883 c
-0.649475 -1.118292 -0.331504 -1.25 0 -1.25 c
cl

gsave
0.392 0.584 0.929 setrgbcolor
fill
grestore
stroke
grestore
} bind def
167.516 180.221 o
grestore
0.000 0.000 1.000 setrgbcolor
gsave
244 192.3 60.59 109.7 clipbox
/o {
gsave
newpath
translate
0.5 setlinewidth
1 setlinejoin
0 setlinecap
0 -2.5 m
0.663008 -2.5 1.29895 -2.236584 1.767767 -1.767767 c
2.236584 -1.29895 2.5 -0.663008 2.5 0 c
2.5 0.663008 2.236584 1.29895 1.767767 1.767767 c
1.29895 2.236584 0.663008 2.5 0 2.5 c
-0.663008 2.5 -1.29895 2.236584 -1.767767 1.767767 c
-2.236584 1.29895 -2.5 0.663008 -2.5 0 c
-2.5 -0.663008 -2.236584 -1.29895 -1.767767 -1.767767 c
-1.29895 -2.236584 -0.663008 -2.5 0 -2.5 c
cl

gsave
1.000 setgray
fill
grestore
stroke
grestore
} bind def
136.827 195.39 o
grestore
1.000 0.753 0.796 setrgbcolor
gsave
244 192.3 60.59 109.7 clipbox
/o {
gsave
newpath
translate
0.5 setlinewidth
1 setlinejoin
0 setlinecap
0 -2.5 m
0.663008 -2.5 1.29895 -2.236584 1.767767 -1.767767 c
2.236584 -1.29895 2.5 -0.663008 2.5 0 c
2.5 0.663008 2.236584 1.29895 1.767767 1.767767 c
1.29895 2.236584 0.663008 2.5 0 2.5 c
-0.663008 2.5 -1.29895 2.236584 -1.767767 1.767767 c
-2.236584 1.29895 -2.5 0.663008 -2.5 0 c
-2.5 -0.663008 -2.236584 -1.29895 -1.767767 -1.767767 c
-1.29895 -2.236584 -0.663008 -2.5 0 -2.5 c
cl

gsave
1.000 setgray
fill
grestore
stroke
grestore
} bind def
200.493 233.833 o
grestore
2 setlinejoin
0.125 0.698 0.667 setrgbcolor
gsave
244 192.3 60.59 109.7 clipbox
/o {
gsave
newpath
translate
0.5 setlinewidth
2 setlinejoin
0 setlinecap
0 3.5 m
-0.785799 1.081559 l
-3.328698 1.081559 l
-1.271449 -0.413119 l
-2.057248 -2.831559 l
-0 -1.336881 l
2.057248 -2.831559 l
1.271449 -0.413119 l
3.328698 1.081559 l
0.785799 1.081559 l
cl

gsave
0.125 0.698 0.667 setrgbcolor
fill
grestore
stroke
grestore
} bind def
200.353 225.843 o
grestore
1 setlinejoin
gsave
244 192.3 60.59 109.7 clipbox
/o {
gsave
newpath
translate
0.5 setlinewidth
1 setlinejoin
0 setlinecap
0 -1.25 m
0.331504 -1.25 0.649475 -1.118292 0.883883 -0.883883 c
1.118292 -0.649475 1.25 -0.331504 1.25 0 c
1.25 0.331504 1.118292 0.649475 0.883883 0.883883 c
0.649475 1.118292 0.331504 1.25 0 1.25 c
-0.331504 1.25 -0.649475 1.118292 -0.883883 0.883883 c
-1.118292 0.649475 -1.25 0.331504 -1.25 0 c
-1.25 -0.331504 -1.118292 -0.649475 -0.883883 -0.883883 c
-0.649475 -1.118292 -0.331504 -1.25 0 -1.25 c
cl

gsave
0.125 0.698 0.667 setrgbcolor
fill
grestore
stroke
grestore
} bind def
178.878 221.519 o
grestore
gsave
244 192.3 60.59 109.7 clipbox
/o {
gsave
newpath
translate
0.5 setlinewidth
1 setlinejoin
0 setlinecap
0 -1.25 m
0.331504 -1.25 0.649475 -1.118292 0.883883 -0.883883 c
1.118292 -0.649475 1.25 -0.331504 1.25 0 c
1.25 0.331504 1.118292 0.649475 0.883883 0.883883 c
0.649475 1.118292 0.331504 1.25 0 1.25 c
-0.331504 1.25 -0.649475 1.118292 -0.883883 0.883883 c
-1.118292 0.649475 -1.25 0.331504 -1.25 0 c
-1.25 -0.331504 -1.118292 -0.649475 -0.883883 -0.883883 c
-0.649475 -1.118292 -0.331504 -1.25 0 -1.25 c
cl

gsave
0.125 0.698 0.667 setrgbcolor
fill
grestore
stroke
grestore
} bind def
158.984 212.35 o
grestore
0 setlinejoin
0.000 0.545 0.545 setrgbcolor
gsave
244 192.3 60.59 109.7 clipbox
/o {
gsave
newpath
translate
0.5 setlinewidth
0 setlinejoin
0 setlinecap
0 2.5 m
-2.5 -2.5 l
2.5 -2.5 l
cl

gsave
0.000 0.545 0.545 setrgbcolor
fill
grestore
stroke
grestore
} bind def
165.348 216.698 o
grestore
1 setlinejoin
1.000 0.753 0.796 setrgbcolor
gsave
244 192.3 60.59 109.7 clipbox
/o {
gsave
newpath
translate
0.5 setlinewidth
1 setlinejoin
0 setlinecap
0 -2.5 m
0.663008 -2.5 1.29895 -2.236584 1.767767 -1.767767 c
2.236584 -1.29895 2.5 -0.663008 2.5 0 c
2.5 0.663008 2.236584 1.29895 1.767767 1.767767 c
1.29895 2.236584 0.663008 2.5 0 2.5 c
-0.663008 2.5 -1.29895 2.236584 -1.767767 1.767767 c
-2.236584 1.29895 -2.5 0.663008 -2.5 0 c
-2.5 -0.663008 -2.236584 -1.29895 -1.767767 -1.767767 c
-1.29895 -2.236584 -0.663008 -2.5 0 -2.5 c
cl

gsave
1.000 setgray
fill
grestore
stroke
grestore
} bind def
200.493 233.833 o
grestore
2 setlinejoin
1.000 0.843 0.000 setrgbcolor
gsave
244 192.3 60.59 109.7 clipbox
/o {
gsave
newpath
translate
0.5 setlinewidth
2 setlinejoin
0 setlinecap
0 3.5 m
-0.785799 1.081559 l
-3.328698 1.081559 l
-1.271449 -0.413119 l
-2.057248 -2.831559 l
-0 -1.336881 l
2.057248 -2.831559 l
1.271449 -0.413119 l
3.328698 1.081559 l
0.785799 1.081559 l
cl

gsave
1.000 0.843 0.000 setrgbcolor
fill
grestore
stroke
grestore
} bind def
200.375 225.989 o
grestore
1 setlinejoin
gsave
244 192.3 60.59 109.7 clipbox
/o {
gsave
newpath
translate
0.5 setlinewidth
1 setlinejoin
0 setlinecap
0 -1.25 m
0.331504 -1.25 0.649475 -1.118292 0.883883 -0.883883 c
1.118292 -0.649475 1.25 -0.331504 1.25 0 c
1.25 0.331504 1.118292 0.649475 0.883883 0.883883 c
0.649475 1.118292 0.331504 1.25 0 1.25 c
-0.331504 1.25 -0.649475 1.118292 -0.883883 0.883883 c
-1.118292 0.649475 -1.25 0.331504 -1.25 0 c
-1.25 -0.331504 -1.118292 -0.649475 -0.883883 -0.883883 c
-0.649475 -1.118292 -0.331504 -1.25 0 -1.25 c
cl

gsave
1.000 0.843 0.000 setrgbcolor
fill
grestore
stroke
grestore
} bind def
163.45 206.681 o
grestore
gsave
244 192.3 60.59 109.7 clipbox
/o {
gsave
newpath
translate
0.5 setlinewidth
1 setlinejoin
0 setlinecap
0 -1.25 m
0.331504 -1.25 0.649475 -1.118292 0.883883 -0.883883 c
1.118292 -0.649475 1.25 -0.331504 1.25 0 c
1.25 0.331504 1.118292 0.649475 0.883883 0.883883 c
0.649475 1.118292 0.331504 1.25 0 1.25 c
-0.331504 1.25 -0.649475 1.118292 -0.883883 0.883883 c
-1.118292 0.649475 -1.25 0.331504 -1.25 0 c
-1.25 -0.331504 -1.118292 -0.649475 -0.883883 -0.883883 c
-0.649475 -1.118292 -0.331504 -1.25 0 -1.25 c
cl

gsave
1.000 0.843 0.000 setrgbcolor
fill
grestore
stroke
grestore
} bind def
143.885 200.834 o
grestore
gsave
244 192.3 60.59 109.7 clipbox
/o {
gsave
newpath
translate
0.5 setlinewidth
1 setlinejoin
0 setlinecap
0 -1.25 m
0.331504 -1.25 0.649475 -1.118292 0.883883 -0.883883 c
1.118292 -0.649475 1.25 -0.331504 1.25 0 c
1.25 0.331504 1.118292 0.649475 0.883883 0.883883 c
0.649475 1.118292 0.331504 1.25 0 1.25 c
-0.331504 1.25 -0.649475 1.118292 -0.883883 0.883883 c
-1.118292 0.649475 -1.25 0.331504 -1.25 0 c
-1.25 -0.331504 -1.118292 -0.649475 -0.883883 -0.883883 c
-0.649475 -1.118292 -0.331504 -1.25 0 -1.25 c
cl

gsave
1.000 0.843 0.000 setrgbcolor
fill
grestore
stroke
grestore
} bind def
151.802 203.791 o
grestore
0 setlinejoin
1.000 0.647 0.000 setrgbcolor
gsave
244 192.3 60.59 109.7 clipbox
/o {
gsave
newpath
translate
0.5 setlinewidth
0 setlinejoin
0 setlinecap
0 2.5 m
-2.5 -2.5 l
2.5 -2.5 l
cl

gsave
1.000 0.647 0.000 setrgbcolor
fill
grestore
stroke
grestore
} bind def
152.41 204.613 o
grestore
1 setlinejoin
1.000 0.753 0.796 setrgbcolor
gsave
244 192.3 60.59 109.7 clipbox
/o {
gsave
newpath
translate
0.5 setlinewidth
1 setlinejoin
0 setlinecap
0 -2.5 m
0.663008 -2.5 1.29895 -2.236584 1.767767 -1.767767 c
2.236584 -1.29895 2.5 -0.663008 2.5 0 c
2.5 0.663008 2.236584 1.29895 1.767767 1.767767 c
1.29895 2.236584 0.663008 2.5 0 2.5 c
-0.663008 2.5 -1.29895 2.236584 -1.767767 1.767767 c
-2.236584 1.29895 -2.5 0.663008 -2.5 0 c
-2.5 -0.663008 -2.236584 -1.29895 -1.767767 -1.767767 c
-1.29895 -2.236584 -0.663008 -2.5 0 -2.5 c
cl

gsave
1.000 setgray
fill
grestore
stroke
grestore
} bind def
200.493 233.833 o
grestore
2 setlinejoin
0.780 0.082 0.522 setrgbcolor
gsave
244 192.3 60.59 109.7 clipbox
/o {
gsave
newpath
translate
0.5 setlinewidth
2 setlinejoin
0 setlinecap
0 3.5 m
-0.785799 1.081559 l
-3.328698 1.081559 l
-1.271449 -0.413119 l
-2.057248 -2.831559 l
-0 -1.336881 l
2.057248 -2.831559 l
1.271449 -0.413119 l
3.328698 1.081559 l
0.785799 1.081559 l
cl

gsave
0.780 0.082 0.522 setrgbcolor
fill
grestore
stroke
grestore
} bind def
200.41 229.098 o
grestore
1 setlinejoin
gsave
244 192.3 60.59 109.7 clipbox
/o {
gsave
newpath
translate
0.5 setlinewidth
1 setlinejoin
0 setlinecap
0 -1.25 m
0.331504 -1.25 0.649475 -1.118292 0.883883 -0.883883 c
1.118292 -0.649475 1.25 -0.331504 1.25 0 c
1.25 0.331504 1.118292 0.649475 0.883883 0.883883 c
0.649475 1.118292 0.331504 1.25 0 1.25 c
-0.331504 1.25 -0.649475 1.118292 -0.883883 0.883883 c
-1.118292 0.649475 -1.25 0.331504 -1.25 0 c
-1.25 -0.331504 -1.118292 -0.649475 -0.883883 -0.883883 c
-0.649475 -1.118292 -0.331504 -1.25 0 -1.25 c
cl

gsave
0.780 0.082 0.522 setrgbcolor
fill
grestore
stroke
grestore
} bind def
197.448 230.564 o
grestore
gsave
244 192.3 60.59 109.7 clipbox
/o {
gsave
newpath
translate
0.5 setlinewidth
1 setlinejoin
0 setlinecap
0 -1.25 m
0.331504 -1.25 0.649475 -1.118292 0.883883 -0.883883 c
1.118292 -0.649475 1.25 -0.331504 1.25 0 c
1.25 0.331504 1.118292 0.649475 0.883883 0.883883 c
0.649475 1.118292 0.331504 1.25 0 1.25 c
-0.331504 1.25 -0.649475 1.118292 -0.883883 0.883883 c
-1.118292 0.649475 -1.25 0.331504 -1.25 0 c
-1.25 -0.331504 -1.118292 -0.649475 -0.883883 -0.883883 c
-0.649475 -1.118292 -0.331504 -1.25 0 -1.25 c
cl

gsave
0.780 0.082 0.522 setrgbcolor
fill
grestore
stroke
grestore
} bind def
190.382 230.412 o
grestore
gsave
244 192.3 60.59 109.7 clipbox
/o {
gsave
newpath
translate
0.5 setlinewidth
1 setlinejoin
0 setlinecap
0 -1.25 m
0.331504 -1.25 0.649475 -1.118292 0.883883 -0.883883 c
1.118292 -0.649475 1.25 -0.331504 1.25 0 c
1.25 0.331504 1.118292 0.649475 0.883883 0.883883 c
0.649475 1.118292 0.331504 1.25 0 1.25 c
-0.331504 1.25 -0.649475 1.118292 -0.883883 0.883883 c
-1.118292 0.649475 -1.25 0.331504 -1.25 0 c
-1.25 -0.331504 -1.118292 -0.649475 -0.883883 -0.883883 c
-0.649475 -1.118292 -0.331504 -1.25 0 -1.25 c
cl

gsave
0.780 0.082 0.522 setrgbcolor
fill
grestore
stroke
grestore
} bind def
184.46 226.389 o
grestore
0 setlinejoin
0.502 0.000 0.502 setrgbcolor
gsave
244 192.3 60.59 109.7 clipbox
/o {
gsave
newpath
translate
0.5 setlinewidth
0 setlinejoin
0 setlinecap
0 2.5 m
-2.5 -2.5 l
2.5 -2.5 l
cl

gsave
0.502 0.000 0.502 setrgbcolor
fill
grestore
stroke
grestore
} bind def
184.489 228.515 o
grestore
1.000 setlinewidth
2 setlinecap
0.000 setgray
gsave
60.594375 109.737148 m
60.594375 302.04 l
stroke
grestore
gsave
60.594375 302.04 m
304.563905 302.04 l
stroke
grestore
gsave
60.594375 109.737148 m
304.563905 109.737148 l
stroke
grestore
gsave
304.563905 109.737148 m
304.563905 302.04 l
stroke
grestore
0.500 setlinewidth
1 setlinejoin
0 setlinecap
gsave
/o {
gsave
newpath
translate
0.5 setlinewidth
1 setlinejoin
0 setlinecap
0 0 m
0 4 l

gsave
0.000 setgray
fill
grestore
stroke
grestore
} bind def
71.6839 109.737 o
grestore
gsave
/o {
gsave
newpath
translate
0.5 setlinewidth
1 setlinejoin
0 setlinecap
0 0 m
0 -4 l

gsave
0.000 setgray
fill
grestore
stroke
grestore
} bind def
71.6839 302.04 o
grestore
/STIXGeneral-Regular findfont
12.000 scalefont
setfont
gsave
61.183899 97.534023 translate
0.000000 rotate
0.000000 0.000000 m /zero glyphshow
5.999985 0.000000 m /period glyphshow
8.999969 0.000000 m /zero glyphshow
14.999954 0.000000 m /zero glyphshow
grestore
gsave
/o {
gsave
newpath
translate
0.5 setlinewidth
1 setlinejoin
0 setlinecap
0 0 m
0 4 l

gsave
0.000 setgray
fill
grestore
stroke
grestore
} bind def
182.579 109.737 o
grestore
gsave
/o {
gsave
newpath
translate
0.5 setlinewidth
1 setlinejoin
0 setlinecap
0 0 m
0 -4 l

gsave
0.000 setgray
fill
grestore
stroke
grestore
} bind def
182.579 302.04 o
grestore
gsave
172.079140 97.534023 translate
0.000000 rotate
0.000000 0.000000 m /zero glyphshow
5.999985 0.000000 m /period glyphshow
8.999969 0.000000 m /two glyphshow
14.999954 0.000000 m /zero glyphshow
grestore
gsave
/o {
gsave
newpath
translate
0.5 setlinewidth
1 setlinejoin
0 setlinecap
0 0 m
0 4 l

gsave
0.000 setgray
fill
grestore
stroke
grestore
} bind def
293.474 109.737 o
grestore
gsave
/o {
gsave
newpath
translate
0.5 setlinewidth
1 setlinejoin
0 setlinecap
0 0 m
0 -4 l

gsave
0.000 setgray
fill
grestore
stroke
grestore
} bind def
293.474 302.04 o
grestore
gsave
282.974381 97.534023 translate
0.000000 rotate
0.000000 0.000000 m /zero glyphshow
5.999985 0.000000 m /period glyphshow
8.999969 0.000000 m /four glyphshow
14.999954 0.000000 m /zero glyphshow
grestore
gsave
173.579140 76.268398 translate
0.000000 rotate
/STIXGeneral-Italic findfont
20.0 scalefont
setfont
0.000000 0.187500 moveto
/a glyphshow

/STIXGeneral-Regular findfont
14.0 scalefont
setfont
10.020004 -2.456250 moveto
/one glyphshow


grestore
gsave
/o {
gsave
newpath
translate
0.5 setlinewidth
1 setlinejoin
0 setlinecap
0 0 m
4 0 l

gsave
0.000 setgray
fill
grestore
stroke
grestore
} bind def
60.5944 121.049 o
grestore
gsave
/o {
gsave
newpath
translate
0.5 setlinewidth
1 setlinejoin
0 setlinecap
0 0 m
-4 0 l

gsave
0.000 setgray
fill
grestore
stroke
grestore
} bind def
304.564 121.049 o
grestore
gsave
35.594375 118.252206 translate
0.000000 rotate
0.000000 0.000000 m /zero glyphshow
5.999985 0.000000 m /period glyphshow
8.999969 0.000000 m /zero glyphshow
14.999954 0.000000 m /zero glyphshow
grestore
gsave
/o {
gsave
newpath
translate
0.5 setlinewidth
1 setlinejoin
0 setlinecap
0 0 m
4 0 l

gsave
0.000 setgray
fill
grestore
stroke
grestore
} bind def
60.5944 205.889 o
grestore
gsave
/o {
gsave
newpath
translate
0.5 setlinewidth
1 setlinejoin
0 setlinecap
0 0 m
-4 0 l

gsave
0.000 setgray
fill
grestore
stroke
grestore
} bind def
304.564 205.889 o
grestore
gsave
35.594375 203.091699 translate
0.000000 rotate
0.000000 0.000000 m /zero glyphshow
5.999985 0.000000 m /period glyphshow
8.999969 0.000000 m /one glyphshow
14.999954 0.000000 m /five glyphshow
grestore
gsave
/o {
gsave
newpath
translate
0.5 setlinewidth
1 setlinejoin
0 setlinecap
0 0 m
4 0 l

gsave
0.000 setgray
fill
grestore
stroke
grestore
} bind def
60.5944 290.728 o
grestore
gsave
/o {
gsave
newpath
translate
0.5 setlinewidth
1 setlinejoin
0 setlinecap
0 0 m
-4 0 l

gsave
0.000 setgray
fill
grestore
stroke
grestore
} bind def
304.564 290.728 o
grestore
gsave
35.594375 287.931193 translate
0.000000 rotate
0.000000 0.000000 m /zero glyphshow
5.999985 0.000000 m /period glyphshow
8.999969 0.000000 m /three glyphshow
14.999954 0.000000 m /zero glyphshow
grestore
gsave
26.250625 196.888574 translate
90.000000 rotate
/STIXGeneral-Italic findfont
20.0 scalefont
setfont
0.000000 0.187500 moveto
/a glyphshow

/STIXGeneral-Regular findfont
14.0 scalefont
setfont
10.020004 -2.456250 moveto
/two glyphshow


grestore
gsave
365.57047 109.737148 m
609.54 109.737148 l
609.54 302.04 l
365.57047 302.04 l
cl
1.000 setgray
fill
grestore
1.000 setlinewidth
1 setlinecap
0.750 setgray
gsave
581.493442 281.134462 m
585.889604 256.147891 585.835172 231.549943 581.330147 207.340618 c
stroke
grestore
gsave
583.488571 210.193898 m
581.330147 207.340618 l
580.342577 210.779325 l
stroke
grestore
gsave
577.610764 199.408042 m
551.648863 172.285326 522.004934 150.919743 488.678979 135.31129 c
stroke
grestore
gsave
492.255512 135.219592 m
488.678979 135.31129 l
490.898257 138.117498 l
stroke
grestore
gsave
480.159551 134.174764 m
450.084924 142.279484 422.743575 155.258489 398.135506 173.111777 c
stroke
grestore
gsave
399.78606 169.937557 m
398.135506 173.111777 l
401.665214 172.527688 l
stroke
grestore
gsave
581.344425 281.109524 m
581.89586 276.18198 581.861669 271.634682 581.241851 267.467631 c
stroke
grestore
gsave
583.295237 270.39741 m
581.241851 267.467631 l
580.130059 270.868207 l
stroke
grestore
gsave
576.63815 260.95137 m
558.840523 254.134123 540.786645 250.557669 522.476517 250.222009 c
stroke
grestore
gsave
525.705306 248.68093 m
522.476517 250.222009 l
525.646653 251.880392 l
stroke
grestore
gsave
514.065823 247.901203 m
498.341681 237.316771 481.647415 229.813876 463.983025 225.392519 c
stroke
grestore
gsave
467.475756 224.617384 m
463.983025 225.392519 l
466.698772 227.721622 l
stroke
grestore
gsave
461.939768 226.911131 m
465.622923 230.090376 469.315334 232.584635 473.017 234.393907 c
stroke
grestore
gsave
469.439437 234.426186 m
473.017 234.393907 l
470.844639 231.551224 l
stroke
grestore
gsave
581.352255 281.107336 m
581.893552 276.321397 581.872414 271.913912 581.28884 267.884878 c
stroke
grestore
gsave
583.331024 270.822477 m
581.28884 267.884878 l
580.164072 271.281185 l
stroke
grestore
gsave
577.253054 260.389216 m
546.675166 237.017617 513.264831 220.066561 477.022049 209.536048 c
stroke
grestore
gsave
480.541391 208.89244 m
477.022049 209.536048 l
479.64854 211.965357 l
stroke
grestore
gsave
468.528172 206.335976 m
452.750832 198.657158 436.511371 193.903352 419.809791 192.074556 c
stroke
grestore
gsave
423.164935 190.832376 m
419.809791 192.074556 l
422.816622 194.013363 l
stroke
grestore
gsave
418.200896 193.53015 m
423.208144 196.146398 428.109452 197.968116 432.904822 198.995304 c
stroke
grestore
gsave
429.440677 199.889565 m
432.904822 198.995304 l
430.110926 196.760545 l
stroke
grestore
gsave
437.93606 199.945102 m
438.376 200.840754 438.690938 201.371777 438.880873 201.53817 c
stroke
grestore
gsave
435.419559 200.633015 m
438.880873 201.53817 l
437.528209 198.226026 l
stroke
grestore
gsave
581.250554 281.094769 m
581.367261 279.258926 581.370939 277.796641 581.261587 276.707913 c
stroke
grestore
gsave
583.173377 279.731993 m
581.261587 276.707913 l
579.989397 280.051793 l
stroke
grestore
gsave
576.733864 272.941352 m
576.219599 273.165522 576.04419 273.234966 576.207637 273.149685 c
stroke
grestore
gsave
578.304537 270.25089 m
576.207637 273.149685 l
579.784812 273.087928 l
stroke
grestore
gsave
567.895726 275.080738 m
563.628797 274.462137 559.721562 274.335162 556.174021 274.699812 c
stroke
grestore
gsave
559.193648 272.780996 m
556.174021 274.699812 l
559.52085 275.964223 l
stroke
grestore
gsave
548.153251 272.669912 m
544.855944 269.869945 541.601044 267.679532 538.388552 266.098673 c
stroke
grestore
gsave
541.966189 266.075983 m
538.388552 266.098673 l
540.553286 268.947169 l
stroke
grestore
gsave
533.520772 267.968039 m
533.574363 268.644704 533.595429 268.956351 533.583971 268.902978 c
stroke
grestore
gsave
531.347908 266.110126 m
533.583971 268.902978 l
534.476615 265.438417 l
stroke
grestore
0.500 setlinewidth
0 setlinecap
1.000 0.753 0.796 setrgbcolor
gsave
244 192.3 365.6 109.7 clipbox
/o {
gsave
newpath
translate
0.5 setlinewidth
1 setlinejoin
0 setlinecap
0 -2.5 m
0.663008 -2.5 1.29895 -2.236584 1.767767 -1.767767 c
2.236584 -1.29895 2.5 -0.663008 2.5 0 c
2.5 0.663008 2.236584 1.29895 1.767767 1.767767 c
1.29895 2.236584 0.663008 2.5 0 2.5 c
-0.663008 2.5 -1.29895 2.236584 -1.767767 1.767767 c
-2.236584 1.29895 -2.5 0.663008 -2.5 0 c
-2.5 -0.663008 -2.236584 -1.29895 -1.767767 -1.767767 c
-1.29895 -2.236584 -0.663008 -2.5 0 -2.5 c
cl

gsave
1.000 setgray
fill
grestore
stroke
grestore
} bind def
580.765 285.065 o
grestore
2 setlinejoin
0.392 0.584 0.929 setrgbcolor
gsave
244 192.3 365.6 109.7 clipbox
/o {
gsave
newpath
translate
0.5 setlinewidth
2 setlinejoin
0 setlinecap
0 3.5 m
-0.785799 1.081559 l
-3.328698 1.081559 l
-1.271449 -0.413119 l
-2.057248 -2.831559 l
-0 -1.336881 l
2.057248 -2.831559 l
1.271449 -0.413119 l
3.328698 1.081559 l
0.785799 1.081559 l
cl

gsave
0.392 0.584 0.929 setrgbcolor
fill
grestore
stroke
grestore
} bind def
580.357 202.315 o
grestore
1 setlinejoin
gsave
244 192.3 365.6 109.7 clipbox
/o {
gsave
newpath
translate
0.5 setlinewidth
1 setlinejoin
0 setlinecap
0 -1.25 m
0.331504 -1.25 0.649475 -1.118292 0.883883 -0.883883 c
1.118292 -0.649475 1.25 -0.331504 1.25 0 c
1.25 0.331504 1.118292 0.649475 0.883883 0.883883 c
0.649475 1.118292 0.331504 1.25 0 1.25 c
-0.331504 1.25 -0.649475 1.118292 -0.883883 0.883883 c
-1.118292 0.649475 -1.25 0.331504 -1.25 0 c
-1.25 -0.331504 -1.118292 -0.649475 -0.883883 -0.883883 c
-0.649475 -1.118292 -0.331504 -1.25 0 -1.25 c
cl

gsave
0.392 0.584 0.929 setrgbcolor
fill
grestore
stroke
grestore
} bind def
484.031 133.163 o
grestore
0.000 0.000 1.000 setrgbcolor
gsave
244 192.3 365.6 109.7 clipbox
/o {
gsave
newpath
translate
0.5 setlinewidth
1 setlinejoin
0 setlinecap
0 -2.5 m
0.663008 -2.5 1.29895 -2.236584 1.767767 -1.767767 c
2.236584 -1.29895 2.5 -0.663008 2.5 0 c
2.5 0.663008 2.236584 1.29895 1.767767 1.767767 c
1.29895 2.236584 0.663008 2.5 0 2.5 c
-0.663008 2.5 -1.29895 2.236584 -1.767767 1.767767 c
-2.236584 1.29895 -2.5 0.663008 -2.5 0 c
-2.5 -0.663008 -2.236584 -1.29895 -1.767767 -1.767767 c
-1.29895 -2.236584 -0.663008 -2.5 0 -2.5 c
cl

gsave
1.000 setgray
fill
grestore
stroke
grestore
} bind def
394.012 176.141 o
grestore
1.000 0.753 0.796 setrgbcolor
gsave
244 192.3 365.6 109.7 clipbox
/o {
gsave
newpath
translate
0.5 setlinewidth
1 setlinejoin
0 setlinecap
0 -2.5 m
0.663008 -2.5 1.29895 -2.236584 1.767767 -1.767767 c
2.236584 -1.29895 2.5 -0.663008 2.5 0 c
2.5 0.663008 2.236584 1.29895 1.767767 1.767767 c
1.29895 2.236584 0.663008 2.5 0 2.5 c
-0.663008 2.5 -1.29895 2.236584 -1.767767 1.767767 c
-2.236584 1.29895 -2.5 0.663008 -2.5 0 c
-2.5 -0.663008 -2.236584 -1.29895 -1.767767 -1.767767 c
-1.29895 -2.236584 -0.663008 -2.5 0 -2.5 c
cl

gsave
1.000 setgray
fill
grestore
stroke
grestore
} bind def
580.765 285.065 o
grestore
2 setlinejoin
0.125 0.698 0.667 setrgbcolor
gsave
244 192.3 365.6 109.7 clipbox
/o {
gsave
newpath
translate
0.5 setlinewidth
2 setlinejoin
0 setlinecap
0 3.5 m
-0.785799 1.081559 l
-3.328698 1.081559 l
-1.271449 -0.413119 l
-2.057248 -2.831559 l
-0 -1.336881 l
2.057248 -2.831559 l
1.271449 -0.413119 l
3.328698 1.081559 l
0.785799 1.081559 l
cl

gsave
0.125 0.698 0.667 setrgbcolor
fill
grestore
stroke
grestore
} bind def
580.354 262.425 o
grestore
1 setlinejoin
gsave
244 192.3 365.6 109.7 clipbox
/o {
gsave
newpath
translate
0.5 setlinewidth
1 setlinejoin
0 setlinecap
0 -1.25 m
0.331504 -1.25 0.649475 -1.118292 0.883883 -0.883883 c
1.118292 -0.649475 1.25 -0.331504 1.25 0 c
1.25 0.331504 1.118292 0.649475 0.883883 0.883883 c
0.649475 1.118292 0.331504 1.25 0 1.25 c
-0.331504 1.25 -0.649475 1.118292 -0.883883 0.883883 c
-1.118292 0.649475 -1.25 0.331504 -1.25 0 c
-1.25 -0.331504 -1.118292 -0.649475 -0.883883 -0.883883 c
-0.649475 -1.118292 -0.331504 -1.25 0 -1.25 c
cl

gsave
0.125 0.698 0.667 setrgbcolor
fill
grestore
stroke
grestore
} bind def
517.359 250.176 o
grestore
gsave
244 192.3 365.6 109.7 clipbox
/o {
gsave
newpath
translate
0.5 setlinewidth
1 setlinejoin
0 setlinecap
0 -1.25 m
0.331504 -1.25 0.649475 -1.118292 0.883883 -0.883883 c
1.118292 -0.649475 1.25 -0.331504 1.25 0 c
1.25 0.331504 1.118292 0.649475 0.883883 0.883883 c
0.649475 1.118292 0.331504 1.25 0 1.25 c
-0.331504 1.25 -0.649475 1.118292 -0.883883 0.883883 c
-1.118292 0.649475 -1.25 0.331504 -1.25 0 c
-1.25 -0.331504 -1.118292 -0.649475 -0.883883 -0.883883 c
-0.649475 -1.118292 -0.331504 -1.25 0 -1.25 c
cl

gsave
0.125 0.698 0.667 setrgbcolor
fill
grestore
stroke
grestore
} bind def
459.005 224.196 o
grestore
0 setlinejoin
0.000 0.545 0.545 setrgbcolor
gsave
244 192.3 365.6 109.7 clipbox
/o {
gsave
newpath
translate
0.5 setlinewidth
0 setlinejoin
0 setlinecap
0 2.5 m
-2.5 -2.5 l
2.5 -2.5 l
cl

gsave
0.000 0.545 0.545 setrgbcolor
fill
grestore
stroke
grestore
} bind def
477.671 236.515 o
grestore
1 setlinejoin
1.000 0.753 0.796 setrgbcolor
gsave
244 192.3 365.6 109.7 clipbox
/o {
gsave
newpath
translate
0.5 setlinewidth
1 setlinejoin
0 setlinecap
0 -2.5 m
0.663008 -2.5 1.29895 -2.236584 1.767767 -1.767767 c
2.236584 -1.29895 2.5 -0.663008 2.5 0 c
2.5 0.663008 2.236584 1.29895 1.767767 1.767767 c
1.29895 2.236584 0.663008 2.5 0 2.5 c
-0.663008 2.5 -1.29895 2.236584 -1.767767 1.767767 c
-2.236584 1.29895 -2.5 0.663008 -2.5 0 c
-2.5 -0.663008 -2.236584 -1.29895 -1.767767 -1.767767 c
-1.29895 -2.236584 -0.663008 -2.5 0 -2.5 c
cl

gsave
1.000 setgray
fill
grestore
stroke
grestore
} bind def
580.765 285.065 o
grestore
2 setlinejoin
1.000 0.843 0.000 setrgbcolor
gsave
244 192.3 365.6 109.7 clipbox
/o {
gsave
newpath
translate
0.5 setlinewidth
2 setlinejoin
0 setlinecap
0 3.5 m
-0.785799 1.081559 l
-3.328698 1.081559 l
-1.271449 -0.413119 l
-2.057248 -2.831559 l
-0 -1.336881 l
2.057248 -2.831559 l
1.271449 -0.413119 l
3.328698 1.081559 l
0.785799 1.081559 l
cl

gsave
1.000 0.843 0.000 setrgbcolor
fill
grestore
stroke
grestore
} bind def
580.417 262.839 o
grestore
1 setlinejoin
gsave
244 192.3 365.6 109.7 clipbox
/o {
gsave
newpath
translate
0.5 setlinewidth
1 setlinejoin
0 setlinecap
0 -1.25 m
0.331504 -1.25 0.649475 -1.118292 0.883883 -0.883883 c
1.118292 -0.649475 1.25 -0.331504 1.25 0 c
1.25 0.331504 1.118292 0.649475 0.883883 0.883883 c
0.649475 1.118292 0.331504 1.25 0 1.25 c
-0.331504 1.25 -0.649475 1.118292 -0.883883 0.883883 c
-1.118292 0.649475 -1.25 0.331504 -1.25 0 c
-1.25 -0.331504 -1.118292 -0.649475 -0.883883 -0.883883 c
-0.649475 -1.118292 -0.331504 -1.25 0 -1.25 c
cl

gsave
1.000 0.843 0.000 setrgbcolor
fill
grestore
stroke
grestore
} bind def
472.104 208.133 o
grestore
gsave
244 192.3 365.6 109.7 clipbox
/o {
gsave
newpath
translate
0.5 setlinewidth
1 setlinejoin
0 setlinecap
0 -1.25 m
0.331504 -1.25 0.649475 -1.118292 0.883883 -0.883883 c
1.118292 -0.649475 1.25 -0.331504 1.25 0 c
1.25 0.331504 1.118292 0.649475 0.883883 0.883883 c
0.649475 1.118292 0.331504 1.25 0 1.25 c
-0.331504 1.25 -0.649475 1.118292 -0.883883 0.883883 c
-1.118292 0.649475 -1.25 0.331504 -1.25 0 c
-1.25 -0.331504 -1.118292 -0.649475 -0.883883 -0.883883 c
-0.649475 -1.118292 -0.331504 -1.25 0 -1.25 c
cl

gsave
1.000 0.843 0.000 setrgbcolor
fill
grestore
stroke
grestore
} bind def
414.715 191.568 o
grestore
gsave
244 192.3 365.6 109.7 clipbox
/o {
gsave
newpath
translate
0.5 setlinewidth
1 setlinejoin
0 setlinecap
0 -1.25 m
0.331504 -1.25 0.649475 -1.118292 0.883883 -0.883883 c
1.118292 -0.649475 1.25 -0.331504 1.25 0 c
1.25 0.331504 1.118292 0.649475 0.883883 0.883883 c
0.649475 1.118292 0.331504 1.25 0 1.25 c
-0.331504 1.25 -0.649475 1.118292 -0.883883 0.883883 c
-1.118292 0.649475 -1.25 0.331504 -1.25 0 c
-1.25 -0.331504 -1.118292 -0.649475 -0.883883 -0.883883 c
-0.649475 -1.118292 -0.331504 -1.25 0 -1.25 c
cl

gsave
1.000 0.843 0.000 setrgbcolor
fill
grestore
stroke
grestore
} bind def
437.936 199.945 o
grestore
0 setlinejoin
1.000 0.647 0.000 setrgbcolor
gsave
244 192.3 365.6 109.7 clipbox
/o {
gsave
newpath
translate
0.5 setlinewidth
0 setlinejoin
0 setlinecap
0 2.5 m
-2.5 -2.5 l
2.5 -2.5 l
cl

gsave
1.000 0.647 0.000 setrgbcolor
fill
grestore
stroke
grestore
} bind def
439.722 202.275 o
grestore
1 setlinejoin
1.000 0.753 0.796 setrgbcolor
gsave
244 192.3 365.6 109.7 clipbox
/o {
gsave
newpath
translate
0.5 setlinewidth
1 setlinejoin
0 setlinecap
0 -2.5 m
0.663008 -2.5 1.29895 -2.236584 1.767767 -1.767767 c
2.236584 -1.29895 2.5 -0.663008 2.5 0 c
2.5 0.663008 2.236584 1.29895 1.767767 1.767767 c
1.29895 2.236584 0.663008 2.5 0 2.5 c
-0.663008 2.5 -1.29895 2.236584 -1.767767 1.767767 c
-2.236584 1.29895 -2.5 0.663008 -2.5 0 c
-2.5 -0.663008 -2.236584 -1.29895 -1.767767 -1.767767 c
-1.29895 -2.236584 -0.663008 -2.5 0 -2.5 c
cl

gsave
1.000 setgray
fill
grestore
stroke
grestore
} bind def
580.765 285.065 o
grestore
2 setlinejoin
0.780 0.082 0.522 setrgbcolor
gsave
244 192.3 365.6 109.7 clipbox
/o {
gsave
newpath
translate
0.5 setlinewidth
2 setlinejoin
0 setlinecap
0 3.5 m
-0.785799 1.081559 l
-3.328698 1.081559 l
-1.271449 -0.413119 l
-2.057248 -2.831559 l
-0 -1.336881 l
2.057248 -2.831559 l
1.271449 -0.413119 l
3.328698 1.081559 l
0.785799 1.081559 l
cl

gsave
0.780 0.082 0.522 setrgbcolor
fill
grestore
stroke
grestore
} bind def
580.52 271.649 o
grestore
1 setlinejoin
gsave
244 192.3 365.6 109.7 clipbox
/o {
gsave
newpath
translate
0.5 setlinewidth
1 setlinejoin
0 setlinecap
0 -1.25 m
0.331504 -1.25 0.649475 -1.118292 0.883883 -0.883883 c
1.118292 -0.649475 1.25 -0.331504 1.25 0 c
1.25 0.331504 1.118292 0.649475 0.883883 0.883883 c
0.649475 1.118292 0.331504 1.25 0 1.25 c
-0.331504 1.25 -0.649475 1.118292 -0.883883 0.883883 c
-1.118292 0.649475 -1.25 0.331504 -1.25 0 c
-1.25 -0.331504 -1.118292 -0.649475 -0.883883 -0.883883 c
-0.649475 -1.118292 -0.331504 -1.25 0 -1.25 c
cl

gsave
0.780 0.082 0.522 setrgbcolor
fill
grestore
stroke
grestore
} bind def
571.832 275.802 o
grestore
gsave
244 192.3 365.6 109.7 clipbox
/o {
gsave
newpath
translate
0.5 setlinewidth
1 setlinejoin
0 setlinecap
0 -1.25 m
0.331504 -1.25 0.649475 -1.118292 0.883883 -0.883883 c
1.118292 -0.649475 1.25 -0.331504 1.25 0 c
1.25 0.331504 1.118292 0.649475 0.883883 0.883883 c
0.649475 1.118292 0.331504 1.25 0 1.25 c
-0.331504 1.25 -0.649475 1.118292 -0.883883 0.883883 c
-1.118292 0.649475 -1.25 0.331504 -1.25 0 c
-1.25 -0.331504 -1.118292 -0.649475 -0.883883 -0.883883 c
-0.649475 -1.118292 -0.331504 -1.25 0 -1.25 c
cl

gsave
0.780 0.082 0.522 setrgbcolor
fill
grestore
stroke
grestore
} bind def
551.104 275.371 o
grestore
gsave
244 192.3 365.6 109.7 clipbox
/o {
gsave
newpath
translate
0.5 setlinewidth
1 setlinejoin
0 setlinecap
0 -1.25 m
0.331504 -1.25 0.649475 -1.118292 0.883883 -0.883883 c
1.118292 -0.649475 1.25 -0.331504 1.25 0 c
1.25 0.331504 1.118292 0.649475 0.883883 0.883883 c
0.649475 1.118292 0.331504 1.25 0 1.25 c
-0.331504 1.25 -0.649475 1.118292 -0.883883 0.883883 c
-1.118292 0.649475 -1.25 0.331504 -1.25 0 c
-1.25 -0.331504 -1.118292 -0.649475 -0.883883 -0.883883 c
-0.649475 -1.118292 -0.331504 -1.25 0 -1.25 c
cl

gsave
0.780 0.082 0.522 setrgbcolor
fill
grestore
stroke
grestore
} bind def
533.734 263.974 o
grestore
0 setlinejoin
0.502 0.000 0.502 setrgbcolor
gsave
244 192.3 365.6 109.7 clipbox
/o {
gsave
newpath
translate
0.5 setlinewidth
0 setlinejoin
0 setlinecap
0 2.5 m
-2.5 -2.5 l
2.5 -2.5 l
cl

gsave
0.502 0.000 0.502 setrgbcolor
fill
grestore
stroke
grestore
} bind def
533.819 269.996 o
grestore
1.000 setlinewidth
1 setlinejoin
0.000 setgray
gsave
244 192.3 365.6 109.7 clipbox
/o {
gsave
newpath
translate
1.0 setlinewidth
1 setlinejoin
0 setlinecap
0 -2.5 m
0.663008 -2.5 1.29895 -2.236584 1.767767 -1.767767 c
2.236584 -1.29895 2.5 -0.663008 2.5 0 c
2.5 0.663008 2.236584 1.29895 1.767767 1.767767 c
1.29895 2.236584 0.663008 2.5 0 2.5 c
-0.663008 2.5 -1.29895 2.236584 -1.767767 1.767767 c
-2.236584 1.29895 -2.5 0.663008 -2.5 0 c
-2.5 -0.663008 -2.236584 -1.29895 -1.767767 -1.767767 c
-1.29895 -2.236584 -0.663008 -2.5 0 -2.5 c
cl

gsave
0.000 setgray
fill
grestore
stroke
grestore
} bind def
202.924 -34.49 o
grestore
0.000 0.000 1.000 setrgbcolor
gsave
244 192.3 365.6 109.7 clipbox
/o {
gsave
newpath
translate
1.0 setlinewidth
1 setlinejoin
0 setlinecap
0 -2.5 m
0.663008 -2.5 1.29895 -2.236584 1.767767 -1.767767 c
2.236584 -1.29895 2.5 -0.663008 2.5 0 c
2.5 0.663008 2.236584 1.29895 1.767767 1.767767 c
1.29895 2.236584 0.663008 2.5 0 2.5 c
-0.663008 2.5 -1.29895 2.236584 -1.767767 1.767767 c
-2.236584 1.29895 -2.5 0.663008 -2.5 0 c
-2.5 -0.663008 -2.236584 -1.29895 -1.767767 -1.767767 c
-1.29895 -2.236584 -0.663008 -2.5 0 -2.5 c
cl

gsave
1.000 setgray
fill
grestore
stroke
grestore
} bind def
394.012 176.141 o
grestore
gsave
244 192.3 365.6 109.7 clipbox
/o {
gsave
newpath
translate
1.0 setlinewidth
1 setlinejoin
0 setlinecap
0 -2.5 m
0.663008 -2.5 1.29895 -2.236584 1.767767 -1.767767 c
2.236584 -1.29895 2.5 -0.663008 2.5 0 c
2.5 0.663008 2.236584 1.29895 1.767767 1.767767 c
1.29895 2.236584 0.663008 2.5 0 2.5 c
-0.663008 2.5 -1.29895 2.236584 -1.767767 1.767767 c
-2.236584 1.29895 -2.5 0.663008 -2.5 0 c
-2.5 -0.663008 -2.236584 -1.29895 -1.767767 -1.767767 c
-1.29895 -2.236584 -0.663008 -2.5 0 -2.5 c
cl

gsave
0.000 0.000 1.000 setrgbcolor
fill
grestore
stroke
grestore
} bind def
752.94 235.086 o
grestore
1.000 0.000 0.000 setrgbcolor
gsave
244 192.3 365.6 109.7 clipbox
/o {
gsave
newpath
translate
1.0 setlinewidth
1 setlinejoin
0 setlinecap
0 -2.5 m
0.663008 -2.5 1.29895 -2.236584 1.767767 -1.767767 c
2.236584 -1.29895 2.5 -0.663008 2.5 0 c
2.5 0.663008 2.236584 1.29895 1.767767 1.767767 c
1.29895 2.236584 0.663008 2.5 0 2.5 c
-0.663008 2.5 -1.29895 2.236584 -1.767767 1.767767 c
-2.236584 1.29895 -2.5 0.663008 -2.5 0 c
-2.5 -0.663008 -2.236584 -1.29895 -1.767767 -1.767767 c
-1.29895 -2.236584 -0.663008 -2.5 0 -2.5 c
cl

gsave
1.000 setgray
fill
grestore
stroke
grestore
} bind def
345.813 -6.56618 o
grestore
gsave
244 192.3 365.6 109.7 clipbox
/o {
gsave
newpath
translate
1.0 setlinewidth
1 setlinejoin
0 setlinecap
0 -2.5 m
0.663008 -2.5 1.29895 -2.236584 1.767767 -1.767767 c
2.236584 -1.29895 2.5 -0.663008 2.5 0 c
2.5 0.663008 2.236584 1.29895 1.767767 1.767767 c
1.29895 2.236584 0.663008 2.5 0 2.5 c
-0.663008 2.5 -1.29895 2.236584 -1.767767 1.767767 c
-2.236584 1.29895 -2.5 0.663008 -2.5 0 c
-2.5 -0.663008 -2.236584 -1.29895 -1.767767 -1.767767 c
-1.29895 -2.236584 -0.663008 -2.5 0 -2.5 c
cl

gsave
1.000 0.000 0.000 setrgbcolor
fill
grestore
stroke
grestore
} bind def
419.418 -4.31718 o
grestore
0.000 0.502 0.000 setrgbcolor
gsave
244 192.3 365.6 109.7 clipbox
/o {
gsave
newpath
translate
1.0 setlinewidth
1 setlinejoin
0 setlinecap
0 -2.5 m
0.663008 -2.5 1.29895 -2.236584 1.767767 -1.767767 c
2.236584 -1.29895 2.5 -0.663008 2.5 0 c
2.5 0.663008 2.236584 1.29895 1.767767 1.767767 c
1.29895 2.236584 0.663008 2.5 0 2.5 c
-0.663008 2.5 -1.29895 2.236584 -1.767767 1.767767 c
-2.236584 1.29895 -2.5 0.663008 -2.5 0 c
-2.5 -0.663008 -2.236584 -1.29895 -1.767767 -1.767767 c
-1.29895 -2.236584 -0.663008 -2.5 0 -2.5 c
cl

gsave
1.000 setgray
fill
grestore
stroke
grestore
} bind def
495.251 28.7707 o
grestore
0.000 setgray
gsave
244 192.3 365.6 109.7 clipbox
/o {
gsave
newpath
translate
1.0 setlinewidth
1 setlinejoin
0 setlinecap
0 -2.5 m
0.663008 -2.5 1.29895 -2.236584 1.767767 -1.767767 c
2.236584 -1.29895 2.5 -0.663008 2.5 0 c
2.5 0.663008 2.236584 1.29895 1.767767 1.767767 c
1.29895 2.236584 0.663008 2.5 0 2.5 c
-0.663008 2.5 -1.29895 2.236584 -1.767767 1.767767 c
-2.236584 1.29895 -2.5 0.663008 -2.5 0 c
-2.5 -0.663008 -2.236584 -1.29895 -1.767767 -1.767767 c
-1.29895 -2.236584 -0.663008 -2.5 0 -2.5 c
cl

gsave
1.000 setgray
fill
grestore
stroke
grestore
} bind def
299.056 -34.49 o
grestore
1.000 0.647 0.000 setrgbcolor
gsave
244 192.3 365.6 109.7 clipbox
/o {
gsave
newpath
translate
1.0 setlinewidth
1 setlinejoin
0 setlinecap
0 -2.5 m
0.663008 -2.5 1.29895 -2.236584 1.767767 -1.767767 c
2.236584 -1.29895 2.5 -0.663008 2.5 0 c
2.5 0.663008 2.236584 1.29895 1.767767 1.767767 c
1.29895 2.236584 0.663008 2.5 0 2.5 c
-0.663008 2.5 -1.29895 2.236584 -1.767767 1.767767 c
-2.236584 1.29895 -2.5 0.663008 -2.5 0 c
-2.5 -0.663008 -2.236584 -1.29895 -1.767767 -1.767767 c
-1.29895 -2.236584 -0.663008 -2.5 0 -2.5 c
cl

gsave
1.000 0.647 0.000 setrgbcolor
fill
grestore
stroke
grestore
} bind def
393.833 -1.12021 o
grestore
1.000 0.753 0.796 setrgbcolor
gsave
244 192.3 365.6 109.7 clipbox
/o {
gsave
newpath
translate
1.0 setlinewidth
1 setlinejoin
0 setlinecap
0 -2.5 m
0.663008 -2.5 1.29895 -2.236584 1.767767 -1.767767 c
2.236584 -1.29895 2.5 -0.663008 2.5 0 c
2.5 0.663008 2.236584 1.29895 1.767767 1.767767 c
1.29895 2.236584 0.663008 2.5 0 2.5 c
-0.663008 2.5 -1.29895 2.236584 -1.767767 1.767767 c
-2.236584 1.29895 -2.5 0.663008 -2.5 0 c
-2.5 -0.663008 -2.236584 -1.29895 -1.767767 -1.767767 c
-1.29895 -2.236584 -0.663008 -2.5 0 -2.5 c
cl

gsave
1.000 setgray
fill
grestore
stroke
grestore
} bind def
580.765 285.065 o
grestore
gsave
244 192.3 365.6 109.7 clipbox
/o {
gsave
newpath
translate
1.0 setlinewidth
1 setlinejoin
0 setlinecap
0 -2.5 m
0.663008 -2.5 1.29895 -2.236584 1.767767 -1.767767 c
2.236584 -1.29895 2.5 -0.663008 2.5 0 c
2.5 0.663008 2.236584 1.29895 1.767767 1.767767 c
1.29895 2.236584 0.663008 2.5 0 2.5 c
-0.663008 2.5 -1.29895 2.236584 -1.767767 1.767767 c
-2.236584 1.29895 -2.5 0.663008 -2.5 0 c
-2.5 -0.663008 -2.236584 -1.29895 -1.767767 -1.767767 c
-1.29895 -2.236584 -0.663008 -2.5 0 -2.5 c
cl

gsave
1.000 0.753 0.796 setrgbcolor
fill
grestore
stroke
grestore
} bind def
754.351 275.164 o
grestore
0 setlinejoin
1.000 0.647 0.000 setrgbcolor
gsave
244 192.3 365.6 109.7 clipbox
/o {
gsave
newpath
translate
1.0 setlinewidth
0 setlinejoin
0 setlinecap
0 2.5 m
-2.5 -2.5 l
2.5 -2.5 l
cl

gsave
1.000 0.647 0.000 setrgbcolor
fill
grestore
stroke
grestore
} bind def
439.722 202.275 o
grestore
0.000 0.545 0.545 setrgbcolor
gsave
244 192.3 365.6 109.7 clipbox
/o {
gsave
newpath
translate
1.0 setlinewidth
0 setlinejoin
0 setlinecap
0 2.5 m
-2.5 -2.5 l
2.5 -2.5 l
cl

gsave
0.000 0.545 0.545 setrgbcolor
fill
grestore
stroke
grestore
} bind def
477.671 236.515 o
grestore
0.502 0.000 0.502 setrgbcolor
gsave
244 192.3 365.6 109.7 clipbox
/o {
gsave
newpath
translate
1.0 setlinewidth
0 setlinejoin
0 setlinecap
0 2.5 m
-2.5 -2.5 l
2.5 -2.5 l
cl

gsave
0.502 0.000 0.502 setrgbcolor
fill
grestore
stroke
grestore
} bind def
533.819 269.996 o
grestore
2 setlinejoin
0.392 0.584 0.929 setrgbcolor
gsave
244 192.3 365.6 109.7 clipbox
/o {
gsave
newpath
translate
1.0 setlinewidth
2 setlinejoin
0 setlinecap
0 2.5 m
-0.561285 0.772542 l
-2.377641 0.772542 l
-0.908178 -0.295085 l
-1.469463 -2.022542 l
-0 -0.954915 l
1.469463 -2.022542 l
0.908178 -0.295085 l
2.377641 0.772542 l
0.561285 0.772542 l
cl

gsave
0.392 0.584 0.929 setrgbcolor
fill
grestore
stroke
grestore
} bind def
580.357 202.315 o
grestore
0.125 0.698 0.667 setrgbcolor
gsave
244 192.3 365.6 109.7 clipbox
/o {
gsave
newpath
translate
1.0 setlinewidth
2 setlinejoin
0 setlinecap
0 2.5 m
-0.561285 0.772542 l
-2.377641 0.772542 l
-0.908178 -0.295085 l
-1.469463 -2.022542 l
-0 -0.954915 l
1.469463 -2.022542 l
0.908178 -0.295085 l
2.377641 0.772542 l
0.561285 0.772542 l
cl

gsave
0.125 0.698 0.667 setrgbcolor
fill
grestore
stroke
grestore
} bind def
580.354 262.425 o
grestore
1.000 0.843 0.000 setrgbcolor
gsave
244 192.3 365.6 109.7 clipbox
/o {
gsave
newpath
translate
1.0 setlinewidth
2 setlinejoin
0 setlinecap
0 2.5 m
-0.561285 0.772542 l
-2.377641 0.772542 l
-0.908178 -0.295085 l
-1.469463 -2.022542 l
-0 -0.954915 l
1.469463 -2.022542 l
0.908178 -0.295085 l
2.377641 0.772542 l
0.561285 0.772542 l
cl

gsave
1.000 0.843 0.000 setrgbcolor
fill
grestore
stroke
grestore
} bind def
580.417 262.839 o
grestore
0.780 0.082 0.522 setrgbcolor
gsave
244 192.3 365.6 109.7 clipbox
/o {
gsave
newpath
translate
1.0 setlinewidth
2 setlinejoin
0 setlinecap
0 2.5 m
-0.561285 0.772542 l
-2.377641 0.772542 l
-0.908178 -0.295085 l
-1.469463 -2.022542 l
-0 -0.954915 l
1.469463 -2.022542 l
0.908178 -0.295085 l
2.377641 0.772542 l
0.561285 0.772542 l
cl

gsave
0.780 0.082 0.522 setrgbcolor
fill
grestore
stroke
grestore
} bind def
580.52 271.649 o
grestore
0 setlinejoin
2 setlinecap
0.000 setgray
gsave
365.57047 109.737148 m
365.57047 302.04 l
stroke
grestore
gsave
365.57047 302.04 m
609.54 302.04 l
stroke
grestore
gsave
365.57047 109.737148 m
609.54 109.737148 l
stroke
grestore
gsave
609.54 109.737148 m
609.54 302.04 l
stroke
grestore
0.500 setlinewidth
1 setlinejoin
0 setlinecap
gsave
/o {
gsave
newpath
translate
0.5 setlinewidth
1 setlinejoin
0 setlinecap
0 0 m
0 4 l

gsave
0.000 setgray
fill
grestore
stroke
grestore
} bind def
381.835 109.737 o
grestore
gsave
/o {
gsave
newpath
translate
0.5 setlinewidth
1 setlinejoin
0 setlinecap
0 0 m
0 -4 l

gsave
0.000 setgray
fill
grestore
stroke
grestore
} bind def
381.835 302.04 o
grestore
gsave
371.335105 97.534023 translate
0.000000 rotate
0.000000 0.000000 m /zero glyphshow
5.999985 0.000000 m /period glyphshow
8.999969 0.000000 m /one glyphshow
14.999954 0.000000 m /one glyphshow
grestore
gsave
/o {
gsave
newpath
translate
0.5 setlinewidth
1 setlinejoin
0 setlinecap
0 0 m
0 4 l

gsave
0.000 setgray
fill
grestore
stroke
grestore
} bind def
487.555 109.737 o
grestore
gsave
/o {
gsave
newpath
translate
0.5 setlinewidth
1 setlinejoin
0 setlinecap
0 0 m
0 -4 l

gsave
0.000 setgray
fill
grestore
stroke
grestore
} bind def
487.555 302.04 o
grestore
gsave
477.055235 97.534023 translate
0.000000 rotate
0.000000 0.000000 m /zero glyphshow
5.999985 0.000000 m /period glyphshow
8.999969 0.000000 m /one glyphshow
14.999954 0.000000 m /seven glyphshow
grestore
gsave
/o {
gsave
newpath
translate
0.5 setlinewidth
1 setlinejoin
0 setlinecap
0 0 m
0 4 l

gsave
0.000 setgray
fill
grestore
stroke
grestore
} bind def
593.275 109.737 o
grestore
gsave
/o {
gsave
newpath
translate
0.5 setlinewidth
1 setlinejoin
0 setlinecap
0 0 m
0 -4 l

gsave
0.000 setgray
fill
grestore
stroke
grestore
} bind def
593.275 302.04 o
grestore
gsave
582.775365 97.534023 translate
0.000000 rotate
0.000000 0.000000 m /zero glyphshow
5.999985 0.000000 m /period glyphshow
8.999969 0.000000 m /two glyphshow
14.999954 0.000000 m /four glyphshow
grestore
gsave
478.555235 76.268398 translate
0.000000 rotate
/STIXGeneral-Italic findfont
20.0 scalefont
setfont
0.000000 0.187500 moveto
/a glyphshow

/STIXGeneral-Regular findfont
14.0 scalefont
setfont
10.020004 -2.456250 moveto
/one glyphshow


grestore
gsave
/o {
gsave
newpath
translate
0.5 setlinewidth
1 setlinejoin
0 setlinecap
0 0 m
4 0 l

gsave
0.000 setgray
fill
grestore
stroke
grestore
} bind def
365.57 125.762 o
grestore
gsave
/o {
gsave
newpath
translate
0.5 setlinewidth
1 setlinejoin
0 setlinecap
0 0 m
-4 0 l

gsave
0.000 setgray
fill
grestore
stroke
grestore
} bind def
609.54 125.762 o
grestore
gsave
340.570470 122.965511 translate
0.000000 rotate
0.000000 0.000000 m /zero glyphshow
5.999985 0.000000 m /period glyphshow
8.999969 0.000000 m /one glyphshow
14.999954 0.000000 m /zero glyphshow
grestore
gsave
/o {
gsave
newpath
translate
0.5 setlinewidth
1 setlinejoin
0 setlinecap
0 0 m
4 0 l

gsave
0.000 setgray
fill
grestore
stroke
grestore
} bind def
365.57 205.889 o
grestore
gsave
/o {
gsave
newpath
translate
0.5 setlinewidth
1 setlinejoin
0 setlinecap
0 0 m
-4 0 l

gsave
0.000 setgray
fill
grestore
stroke
grestore
} bind def
609.54 205.889 o
grestore
gsave
340.570470 203.091699 translate
0.000000 rotate
0.000000 0.000000 m /zero glyphshow
5.999985 0.000000 m /period glyphshow
8.999969 0.000000 m /one glyphshow
14.999954 0.000000 m /five glyphshow
grestore
gsave
/o {
gsave
newpath
translate
0.5 setlinewidth
1 setlinejoin
0 setlinecap
0 0 m
4 0 l

gsave
0.000 setgray
fill
grestore
stroke
grestore
} bind def
365.57 286.015 o
grestore
gsave
/o {
gsave
newpath
translate
0.5 setlinewidth
1 setlinejoin
0 setlinecap
0 0 m
-4 0 l

gsave
0.000 setgray
fill
grestore
stroke
grestore
} bind def
609.54 286.015 o
grestore
gsave
340.570470 283.217887 translate
0.000000 rotate
0.000000 0.000000 m /zero glyphshow
5.999985 0.000000 m /period glyphshow
8.999969 0.000000 m /two glyphshow
14.999954 0.000000 m /zero glyphshow
grestore
gsave
331.226720 196.888574 translate
90.000000 rotate
/STIXGeneral-Italic findfont
20.0 scalefont
setfont
0.000000 0.187500 moveto
/a glyphshow

/STIXGeneral-Regular findfont
14.0 scalefont
setfont
10.020004 -2.456250 moveto
/two glyphshow


grestore
1.000 setlinewidth
gsave
/o {
gsave
newpath
translate
1.0 setlinewidth
1 setlinejoin
0 setlinecap
0 -2.5 m
0.663008 -2.5 1.29895 -2.236584 1.767767 -1.767767 c
2.236584 -1.29895 2.5 -0.663008 2.5 0 c
2.5 0.663008 2.236584 1.29895 1.767767 1.767767 c
1.29895 2.236584 0.663008 2.5 0 2.5 c
-0.663008 2.5 -1.29895 2.236584 -1.767767 1.767767 c
-2.236584 1.29895 -2.5 0.663008 -2.5 0 c
-2.5 -0.663008 -2.236584 -1.29895 -1.767767 -1.767767 c
-1.29895 -2.236584 -0.663008 -2.5 0 -2.5 c
cl

gsave
0.000 setgray
fill
grestore
stroke
grestore
} bind def
86.2672 42.3932 o
grestore
gsave
107.867188 38.193180 translate
0.000000 rotate
0.000000 0.000000 m /E glyphshow
7.331985 0.000000 m /Q glyphshow
15.995972 0.000000 m /zero glyphshow
grestore
0.000 0.000 1.000 setrgbcolor
gsave
/o {
gsave
newpath
translate
1.0 setlinewidth
1 setlinejoin
0 setlinecap
0 -2.5 m
0.663008 -2.5 1.29895 -2.236584 1.767767 -1.767767 c
2.236584 -1.29895 2.5 -0.663008 2.5 0 c
2.5 0.663008 2.236584 1.29895 1.767767 1.767767 c
1.29895 2.236584 0.663008 2.5 0 2.5 c
-0.663008 2.5 -1.29895 2.236584 -1.767767 1.767767 c
-2.236584 1.29895 -2.5 0.663008 -2.5 0 c
-2.5 -0.663008 -2.236584 -1.29895 -1.767767 -1.767767 c
-1.29895 -2.236584 -0.663008 -2.5 0 -2.5 c
cl

gsave
1.000 setgray
fill
grestore
stroke
grestore
} bind def
86.2672 25.3838 o
grestore
0.000 setgray
gsave
107.867188 21.183805 translate
0.000000 rotate
0.000000 0.000000 m /E glyphshow
7.331985 0.000000 m /Q glyphshow
15.995972 0.000000 m /one glyphshow
grestore
0.000 0.000 1.000 setrgbcolor
gsave
/o {
gsave
newpath
translate
1.0 setlinewidth
1 setlinejoin
0 setlinecap
0 -2.5 m
0.663008 -2.5 1.29895 -2.236584 1.767767 -1.767767 c
2.236584 -1.29895 2.5 -0.663008 2.5 0 c
2.5 0.663008 2.236584 1.29895 1.767767 1.767767 c
1.29895 2.236584 0.663008 2.5 0 2.5 c
-0.663008 2.5 -1.29895 2.236584 -1.767767 1.767767 c
-2.236584 1.29895 -2.5 0.663008 -2.5 0 c
-2.5 -0.663008 -2.236584 -1.29895 -1.767767 -1.767767 c
-1.29895 -2.236584 -0.663008 -2.5 0 -2.5 c
cl

gsave
0.000 0.000 1.000 setrgbcolor
fill
grestore
stroke
grestore
} bind def
86.2672 8.37443 o
grestore
0.000 setgray
gsave
107.867188 4.174430 translate
0.000000 rotate
0.000000 0.000000 m /E glyphshow
7.331985 0.000000 m /Q glyphshow
15.995972 0.000000 m /two glyphshow
grestore
1.000 0.000 0.000 setrgbcolor
gsave
/o {
gsave
newpath
translate
1.0 setlinewidth
1 setlinejoin
0 setlinecap
0 -2.5 m
0.663008 -2.5 1.29895 -2.236584 1.767767 -1.767767 c
2.236584 -1.29895 2.5 -0.663008 2.5 0 c
2.5 0.663008 2.236584 1.29895 1.767767 1.767767 c
1.29895 2.236584 0.663008 2.5 0 2.5 c
-0.663008 2.5 -1.29895 2.236584 -1.767767 1.767767 c
-2.236584 1.29895 -2.5 0.663008 -2.5 0 c
-2.5 -0.663008 -2.236584 -1.29895 -1.767767 -1.767767 c
-1.29895 -2.236584 -0.663008 -2.5 0 -2.5 c
cl

gsave
1.000 setgray
fill
grestore
stroke
grestore
} bind def
165.867 42.3932 o
grestore
0.000 setgray
gsave
187.467187 38.193180 translate
0.000000 rotate
0.000000 0.000000 m /E glyphshow
7.331985 0.000000 m /Q glyphshow
15.995972 0.000000 m /three glyphshow
grestore
1.000 0.000 0.000 setrgbcolor
gsave
/o {
gsave
newpath
translate
1.0 setlinewidth
1 setlinejoin
0 setlinecap
0 -2.5 m
0.663008 -2.5 1.29895 -2.236584 1.767767 -1.767767 c
2.236584 -1.29895 2.5 -0.663008 2.5 0 c
2.5 0.663008 2.236584 1.29895 1.767767 1.767767 c
1.29895 2.236584 0.663008 2.5 0 2.5 c
-0.663008 2.5 -1.29895 2.236584 -1.767767 1.767767 c
-2.236584 1.29895 -2.5 0.663008 -2.5 0 c
-2.5 -0.663008 -2.236584 -1.29895 -1.767767 -1.767767 c
-1.29895 -2.236584 -0.663008 -2.5 0 -2.5 c
cl

gsave
1.000 0.000 0.000 setrgbcolor
fill
grestore
stroke
grestore
} bind def
165.867 25.3838 o
grestore
0.000 setgray
gsave
187.467187 21.183805 translate
0.000000 rotate
0.000000 0.000000 m /E glyphshow
7.331985 0.000000 m /Q glyphshow
15.995972 0.000000 m /four glyphshow
grestore
0.000 0.502 0.000 setrgbcolor
gsave
/o {
gsave
newpath
translate
1.0 setlinewidth
1 setlinejoin
0 setlinecap
0 -2.5 m
0.663008 -2.5 1.29895 -2.236584 1.767767 -1.767767 c
2.236584 -1.29895 2.5 -0.663008 2.5 0 c
2.5 0.663008 2.236584 1.29895 1.767767 1.767767 c
1.29895 2.236584 0.663008 2.5 0 2.5 c
-0.663008 2.5 -1.29895 2.236584 -1.767767 1.767767 c
-2.236584 1.29895 -2.5 0.663008 -2.5 0 c
-2.5 -0.663008 -2.236584 -1.29895 -1.767767 -1.767767 c
-1.29895 -2.236584 -0.663008 -2.5 0 -2.5 c
cl

gsave
1.000 setgray
fill
grestore
stroke
grestore
} bind def
165.867 8.37443 o
grestore
0.000 setgray
gsave
187.467187 4.174430 translate
0.000000 rotate
0.000000 0.000000 m /E glyphshow
7.331985 0.000000 m /Q glyphshow
15.995972 0.000000 m /five glyphshow
grestore
gsave
/o {
gsave
newpath
translate
1.0 setlinewidth
1 setlinejoin
0 setlinecap
0 -2.5 m
0.663008 -2.5 1.29895 -2.236584 1.767767 -1.767767 c
2.236584 -1.29895 2.5 -0.663008 2.5 0 c
2.5 0.663008 2.236584 1.29895 1.767767 1.767767 c
1.29895 2.236584 0.663008 2.5 0 2.5 c
-0.663008 2.5 -1.29895 2.236584 -1.767767 1.767767 c
-2.236584 1.29895 -2.5 0.663008 -2.5 0 c
-2.5 -0.663008 -2.236584 -1.29895 -1.767767 -1.767767 c
-1.29895 -2.236584 -0.663008 -2.5 0 -2.5 c
cl

gsave
1.000 setgray
fill
grestore
stroke
grestore
} bind def
245.467 42.3932 o
grestore
gsave
267.067188 38.193180 translate
0.000000 rotate
0.000000 0.000000 m /E glyphshow
7.331985 0.000000 m /Q glyphshow
15.995972 0.000000 m /seven glyphshow
grestore
1.000 0.647 0.000 setrgbcolor
gsave
/o {
gsave
newpath
translate
1.0 setlinewidth
1 setlinejoin
0 setlinecap
0 -2.5 m
0.663008 -2.5 1.29895 -2.236584 1.767767 -1.767767 c
2.236584 -1.29895 2.5 -0.663008 2.5 0 c
2.5 0.663008 2.236584 1.29895 1.767767 1.767767 c
1.29895 2.236584 0.663008 2.5 0 2.5 c
-0.663008 2.5 -1.29895 2.236584 -1.767767 1.767767 c
-2.236584 1.29895 -2.5 0.663008 -2.5 0 c
-2.5 -0.663008 -2.236584 -1.29895 -1.767767 -1.767767 c
-1.29895 -2.236584 -0.663008 -2.5 0 -2.5 c
cl

gsave
1.000 0.647 0.000 setrgbcolor
fill
grestore
stroke
grestore
} bind def
245.467 25.3838 o
grestore
0.000 setgray
gsave
267.067188 21.183805 translate
0.000000 rotate
0.000000 0.000000 m /E glyphshow
7.331985 0.000000 m /Q glyphshow
15.995972 0.000000 m /nine glyphshow
grestore
1.000 0.753 0.796 setrgbcolor
gsave
/o {
gsave
newpath
translate
1.0 setlinewidth
1 setlinejoin
0 setlinecap
0 -2.5 m
0.663008 -2.5 1.29895 -2.236584 1.767767 -1.767767 c
2.236584 -1.29895 2.5 -0.663008 2.5 0 c
2.5 0.663008 2.236584 1.29895 1.767767 1.767767 c
1.29895 2.236584 0.663008 2.5 0 2.5 c
-0.663008 2.5 -1.29895 2.236584 -1.767767 1.767767 c
-2.236584 1.29895 -2.5 0.663008 -2.5 0 c
-2.5 -0.663008 -2.236584 -1.29895 -1.767767 -1.767767 c
-1.29895 -2.236584 -0.663008 -2.5 0 -2.5 c
cl

gsave
1.000 setgray
fill
grestore
stroke
grestore
} bind def
245.467 8.37443 o
grestore
0.000 setgray
gsave
267.067188 4.174430 translate
0.000000 rotate
0.000000 0.000000 m /E glyphshow
7.331985 0.000000 m /Q glyphshow
15.995972 0.000000 m /one glyphshow
21.995956 0.000000 m /zero glyphshow
grestore
1.000 0.753 0.796 setrgbcolor
gsave
/o {
gsave
newpath
translate
1.0 setlinewidth
1 setlinejoin
0 setlinecap
0 -2.5 m
0.663008 -2.5 1.29895 -2.236584 1.767767 -1.767767 c
2.236584 -1.29895 2.5 -0.663008 2.5 0 c
2.5 0.663008 2.236584 1.29895 1.767767 1.767767 c
1.29895 2.236584 0.663008 2.5 0 2.5 c
-0.663008 2.5 -1.29895 2.236584 -1.767767 1.767767 c
-2.236584 1.29895 -2.5 0.663008 -2.5 0 c
-2.5 -0.663008 -2.236584 -1.29895 -1.767767 -1.767767 c
-1.29895 -2.236584 -0.663008 -2.5 0 -2.5 c
cl

gsave
1.000 0.753 0.796 setrgbcolor
fill
grestore
stroke
grestore
} bind def
331.067 42.3932 o
grestore
0.000 setgray
gsave
352.667188 38.193180 translate
0.000000 rotate
0.000000 0.000000 m /E glyphshow
7.331985 0.000000 m /Q glyphshow
15.995972 0.000000 m /one glyphshow
21.995956 0.000000 m /one glyphshow
grestore
0 setlinejoin
1.000 0.647 0.000 setrgbcolor
gsave
/o {
gsave
newpath
translate
1.0 setlinewidth
0 setlinejoin
0 setlinecap
0 2.5 m
-2.5 -2.5 l
2.5 -2.5 l
cl

gsave
1.000 0.647 0.000 setrgbcolor
fill
grestore
stroke
grestore
} bind def
331.067 25.3838 o
grestore
0.000 setgray
gsave
352.667188 21.183805 translate
0.000000 rotate
0.000000 0.000000 m /E glyphshow
7.331985 0.000000 m /Q glyphshow
15.995972 0.000000 m /one glyphshow
21.995956 0.000000 m /two glyphshow
grestore
0.000 0.545 0.545 setrgbcolor
gsave
/o {
gsave
newpath
translate
1.0 setlinewidth
0 setlinejoin
0 setlinecap
0 2.5 m
-2.5 -2.5 l
2.5 -2.5 l
cl

gsave
0.000 0.545 0.545 setrgbcolor
fill
grestore
stroke
grestore
} bind def
331.067 8.37443 o
grestore
0.000 setgray
gsave
352.667188 4.174430 translate
0.000000 rotate
0.000000 0.000000 m /E glyphshow
7.331985 0.000000 m /Q glyphshow
15.995972 0.000000 m /one glyphshow
21.995956 0.000000 m /three glyphshow
grestore
0.502 0.000 0.502 setrgbcolor
gsave
/o {
gsave
newpath
translate
1.0 setlinewidth
0 setlinejoin
0 setlinecap
0 2.5 m
-2.5 -2.5 l
2.5 -2.5 l
cl

gsave
0.502 0.000 0.502 setrgbcolor
fill
grestore
stroke
grestore
} bind def
416.667 42.3932 o
grestore
0.000 setgray
gsave
438.267188 38.193180 translate
0.000000 rotate
0.000000 0.000000 m /E glyphshow
7.331985 0.000000 m /Q glyphshow
15.995972 0.000000 m /one glyphshow
21.995956 0.000000 m /five glyphshow
grestore
2 setlinejoin
0.392 0.584 0.929 setrgbcolor
gsave
/o {
gsave
newpath
translate
1.0 setlinewidth
2 setlinejoin
0 setlinecap
0 2.5 m
-0.561285 0.772542 l
-2.377641 0.772542 l
-0.908178 -0.295085 l
-1.469463 -2.022542 l
-0 -0.954915 l
1.469463 -2.022542 l
0.908178 -0.295085 l
2.377641 0.772542 l
0.561285 0.772542 l
cl

gsave
0.392 0.584 0.929 setrgbcolor
fill
grestore
stroke
grestore
} bind def
416.667 24.7838 o
grestore
0.000 setgray
gsave
438.267188 20.583805 translate
0.000000 rotate
/STIXGeneral-Regular findfont
12.0 scalefont
setfont
0.000000 0.890625 moveto
/uni03A0 glyphshow

/STIXGeneral-Regular findfont
8.399999999999999 scalefont
setfont
8.849377 -0.698438 moveto
/two glyphshow

/STIXGeneral-Regular findfont
12.0 scalefont
setfont
13.579054 0.890625 moveto
/parenleft glyphshow

17.575041 0.890625 moveto
/E glyphshow

24.907026 0.890625 moveto
/Q glyphshow

33.571012 0.890625 moveto
/one glyphshow

39.570997 0.890625 moveto
/zero glyphshow

45.570982 0.890625 moveto
/parenright glyphshow


grestore
0.125 0.698 0.667 setrgbcolor
gsave
/o {
gsave
newpath
translate
1.0 setlinewidth
2 setlinejoin
0 setlinecap
0 2.5 m
-0.561285 0.772542 l
-2.377641 0.772542 l
-0.908178 -0.295085 l
-1.469463 -2.022542 l
-0 -0.954915 l
1.469463 -2.022542 l
0.908178 -0.295085 l
2.377641 0.772542 l
0.561285 0.772542 l
cl

gsave
0.125 0.698 0.667 setrgbcolor
fill
grestore
stroke
grestore
} bind def
416.667 6.7838 o
grestore
0.000 setgray
gsave
438.267188 2.583805 translate
0.000000 rotate
/STIXGeneral-Regular findfont
12.0 scalefont
setfont
0.000000 0.890625 moveto
/uni03A0 glyphshow

/STIXGeneral-Regular findfont
8.399999999999999 scalefont
setfont
8.849377 -0.698438 moveto
/three glyphshow

/STIXGeneral-Regular findfont
12.0 scalefont
setfont
13.579054 0.890625 moveto
/parenleft glyphshow

17.575041 0.890625 moveto
/E glyphshow

24.907026 0.890625 moveto
/Q glyphshow

33.571012 0.890625 moveto
/one glyphshow

39.570997 0.890625 moveto
/zero glyphshow

45.570982 0.890625 moveto
/parenright glyphshow


grestore
1.000 0.843 0.000 setrgbcolor
gsave
/o {
gsave
newpath
translate
1.0 setlinewidth
2 setlinejoin
0 setlinecap
0 2.5 m
-0.561285 0.772542 l
-2.377641 0.772542 l
-0.908178 -0.295085 l
-1.469463 -2.022542 l
-0 -0.954915 l
1.469463 -2.022542 l
0.908178 -0.295085 l
2.377641 0.772542 l
0.561285 0.772542 l
cl

gsave
1.000 0.843 0.000 setrgbcolor
fill
grestore
stroke
grestore
} bind def
524.267 42.3932 o
grestore
0.000 setgray
gsave
545.867188 38.193180 translate
0.000000 rotate
/STIXGeneral-Regular findfont
12.0 scalefont
setfont
0.000000 0.890625 moveto
/uni03A0 glyphshow

/STIXGeneral-Regular findfont
8.399999999999999 scalefont
setfont
8.849377 -0.698438 moveto
/four glyphshow

/STIXGeneral-Regular findfont
12.0 scalefont
setfont
13.579054 0.890625 moveto
/parenleft glyphshow

17.575041 0.890625 moveto
/E glyphshow

24.907026 0.890625 moveto
/Q glyphshow

33.571012 0.890625 moveto
/one glyphshow

39.570997 0.890625 moveto
/zero glyphshow

45.570982 0.890625 moveto
/parenright glyphshow


grestore
0.780 0.082 0.522 setrgbcolor
gsave
/o {
gsave
newpath
translate
1.0 setlinewidth
2 setlinejoin
0 setlinecap
0 2.5 m
-0.561285 0.772542 l
-2.377641 0.772542 l
-0.908178 -0.295085 l
-1.469463 -2.022542 l
-0 -0.954915 l
1.469463 -2.022542 l
0.908178 -0.295085 l
2.377641 0.772542 l
0.561285 0.772542 l
cl

gsave
0.780 0.082 0.522 setrgbcolor
fill
grestore
stroke
grestore
} bind def
524.267 24.3932 o
grestore
0.000 setgray
gsave
545.867188 20.193180 translate
0.000000 rotate
/STIXGeneral-Regular findfont
12.0 scalefont
setfont
0.000000 0.890625 moveto
/uni03A0 glyphshow

/STIXGeneral-Regular findfont
8.399999999999999 scalefont
setfont
8.849377 -0.698438 moveto
/seven glyphshow

/STIXGeneral-Regular findfont
12.0 scalefont
setfont
13.579054 0.890625 moveto
/parenleft glyphshow

17.575041 0.890625 moveto
/E glyphshow

24.907026 0.890625 moveto
/Q glyphshow

33.571012 0.890625 moveto
/one glyphshow

39.570997 0.890625 moveto
/zero glyphshow

45.570982 0.890625 moveto
/parenright glyphshow


grestore

end
showpage
